EESchema Schematic File Version 4
LIBS:Main_Control_Board-cache
EELAYER 26 0
EELAYER END
$Descr A4 11693 8268
encoding utf-8
Sheet 20 7
Title "Main Sensors Board "
Date "2017-10-09"
Rev "0.3"
Comp "DROP Lab, University of Michigan"
Comment1 "Designed by Eduardo Iscar "
Comment2 ""
Comment3 ""
Comment4 ""
$EndDescr
$Comp
L Main_Control_Board-rescue:BSS138 Q1
U 1 1 57508F9D
P 4600 2900
AR Path="/57504772/57508F86/57508F9D" Ref="Q1"  Part="1" 
AR Path="/57504772/57509934/57508F9D" Ref="Q2"  Part="1" 
AR Path="/57504772/57509DD3/57508F9D" Ref="Q3"  Part="1" 
AR Path="/57504772/5750A01B/57508F9D" Ref="Q4"  Part="1" 
AR Path="/57504772/5750AF70/57508F9D" Ref="Q5"  Part="1" 
AR Path="/5755779A/5755893B/57508F9D" Ref="Q6"  Part="1" 
AR Path="/5755779A/57558B8B/57508F9D" Ref="Q7"  Part="1" 
AR Path="/5755779A/5755983D/57508F9D" Ref="Q8"  Part="1" 
AR Path="/5755779A/57559A4A/57508F9D" Ref="Q9"  Part="1" 
AR Path="/5755779A/5755DDF3/57508F9D" Ref="Q10"  Part="1" 
AR Path="/5755779A/5755E4CE/57508F9D" Ref="Q11"  Part="1" 
AR Path="/5755779A/5755E847/57508F9D" Ref="Q12"  Part="1" 
AR Path="/5755779A/5760E5E0/57508F9D" Ref="Q13"  Part="1" 
AR Path="/5755779A/5760E8D0/57508F9D" Ref="Q14"  Part="1" 
AR Path="/5755779A/5760EBC0/57508F9D" Ref="Q15"  Part="1" 
AR Path="/5755779A/5760EF88/57508F9D" Ref="Q16"  Part="1" 
AR Path="/5755779A/58ADECD0/57508F9D" Ref="Q17"  Part="1" 
F 0 "Q2" V 4500 3000 50  0000 L CNN
F 1 "BSS138" V 4850 2750 50  0000 L CNN
F 2 "Package_TO_SOT_SMD:SOT-23" V 4950 2750 50  0000 L CIN
F 3 "" H 4600 2900 50  0000 L CNN
F 4 "" H 4600 2900 50  0001 L CNN "FarnellLink"
F 5 "" H 4600 2900 50  0001 L CNN "DigiKeyLink"
F 6 "512-BSS138" H 4600 2900 50  0001 L CNN "MouserLink"
F 7 "Q2" H 4600 2900 50  0001 L CNN "InternalName"
F 8 "" H 4600 2900 50  0001 L CNN "FarnellLink"
F 9 "" H 4600 2900 50  0001 L CNN "DigiKeyLink"
F 10 "512-BSS138" H 4600 2900 50  0001 L CNN "MouserLink"
F 11 "Q2" H 4600 2900 50  0001 L CNN "InternalName"
F 12 "" H 4600 2900 50  0001 L CNN "FarnellLink"
F 13 "" H 4600 2900 50  0001 L CNN "DigiKeyLink"
F 14 "512-BSS138" H 4600 2900 50  0001 L CNN "MouserLink"
F 15 "Q2" H 4600 2900 50  0001 L CNN "InternalName"
F 16 "" H 4600 2900 50  0001 L CNN "FarnellLink"
F 17 "" H 4600 2900 50  0001 L CNN "DigiKeyLink"
F 18 "512-BSS138" H 4600 2900 50  0001 L CNN "MouserLink"
F 19 "Q2" H 4600 2900 50  0001 L CNN "InternalName"
F 20 "" H 4600 2900 50  0001 L CNN "FarnellLink"
F 21 "" H 4600 2900 50  0001 L CNN "DigiKeyLink"
F 22 "512-BSS138" H 4600 2900 50  0001 L CNN "MouserLink"
F 23 "Q2" H 4600 2900 50  0001 L CNN "InternalName"
F 24 "" H 4600 2900 50  0001 L CNN "FarnellLink"
F 25 "" H 4600 2900 50  0001 L CNN "DigiKeyLink"
F 26 "512-BSS138" H 4600 2900 50  0001 L CNN "MouserLink"
F 27 "Q2" H 4600 2900 50  0001 L CNN "InternalName"
F 28 "" H 4600 2900 50  0001 L CNN "FarnellLink"
F 29 "" H 4600 2900 50  0001 L CNN "DigiKeyLink"
F 30 "512-BSS138" H 4600 2900 50  0001 L CNN "MouserLink"
F 31 "Q2" H 4600 2900 50  0001 L CNN "InternalName"
F 32 "" H 4600 2900 50  0001 L CNN "FarnellLink"
F 33 "" H 4600 2900 50  0001 L CNN "DigiKeyLink"
F 34 "512-BSS138" H 4600 2900 50  0001 L CNN "MouserLink"
F 35 "Q2" H 4600 2900 50  0001 L CNN "InternalName"
F 36 "" H 4600 2900 50  0001 L CNN "FarnellLink"
F 37 "" H 4600 2900 50  0001 L CNN "DigiKeyLink"
F 38 "512-BSS138" H 4600 2900 50  0001 L CNN "MouserLink"
F 39 "Q2" H 4600 2900 50  0001 L CNN "InternalName"
F 40 "" H 4600 2900 50  0001 L CNN "FarnellLink"
F 41 "" H 4600 2900 50  0001 L CNN "DigiKeyLink"
F 42 "512-BSS138" H 4600 2900 50  0001 L CNN "MouserLink"
F 43 "Q2" H 4600 2900 50  0001 L CNN "InternalName"
F 44 "" H 4600 2900 50  0001 L CNN "FarnellLink"
F 45 "" H 4600 2900 50  0001 L CNN "DigiKeyLink"
F 46 "512-BSS138" H 4600 2900 50  0001 L CNN "MouserLink"
F 47 "Q2" H 4600 2900 50  0001 L CNN "InternalName"
F 48 "" H 4600 2900 50  0001 L CNN "FarnellLink"
F 49 "" H 4600 2900 50  0001 L CNN "DigiKeyLink"
F 50 "512-BSS138" H 4600 2900 50  0001 L CNN "MouserLink"
F 51 "Q2" H 4600 2900 50  0001 L CNN "InternalName"
F 52 "" H 4600 2900 50  0001 L CNN "FarnellLink"
F 53 "" H 4600 2900 50  0001 L CNN "DigiKeyLink"
F 54 "512-BSS138" H 4600 2900 50  0001 L CNN "MouserLink"
F 55 "Q2" H 4600 2900 50  0001 L CNN "InternalName"
F 56 "" H 4600 2900 50  0001 L CNN "FarnellLink"
F 57 "" H 4600 2900 50  0001 L CNN "DigiKeyLink"
F 58 "512-BSS138" H 4600 2900 50  0001 L CNN "MouserLink"
F 59 "Q2" H 4600 2900 50  0001 L CNN "InternalName"
F 60 "" H 4600 2900 50  0001 L CNN "FarnellLink"
F 61 "" H 4600 2900 50  0001 L CNN "DigiKeyLink"
F 62 "512-BSS138" H 4600 2900 50  0001 L CNN "MouserLink"
F 63 "Q2" H 4600 2900 50  0001 L CNN "InternalName"
F 64 "" H 4600 2900 50  0001 L CNN "FarnellLink"
F 65 "" H 4600 2900 50  0001 L CNN "DigiKeyLink"
F 66 "512-BSS138" H 4600 2900 50  0001 L CNN "MouserLink"
F 67 "Q2" H 4600 2900 50  0001 L CNN "InternalName"
F 68 "" H 4600 2900 50  0001 L CNN "FarnellLink"
F 69 "" H 4600 2900 50  0001 L CNN "DigiKeyLink"
F 70 "512-BSS138" H 4600 2900 50  0001 L CNN "MouserLink"
F 71 "Q2" H 4600 2900 50  0001 L CNN "InternalName"
F 72 "" H 4600 2900 50  0001 L CNN "FarnellLink"
F 73 "" H 4600 2900 50  0001 L CNN "DigiKeyLink"
F 74 "512-BSS138" H 4600 2900 50  0001 L CNN "MouserLink"
F 75 "Q2" H 4600 2900 50  0001 L CNN "InternalName"
F 76 "" H 4600 2900 50  0001 L CNN "FarnellLink"
F 77 "" H 4600 2900 50  0001 L CNN "DigiKeyLink"
F 78 "512-BSS138" H 4600 2900 50  0001 L CNN "MouserLink"
F 79 "Q2" H 4600 2900 50  0001 L CNN "InternalName"
F 80 "" H 4600 2900 50  0001 L CNN "FarnellLink"
F 81 "" H 4600 2900 50  0001 L CNN "DigiKeyLink"
F 82 "512-BSS138" H 4600 2900 50  0001 L CNN "MouserLink"
F 83 "Q2" H 4600 2900 50  0001 L CNN "InternalName"
F 84 "" H 4600 2900 50  0001 L CNN "FarnellLink"
F 85 "" H 4600 2900 50  0001 L CNN "DigiKeyLink"
F 86 "512-BSS138" H 4600 2900 50  0001 L CNN "MouserLink"
F 87 "Q2" H 4600 2900 50  0001 L CNN "InternalName"
F 88 "" H 4600 2900 50  0001 L CNN "FarnellLink"
F 89 "" H 4600 2900 50  0001 L CNN "DigiKeyLink"
F 90 "512-BSS138" H 4600 2900 50  0001 L CNN "MouserLink"
F 91 "Q2" H 4600 2900 50  0001 L CNN "InternalName"
F 92 "" H 4600 2900 50  0001 L CNN "FarnellLink"
F 93 "" H 4600 2900 50  0001 L CNN "DigiKeyLink"
F 94 "512-BSS138" H 4600 2900 50  0001 L CNN "MouserLink"
F 95 "Q2" H 4600 2900 50  0001 L CNN "InternalName"
F 96 "" H 4600 2900 50  0001 L CNN "FarnellLink"
F 97 "" H 4600 2900 50  0001 L CNN "DigiKeyLink"
F 98 "512-BSS138" H 4600 2900 50  0001 L CNN "MouserLink"
F 99 "Q2" H 4600 2900 50  0001 L CNN "InternalName"
F 100 "" H 4600 2900 50  0001 L CNN "FarnellLink"
F 101 "" H 4600 2900 50  0001 L CNN "DigiKeyLink"
F 102 "512-BSS138" H 4600 2900 50  0001 L CNN "MouserLink"
F 103 "Q2" H 4600 2900 50  0001 L CNN "InternalName"
F 104 "" H 4600 2900 50  0001 L CNN "FarnellLink"
F 105 "" H 4600 2900 50  0001 L CNN "DigiKeyLink"
F 106 "512-BSS138" H 4600 2900 50  0001 L CNN "MouserLink"
F 107 "Q2" H 4600 2900 50  0001 L CNN "InternalName"
F 108 "" H 4600 2900 50  0001 L CNN "FarnellLink"
F 109 "" H 4600 2900 50  0001 L CNN "DigiKeyLink"
F 110 "512-BSS138" H 4600 2900 50  0001 L CNN "MouserLink"
F 111 "Q2" H 4600 2900 50  0001 L CNN "InternalName"
F 112 "" H 4600 2900 50  0001 L CNN "FarnellLink"
F 113 "" H 4600 2900 50  0001 L CNN "DigiKeyLink"
F 114 "512-BSS138" H 4600 2900 50  0001 L CNN "MouserLink"
F 115 "Q2" H 4600 2900 50  0001 L CNN "InternalName"
F 116 "" H 4600 2900 50  0001 L CNN "FarnellLink"
F 117 "" H 4600 2900 50  0001 L CNN "DigiKeyLink"
F 118 "512-BSS138" H 4600 2900 50  0001 L CNN "MouserLink"
F 119 "Q2" H 4600 2900 50  0001 L CNN "InternalName"
F 120 "" H 4600 2900 50  0001 L CNN "FarnellLink"
F 121 "" H 4600 2900 50  0001 L CNN "DigiKeyLink"
F 122 "512-BSS138" H 4600 2900 50  0001 L CNN "MouserLink"
F 123 "Q2" H 4600 2900 50  0001 L CNN "InternalName"
F 124 "" H 4600 2900 50  0001 L CNN "FarnellLink"
F 125 "" H 4600 2900 50  0001 L CNN "DigiKeyLink"
F 126 "512-BSS138" H 4600 2900 50  0001 L CNN "MouserLink"
F 127 "Q2" H 4600 2900 50  0001 L CNN "InternalName"
F 128 "" H 4600 2900 50  0001 L CNN "FarnellLink"
F 129 "" H 4600 2900 50  0001 L CNN "DigiKeyLink"
F 130 "512-BSS138" H 4600 2900 50  0001 L CNN "MouserLink"
F 131 "Q2" H 4600 2900 50  0001 L CNN "InternalName"
F 132 "" H 4600 2900 50  0001 L CNN "FarnellLink"
F 133 "" H 4600 2900 50  0001 L CNN "DigiKeyLink"
F 134 "512-BSS138" H 4600 2900 50  0001 L CNN "MouserLink"
F 135 "Q2" H 4600 2900 50  0001 L CNN "InternalName"
F 136 "" H 4600 2900 50  0001 L CNN "FarnellLink"
F 137 "" H 4600 2900 50  0001 L CNN "DigiKeyLink"
F 138 "512-BSS138" H 4600 2900 50  0001 L CNN "MouserLink"
F 139 "Q2" H 4600 2900 50  0001 L CNN "InternalName"
	1    4600 2900
	0    1    1    0   
$EndComp
$Comp
L Main_Control_Board-rescue:R R11
U 1 1 57508FF4
P 4100 2650
AR Path="/57504772/57508F86/57508FF4" Ref="R11"  Part="1" 
AR Path="/57504772/57509934/57508FF4" Ref="R13"  Part="1" 
AR Path="/57504772/57509DD3/57508FF4" Ref="R15"  Part="1" 
AR Path="/57504772/5750A01B/57508FF4" Ref="R17"  Part="1" 
AR Path="/57504772/5750AF70/57508FF4" Ref="R19"  Part="1" 
AR Path="/5755779A/5755893B/57508FF4" Ref="R21"  Part="1" 
AR Path="/5755779A/57558B8B/57508FF4" Ref="R23"  Part="1" 
AR Path="/5755779A/5755983D/57508FF4" Ref="R25"  Part="1" 
AR Path="/5755779A/57559A4A/57508FF4" Ref="R27"  Part="1" 
AR Path="/5755779A/5755DDF3/57508FF4" Ref="R29"  Part="1" 
AR Path="/5755779A/5755E4CE/57508FF4" Ref="R31"  Part="1" 
AR Path="/5755779A/5755E847/57508FF4" Ref="R33"  Part="1" 
AR Path="/5755779A/5760E5E0/57508FF4" Ref="R35"  Part="1" 
AR Path="/5755779A/5760E8D0/57508FF4" Ref="R37"  Part="1" 
AR Path="/5755779A/5760EBC0/57508FF4" Ref="R39"  Part="1" 
AR Path="/5755779A/5760EF88/57508FF4" Ref="R41"  Part="1" 
AR Path="/5755779A/58ADECD0/57508FF4" Ref="R1"  Part="1" 
F 0 "R13" V 4180 2650 50  0000 C CNN
F 1 "10k" V 4100 2650 50  0000 C CNN
F 2 "Resistor_SMD:R_0603_1608Metric_Pad1.05x0.95mm_HandSolder" V 4030 2650 50  0001 C CNN
F 3 "" H 4100 2650 50  0000 C CNN
F 4 "" H 4100 2650 50  0001 C CNN "FarnellLink"
F 5 "" H 4100 2650 50  0001 C CNN "DigiKeyLink"
F 6 "755-ESR03EZPJ103" H 4100 2650 50  0001 C CNN "MouserLink"
F 7 "R6" H 4100 2650 50  0001 C CNN "InternalName"
F 8 "" H 4100 2650 50  0001 C CNN "FarnellLink"
F 9 "" H 4100 2650 50  0001 C CNN "DigiKeyLink"
F 10 "755-ESR03EZPJ103" H 4100 2650 50  0001 C CNN "MouserLink"
F 11 "R6" H 4100 2650 50  0001 C CNN "InternalName"
F 12 "" H 4100 2650 50  0001 C CNN "FarnellLink"
F 13 "" H 4100 2650 50  0001 C CNN "DigiKeyLink"
F 14 "755-ESR03EZPJ103" H 4100 2650 50  0001 C CNN "MouserLink"
F 15 "R6" H 4100 2650 50  0001 C CNN "InternalName"
F 16 "" H 4100 2650 50  0001 C CNN "FarnellLink"
F 17 "" H 4100 2650 50  0001 C CNN "DigiKeyLink"
F 18 "755-ESR03EZPJ103" H 4100 2650 50  0001 C CNN "MouserLink"
F 19 "R6" H 4100 2650 50  0001 C CNN "InternalName"
F 20 "" H 4100 2650 50  0001 C CNN "FarnellLink"
F 21 "" H 4100 2650 50  0001 C CNN "DigiKeyLink"
F 22 "755-ESR03EZPJ103" H 4100 2650 50  0001 C CNN "MouserLink"
F 23 "R6" H 4100 2650 50  0001 C CNN "InternalName"
F 24 "" H 4100 2650 50  0001 C CNN "FarnellLink"
F 25 "" H 4100 2650 50  0001 C CNN "DigiKeyLink"
F 26 "755-ESR03EZPJ103" H 4100 2650 50  0001 C CNN "MouserLink"
F 27 "R6" H 4100 2650 50  0001 C CNN "InternalName"
F 28 "" H 4100 2650 50  0001 C CNN "FarnellLink"
F 29 "" H 4100 2650 50  0001 C CNN "DigiKeyLink"
F 30 "755-ESR03EZPJ103" H 4100 2650 50  0001 C CNN "MouserLink"
F 31 "R6" H 4100 2650 50  0001 C CNN "InternalName"
F 32 "" H 4100 2650 50  0001 C CNN "FarnellLink"
F 33 "" H 4100 2650 50  0001 C CNN "DigiKeyLink"
F 34 "755-ESR03EZPJ103" H 4100 2650 50  0001 C CNN "MouserLink"
F 35 "R6" H 4100 2650 50  0001 C CNN "InternalName"
F 36 "" H 4100 2650 50  0001 C CNN "FarnellLink"
F 37 "" H 4100 2650 50  0001 C CNN "DigiKeyLink"
F 38 "755-ESR03EZPJ103" H 4100 2650 50  0001 C CNN "MouserLink"
F 39 "R6" H 4100 2650 50  0001 C CNN "InternalName"
F 40 "" H 4100 2650 50  0001 C CNN "FarnellLink"
F 41 "" H 4100 2650 50  0001 C CNN "DigiKeyLink"
F 42 "755-ESR03EZPJ103" H 4100 2650 50  0001 C CNN "MouserLink"
F 43 "R6" H 4100 2650 50  0001 C CNN "InternalName"
F 44 "" H 4100 2650 50  0001 C CNN "FarnellLink"
F 45 "" H 4100 2650 50  0001 C CNN "DigiKeyLink"
F 46 "755-ESR03EZPJ103" H 4100 2650 50  0001 C CNN "MouserLink"
F 47 "R6" H 4100 2650 50  0001 C CNN "InternalName"
F 48 "" H 4100 2650 50  0001 C CNN "FarnellLink"
F 49 "" H 4100 2650 50  0001 C CNN "DigiKeyLink"
F 50 "755-ESR03EZPJ103" H 4100 2650 50  0001 C CNN "MouserLink"
F 51 "R6" H 4100 2650 50  0001 C CNN "InternalName"
F 52 "" H 4100 2650 50  0001 C CNN "FarnellLink"
F 53 "" H 4100 2650 50  0001 C CNN "DigiKeyLink"
F 54 "755-ESR03EZPJ103" H 4100 2650 50  0001 C CNN "MouserLink"
F 55 "R6" H 4100 2650 50  0001 C CNN "InternalName"
F 56 "" H 4100 2650 50  0001 C CNN "FarnellLink"
F 57 "" H 4100 2650 50  0001 C CNN "DigiKeyLink"
F 58 "755-ESR03EZPJ103" H 4100 2650 50  0001 C CNN "MouserLink"
F 59 "R6" H 4100 2650 50  0001 C CNN "InternalName"
F 60 "" H 4100 2650 50  0001 C CNN "FarnellLink"
F 61 "" H 4100 2650 50  0001 C CNN "DigiKeyLink"
F 62 "755-ESR03EZPJ103" H 4100 2650 50  0001 C CNN "MouserLink"
F 63 "R6" H 4100 2650 50  0001 C CNN "InternalName"
F 64 "" H 4100 2650 50  0001 C CNN "FarnellLink"
F 65 "" H 4100 2650 50  0001 C CNN "DigiKeyLink"
F 66 "755-ESR03EZPJ103" H 4100 2650 50  0001 C CNN "MouserLink"
F 67 "R6" H 4100 2650 50  0001 C CNN "InternalName"
F 68 "" H 4100 2650 50  0001 C CNN "FarnellLink"
F 69 "" H 4100 2650 50  0001 C CNN "DigiKeyLink"
F 70 "755-ESR03EZPJ103" H 4100 2650 50  0001 C CNN "MouserLink"
F 71 "R6" H 4100 2650 50  0001 C CNN "InternalName"
F 72 "" H 4100 2650 50  0001 C CNN "FarnellLink"
F 73 "" H 4100 2650 50  0001 C CNN "DigiKeyLink"
F 74 "755-ESR03EZPJ103" H 4100 2650 50  0001 C CNN "MouserLink"
F 75 "R6" H 4100 2650 50  0001 C CNN "InternalName"
F 76 "" H 4100 2650 50  0001 C CNN "FarnellLink"
F 77 "" H 4100 2650 50  0001 C CNN "DigiKeyLink"
F 78 "755-ESR03EZPJ103" H 4100 2650 50  0001 C CNN "MouserLink"
F 79 "R6" H 4100 2650 50  0001 C CNN "InternalName"
F 80 "" H 4100 2650 50  0001 C CNN "FarnellLink"
F 81 "" H 4100 2650 50  0001 C CNN "DigiKeyLink"
F 82 "755-ESR03EZPJ103" H 4100 2650 50  0001 C CNN "MouserLink"
F 83 "R6" H 4100 2650 50  0001 C CNN "InternalName"
F 84 "" H 4100 2650 50  0001 C CNN "FarnellLink"
F 85 "" H 4100 2650 50  0001 C CNN "DigiKeyLink"
F 86 "755-ESR03EZPJ103" H 4100 2650 50  0001 C CNN "MouserLink"
F 87 "R6" H 4100 2650 50  0001 C CNN "InternalName"
F 88 "" H 4100 2650 50  0001 C CNN "FarnellLink"
F 89 "" H 4100 2650 50  0001 C CNN "DigiKeyLink"
F 90 "755-ESR03EZPJ103" H 4100 2650 50  0001 C CNN "MouserLink"
F 91 "R6" H 4100 2650 50  0001 C CNN "InternalName"
F 92 "" H 4100 2650 50  0001 C CNN "FarnellLink"
F 93 "" H 4100 2650 50  0001 C CNN "DigiKeyLink"
F 94 "755-ESR03EZPJ103" H 4100 2650 50  0001 C CNN "MouserLink"
F 95 "R6" H 4100 2650 50  0001 C CNN "InternalName"
F 96 "" H 4100 2650 50  0001 C CNN "FarnellLink"
F 97 "" H 4100 2650 50  0001 C CNN "DigiKeyLink"
F 98 "755-ESR03EZPJ103" H 4100 2650 50  0001 C CNN "MouserLink"
F 99 "R6" H 4100 2650 50  0001 C CNN "InternalName"
F 100 "" H 4100 2650 50  0001 C CNN "FarnellLink"
F 101 "" H 4100 2650 50  0001 C CNN "DigiKeyLink"
F 102 "755-ESR03EZPJ103" H 4100 2650 50  0001 C CNN "MouserLink"
F 103 "R6" H 4100 2650 50  0001 C CNN "InternalName"
F 104 "" H 4100 2650 50  0001 C CNN "FarnellLink"
F 105 "" H 4100 2650 50  0001 C CNN "DigiKeyLink"
F 106 "755-ESR03EZPJ103" H 4100 2650 50  0001 C CNN "MouserLink"
F 107 "R6" H 4100 2650 50  0001 C CNN "InternalName"
F 108 "" H 4100 2650 50  0001 C CNN "FarnellLink"
F 109 "" H 4100 2650 50  0001 C CNN "DigiKeyLink"
F 110 "755-ESR03EZPJ103" H 4100 2650 50  0001 C CNN "MouserLink"
F 111 "R6" H 4100 2650 50  0001 C CNN "InternalName"
F 112 "" H 4100 2650 50  0001 C CNN "FarnellLink"
F 113 "" H 4100 2650 50  0001 C CNN "DigiKeyLink"
F 114 "755-ESR03EZPJ103" H 4100 2650 50  0001 C CNN "MouserLink"
F 115 "R6" H 4100 2650 50  0001 C CNN "InternalName"
F 116 "" H 4100 2650 50  0001 C CNN "FarnellLink"
F 117 "" H 4100 2650 50  0001 C CNN "DigiKeyLink"
F 118 "755-ESR03EZPJ103" H 4100 2650 50  0001 C CNN "MouserLink"
F 119 "R6" H 4100 2650 50  0001 C CNN "InternalName"
F 120 "" H 4100 2650 50  0001 C CNN "FarnellLink"
F 121 "" H 4100 2650 50  0001 C CNN "DigiKeyLink"
F 122 "755-ESR03EZPJ103" H 4100 2650 50  0001 C CNN "MouserLink"
F 123 "R6" H 4100 2650 50  0001 C CNN "InternalName"
F 124 "" H 4100 2650 50  0001 C CNN "FarnellLink"
F 125 "" H 4100 2650 50  0001 C CNN "DigiKeyLink"
F 126 "755-ESR03EZPJ103" H 4100 2650 50  0001 C CNN "MouserLink"
F 127 "R6" H 4100 2650 50  0001 C CNN "InternalName"
F 128 "" H 4100 2650 50  0001 C CNN "FarnellLink"
F 129 "" H 4100 2650 50  0001 C CNN "DigiKeyLink"
F 130 "755-ESR03EZPJ103" H 4100 2650 50  0001 C CNN "MouserLink"
F 131 "R6" H 4100 2650 50  0001 C CNN "InternalName"
F 132 "" H 4100 2650 50  0001 C CNN "FarnellLink"
F 133 "" H 4100 2650 50  0001 C CNN "DigiKeyLink"
F 134 "755-ESR03EZPJ103" H 4100 2650 50  0001 C CNN "MouserLink"
F 135 "R6" H 4100 2650 50  0001 C CNN "InternalName"
F 136 "" H 4100 2650 50  0001 C CNN "FarnellLink"
F 137 "" H 4100 2650 50  0001 C CNN "DigiKeyLink"
F 138 "755-ESR03EZPJ103" H 4100 2650 50  0001 C CNN "MouserLink"
F 139 "R6" H 4100 2650 50  0001 C CNN "InternalName"
	1    4100 2650
	1    0    0    -1  
$EndComp
$Comp
L Main_Control_Board-rescue:R R12
U 1 1 57509025
P 5200 2650
AR Path="/57504772/57508F86/57509025" Ref="R12"  Part="1" 
AR Path="/57504772/57509934/57509025" Ref="R14"  Part="1" 
AR Path="/57504772/57509DD3/57509025" Ref="R16"  Part="1" 
AR Path="/57504772/5750A01B/57509025" Ref="R18"  Part="1" 
AR Path="/57504772/5750AF70/57509025" Ref="R20"  Part="1" 
AR Path="/5755779A/5755893B/57509025" Ref="R22"  Part="1" 
AR Path="/5755779A/57558B8B/57509025" Ref="R24"  Part="1" 
AR Path="/5755779A/5755983D/57509025" Ref="R26"  Part="1" 
AR Path="/5755779A/57559A4A/57509025" Ref="R28"  Part="1" 
AR Path="/5755779A/5755DDF3/57509025" Ref="R30"  Part="1" 
AR Path="/5755779A/5755E4CE/57509025" Ref="R32"  Part="1" 
AR Path="/5755779A/5755E847/57509025" Ref="R34"  Part="1" 
AR Path="/5755779A/5760E5E0/57509025" Ref="R36"  Part="1" 
AR Path="/5755779A/5760E8D0/57509025" Ref="R38"  Part="1" 
AR Path="/5755779A/5760EBC0/57509025" Ref="R40"  Part="1" 
AR Path="/5755779A/5760EF88/57509025" Ref="R42"  Part="1" 
AR Path="/5755779A/58ADECD0/57509025" Ref="R4"  Part="1" 
F 0 "R14" V 5280 2650 50  0000 C CNN
F 1 "10k" V 5200 2650 50  0000 C CNN
F 2 "Resistor_SMD:R_0603_1608Metric_Pad1.05x0.95mm_HandSolder" V 5130 2650 50  0001 C CNN
F 3 "" H 5200 2650 50  0000 C CNN
F 4 "" H 5200 2650 50  0001 C CNN "FarnellLink"
F 5 "" H 5200 2650 50  0001 C CNN "DigiKeyLink"
F 6 "755-ESR03EZPJ103" H 5200 2650 50  0001 C CNN "MouserLink"
F 7 "R6" H 5200 2650 50  0001 C CNN "InternalName"
F 8 "" H 5200 2650 50  0001 C CNN "FarnellLink"
F 9 "" H 5200 2650 50  0001 C CNN "DigiKeyLink"
F 10 "755-ESR03EZPJ103" H 5200 2650 50  0001 C CNN "MouserLink"
F 11 "R6" H 5200 2650 50  0001 C CNN "InternalName"
F 12 "" H 5200 2650 50  0001 C CNN "FarnellLink"
F 13 "" H 5200 2650 50  0001 C CNN "DigiKeyLink"
F 14 "755-ESR03EZPJ103" H 5200 2650 50  0001 C CNN "MouserLink"
F 15 "R6" H 5200 2650 50  0001 C CNN "InternalName"
F 16 "" H 5200 2650 50  0001 C CNN "FarnellLink"
F 17 "" H 5200 2650 50  0001 C CNN "DigiKeyLink"
F 18 "755-ESR03EZPJ103" H 5200 2650 50  0001 C CNN "MouserLink"
F 19 "R6" H 5200 2650 50  0001 C CNN "InternalName"
F 20 "" H 5200 2650 50  0001 C CNN "FarnellLink"
F 21 "" H 5200 2650 50  0001 C CNN "DigiKeyLink"
F 22 "755-ESR03EZPJ103" H 5200 2650 50  0001 C CNN "MouserLink"
F 23 "R6" H 5200 2650 50  0001 C CNN "InternalName"
F 24 "" H 5200 2650 50  0001 C CNN "FarnellLink"
F 25 "" H 5200 2650 50  0001 C CNN "DigiKeyLink"
F 26 "755-ESR03EZPJ103" H 5200 2650 50  0001 C CNN "MouserLink"
F 27 "R6" H 5200 2650 50  0001 C CNN "InternalName"
F 28 "" H 5200 2650 50  0001 C CNN "FarnellLink"
F 29 "" H 5200 2650 50  0001 C CNN "DigiKeyLink"
F 30 "755-ESR03EZPJ103" H 5200 2650 50  0001 C CNN "MouserLink"
F 31 "R6" H 5200 2650 50  0001 C CNN "InternalName"
F 32 "" H 5200 2650 50  0001 C CNN "FarnellLink"
F 33 "" H 5200 2650 50  0001 C CNN "DigiKeyLink"
F 34 "755-ESR03EZPJ103" H 5200 2650 50  0001 C CNN "MouserLink"
F 35 "R6" H 5200 2650 50  0001 C CNN "InternalName"
F 36 "" H 5200 2650 50  0001 C CNN "FarnellLink"
F 37 "" H 5200 2650 50  0001 C CNN "DigiKeyLink"
F 38 "755-ESR03EZPJ103" H 5200 2650 50  0001 C CNN "MouserLink"
F 39 "R6" H 5200 2650 50  0001 C CNN "InternalName"
F 40 "" H 5200 2650 50  0001 C CNN "FarnellLink"
F 41 "" H 5200 2650 50  0001 C CNN "DigiKeyLink"
F 42 "755-ESR03EZPJ103" H 5200 2650 50  0001 C CNN "MouserLink"
F 43 "R6" H 5200 2650 50  0001 C CNN "InternalName"
F 44 "" H 5200 2650 50  0001 C CNN "FarnellLink"
F 45 "" H 5200 2650 50  0001 C CNN "DigiKeyLink"
F 46 "755-ESR03EZPJ103" H 5200 2650 50  0001 C CNN "MouserLink"
F 47 "R6" H 5200 2650 50  0001 C CNN "InternalName"
F 48 "" H 5200 2650 50  0001 C CNN "FarnellLink"
F 49 "" H 5200 2650 50  0001 C CNN "DigiKeyLink"
F 50 "755-ESR03EZPJ103" H 5200 2650 50  0001 C CNN "MouserLink"
F 51 "R6" H 5200 2650 50  0001 C CNN "InternalName"
F 52 "" H 5200 2650 50  0001 C CNN "FarnellLink"
F 53 "" H 5200 2650 50  0001 C CNN "DigiKeyLink"
F 54 "755-ESR03EZPJ103" H 5200 2650 50  0001 C CNN "MouserLink"
F 55 "R6" H 5200 2650 50  0001 C CNN "InternalName"
F 56 "" H 5200 2650 50  0001 C CNN "FarnellLink"
F 57 "" H 5200 2650 50  0001 C CNN "DigiKeyLink"
F 58 "755-ESR03EZPJ103" H 5200 2650 50  0001 C CNN "MouserLink"
F 59 "R6" H 5200 2650 50  0001 C CNN "InternalName"
F 60 "" H 5200 2650 50  0001 C CNN "FarnellLink"
F 61 "" H 5200 2650 50  0001 C CNN "DigiKeyLink"
F 62 "755-ESR03EZPJ103" H 5200 2650 50  0001 C CNN "MouserLink"
F 63 "R6" H 5200 2650 50  0001 C CNN "InternalName"
F 64 "" H 5200 2650 50  0001 C CNN "FarnellLink"
F 65 "" H 5200 2650 50  0001 C CNN "DigiKeyLink"
F 66 "755-ESR03EZPJ103" H 5200 2650 50  0001 C CNN "MouserLink"
F 67 "R6" H 5200 2650 50  0001 C CNN "InternalName"
F 68 "" H 5200 2650 50  0001 C CNN "FarnellLink"
F 69 "" H 5200 2650 50  0001 C CNN "DigiKeyLink"
F 70 "755-ESR03EZPJ103" H 5200 2650 50  0001 C CNN "MouserLink"
F 71 "R6" H 5200 2650 50  0001 C CNN "InternalName"
F 72 "" H 5200 2650 50  0001 C CNN "FarnellLink"
F 73 "" H 5200 2650 50  0001 C CNN "DigiKeyLink"
F 74 "755-ESR03EZPJ103" H 5200 2650 50  0001 C CNN "MouserLink"
F 75 "R6" H 5200 2650 50  0001 C CNN "InternalName"
F 76 "" H 5200 2650 50  0001 C CNN "FarnellLink"
F 77 "" H 5200 2650 50  0001 C CNN "DigiKeyLink"
F 78 "755-ESR03EZPJ103" H 5200 2650 50  0001 C CNN "MouserLink"
F 79 "R6" H 5200 2650 50  0001 C CNN "InternalName"
F 80 "" H 5200 2650 50  0001 C CNN "FarnellLink"
F 81 "" H 5200 2650 50  0001 C CNN "DigiKeyLink"
F 82 "755-ESR03EZPJ103" H 5200 2650 50  0001 C CNN "MouserLink"
F 83 "R6" H 5200 2650 50  0001 C CNN "InternalName"
F 84 "" H 5200 2650 50  0001 C CNN "FarnellLink"
F 85 "" H 5200 2650 50  0001 C CNN "DigiKeyLink"
F 86 "755-ESR03EZPJ103" H 5200 2650 50  0001 C CNN "MouserLink"
F 87 "R6" H 5200 2650 50  0001 C CNN "InternalName"
F 88 "" H 5200 2650 50  0001 C CNN "FarnellLink"
F 89 "" H 5200 2650 50  0001 C CNN "DigiKeyLink"
F 90 "755-ESR03EZPJ103" H 5200 2650 50  0001 C CNN "MouserLink"
F 91 "R6" H 5200 2650 50  0001 C CNN "InternalName"
F 92 "" H 5200 2650 50  0001 C CNN "FarnellLink"
F 93 "" H 5200 2650 50  0001 C CNN "DigiKeyLink"
F 94 "755-ESR03EZPJ103" H 5200 2650 50  0001 C CNN "MouserLink"
F 95 "R6" H 5200 2650 50  0001 C CNN "InternalName"
F 96 "" H 5200 2650 50  0001 C CNN "FarnellLink"
F 97 "" H 5200 2650 50  0001 C CNN "DigiKeyLink"
F 98 "755-ESR03EZPJ103" H 5200 2650 50  0001 C CNN "MouserLink"
F 99 "R6" H 5200 2650 50  0001 C CNN "InternalName"
F 100 "" H 5200 2650 50  0001 C CNN "FarnellLink"
F 101 "" H 5200 2650 50  0001 C CNN "DigiKeyLink"
F 102 "755-ESR03EZPJ103" H 5200 2650 50  0001 C CNN "MouserLink"
F 103 "R6" H 5200 2650 50  0001 C CNN "InternalName"
F 104 "" H 5200 2650 50  0001 C CNN "FarnellLink"
F 105 "" H 5200 2650 50  0001 C CNN "DigiKeyLink"
F 106 "755-ESR03EZPJ103" H 5200 2650 50  0001 C CNN "MouserLink"
F 107 "R6" H 5200 2650 50  0001 C CNN "InternalName"
F 108 "" H 5200 2650 50  0001 C CNN "FarnellLink"
F 109 "" H 5200 2650 50  0001 C CNN "DigiKeyLink"
F 110 "755-ESR03EZPJ103" H 5200 2650 50  0001 C CNN "MouserLink"
F 111 "R6" H 5200 2650 50  0001 C CNN "InternalName"
F 112 "" H 5200 2650 50  0001 C CNN "FarnellLink"
F 113 "" H 5200 2650 50  0001 C CNN "DigiKeyLink"
F 114 "755-ESR03EZPJ103" H 5200 2650 50  0001 C CNN "MouserLink"
F 115 "R6" H 5200 2650 50  0001 C CNN "InternalName"
F 116 "" H 5200 2650 50  0001 C CNN "FarnellLink"
F 117 "" H 5200 2650 50  0001 C CNN "DigiKeyLink"
F 118 "755-ESR03EZPJ103" H 5200 2650 50  0001 C CNN "MouserLink"
F 119 "R6" H 5200 2650 50  0001 C CNN "InternalName"
F 120 "" H 5200 2650 50  0001 C CNN "FarnellLink"
F 121 "" H 5200 2650 50  0001 C CNN "DigiKeyLink"
F 122 "755-ESR03EZPJ103" H 5200 2650 50  0001 C CNN "MouserLink"
F 123 "R6" H 5200 2650 50  0001 C CNN "InternalName"
F 124 "" H 5200 2650 50  0001 C CNN "FarnellLink"
F 125 "" H 5200 2650 50  0001 C CNN "DigiKeyLink"
F 126 "755-ESR03EZPJ103" H 5200 2650 50  0001 C CNN "MouserLink"
F 127 "R6" H 5200 2650 50  0001 C CNN "InternalName"
F 128 "" H 5200 2650 50  0001 C CNN "FarnellLink"
F 129 "" H 5200 2650 50  0001 C CNN "DigiKeyLink"
F 130 "755-ESR03EZPJ103" H 5200 2650 50  0001 C CNN "MouserLink"
F 131 "R6" H 5200 2650 50  0001 C CNN "InternalName"
F 132 "" H 5200 2650 50  0001 C CNN "FarnellLink"
F 133 "" H 5200 2650 50  0001 C CNN "DigiKeyLink"
F 134 "755-ESR03EZPJ103" H 5200 2650 50  0001 C CNN "MouserLink"
F 135 "R6" H 5200 2650 50  0001 C CNN "InternalName"
F 136 "" H 5200 2650 50  0001 C CNN "FarnellLink"
F 137 "" H 5200 2650 50  0001 C CNN "DigiKeyLink"
F 138 "755-ESR03EZPJ103" H 5200 2650 50  0001 C CNN "MouserLink"
F 139 "R6" H 5200 2650 50  0001 C CNN "InternalName"
	1    5200 2650
	1    0    0    -1  
$EndComp
Text HLabel 4100 2300 1    60   Input ~ 0
LV
Text HLabel 5200 2300 1    60   Input ~ 0
HL
Text HLabel 3900 3000 0    60   Input ~ 0
L_IO
Text HLabel 5450 3000 2    60   Input ~ 0
H_IO
Wire Wire Line
	4100 2300 4100 2500
Wire Wire Line
	5200 2300 5200 2500
Wire Wire Line
	5200 2800 5200 3000
Wire Wire Line
	4800 3000 5450 3000
Connection ~ 5200 3000
Wire Wire Line
	4550 2700 4550 2450
Wire Wire Line
	4550 2450 4100 2450
Connection ~ 4100 2450
Wire Wire Line
	4100 2800 4100 3000
Wire Wire Line
	3900 3000 4400 3000
Connection ~ 4100 3000
$EndSCHEMATC
