EESchema Schematic File Version 4
LIBS:Main_Control_Board-cache
EELAYER 26 0
EELAYER END
$Descr A4 11693 8268
encoding utf-8
Sheet 5 5
Title "Main Sensors Board "
Date "2017-10-09"
Rev "0.3"
Comp "DROP Lab, University of Michigan"
Comment1 "Designed by Eduardo Iscar "
Comment2 ""
Comment3 ""
Comment4 ""
$EndDescr
$Comp
L Main_Control_Board-rescue:INDUCTOR L1
U 1 1 574F088A
P 2350 2650
F 0 "L1" V 2300 2650 50  0000 C CNN
F 1 "10uH" V 2450 2650 50  0000 C CNN
F 2 "Inductor_SMD:L_1206_3216Metric_Pad1.42x1.75mm_HandSolder" H 2350 2650 50  0001 C CNN
F 3 "" H 2350 2650 50  0000 C CNN
F 4 "" H 2350 2650 50  0001 C CNN "FarnellLink"
F 5 "" H 2350 2650 50  0001 C CNN "DigiKeyLink"
F 6 "815-AIML-1206-100KT" H 2350 2650 50  0001 C CNN "MouserLink"
F 7 "L1" H 2350 2650 50  0001 C CNN "InternalName"
F 8 "" H 2350 2650 50  0001 C CNN "FarnellLink"
F 9 "" H 2350 2650 50  0001 C CNN "DigiKeyLink"
F 10 "815-AIML-1206-100KT" H 2350 2650 50  0001 C CNN "MouserLink"
F 11 "L1" H 2350 2650 50  0001 C CNN "InternalName"
	1    2350 2650
	1    0    0    -1  
$EndComp
$Comp
L Main_Control_Board-rescue:C C13
U 1 1 574F08CC
P 2050 2150
F 0 "C13" H 2075 2250 50  0000 L CNN
F 1 "1uF" H 2075 2050 50  0000 L CNN
F 2 "Capacitor_SMD:C_0603_1608Metric_Pad1.05x0.95mm_HandSolder" H 2088 2000 50  0001 C CNN
F 3 "" H 2050 2150 50  0000 C CNN
F 4 "" H 2050 2150 50  0001 C CNN "FarnellLink"
F 5 "" H 2050 2150 50  0001 C CNN "DigiKeyLink"
F 6 "81-GRM188R61E105KA12" H 2050 2150 50  0001 C CNN "MouserLink"
F 7 "C13" H 2050 2150 50  0001 C CNN "InternalName"
F 8 "" H 2050 2150 50  0001 C CNN "FarnellLink"
F 9 "" H 2050 2150 50  0001 C CNN "DigiKeyLink"
F 10 "81-GRM188R61E105KA12" H 2050 2150 50  0001 C CNN "MouserLink"
F 11 "C13" H 2050 2150 50  0001 C CNN "InternalName"
	1    2050 2150
	0    1    1    0   
$EndComp
$Comp
L Main_Control_Board-rescue:GND #PWR038
U 1 1 574F08FB
P 1400 2250
F 0 "#PWR038" H 1400 2000 50  0001 C CNN
F 1 "GND" H 1400 2100 50  0000 C CNN
F 2 "" H 1400 2250 50  0000 C CNN
F 3 "" H 1400 2250 50  0000 C CNN
	1    1400 2250
	1    0    0    -1  
$EndComp
$Comp
L Main_Control_Board-rescue:GND #PWR039
U 1 1 574F092D
P 3050 2600
F 0 "#PWR039" H 3050 2350 50  0001 C CNN
F 1 "GND" H 3050 2450 50  0000 C CNN
F 2 "" H 3050 2600 50  0000 C CNN
F 3 "" H 3050 2600 50  0000 C CNN
	1    3050 2600
	1    0    0    -1  
$EndComp
$Comp
L Main_Control_Board-rescue:+3.3V #PWR040
U 1 1 574F0AA4
P 1400 3250
AR Path="/574F0AA4" Ref="#PWR040"  Part="1" 
AR Path="/574F025F/574F0AA4" Ref="#PWR040"  Part="1" 
F 0 "#PWR040" H 1400 3100 50  0001 C CNN
F 1 "+3.3V" H 1400 3390 50  0000 C CNN
F 2 "" H 1400 3250 50  0000 C CNN
F 3 "" H 1400 3250 50  0000 C CNN
	1    1400 3250
	1    0    0    -1  
$EndComp
$Comp
L Main_Control_Board-rescue:+3.3V #PWR041
U 1 1 574F0AE0
P 1400 3700
AR Path="/574F0AE0" Ref="#PWR041"  Part="1" 
AR Path="/574F025F/574F0AE0" Ref="#PWR041"  Part="1" 
F 0 "#PWR041" H 1400 3550 50  0001 C CNN
F 1 "+3.3V" H 1400 3840 50  0000 C CNN
F 2 "" H 1400 3700 50  0000 C CNN
F 3 "" H 1400 3700 50  0000 C CNN
	1    1400 3700
	1    0    0    -1  
$EndComp
$Comp
L Main_Control_Board-rescue:GND #PWR042
U 1 1 574F0AF4
P 1800 5950
F 0 "#PWR042" H 1800 5700 50  0001 C CNN
F 1 "GND" H 1800 5800 50  0000 C CNN
F 2 "" H 1800 5950 50  0000 C CNN
F 3 "" H 1800 5950 50  0000 C CNN
	1    1800 5950
	1    0    0    -1  
$EndComp
$Comp
L Main_Control_Board-rescue:C C7
U 1 1 574F0B08
P 1600 3800
F 0 "C7" H 1625 3900 50  0000 L CNN
F 1 "0.1uF" H 1625 3700 50  0000 L CNN
F 2 "Capacitor_SMD:C_0603_1608Metric_Pad1.05x0.95mm_HandSolder" H 1638 3650 50  0001 C CNN
F 3 "" H 1600 3800 50  0000 C CNN
F 4 "" H 1600 3800 50  0001 C CNN "FarnellLink"
F 5 "" H 1600 3800 50  0001 C CNN "DigiKeyLink"
F 6 "81-GRM39X104K50D" H 1600 3800 50  0001 C CNN "MouserLink"
F 7 "C12" H 1600 3800 50  0001 C CNN "InternalName"
F 8 "" H 1600 3800 50  0001 C CNN "FarnellLink"
F 9 "" H 1600 3800 50  0001 C CNN "DigiKeyLink"
F 10 "81-GRM39X104K50D" H 1600 3800 50  0001 C CNN "MouserLink"
F 11 "C12" H 1600 3800 50  0001 C CNN "InternalName"
	1    1600 3800
	0    1    1    0   
$EndComp
$Comp
L Main_Control_Board-rescue:C C8
U 1 1 574F0B78
P 1600 4050
F 0 "C8" H 1625 4150 50  0000 L CNN
F 1 "0.1uF" H 1625 3950 50  0000 L CNN
F 2 "Capacitor_SMD:C_0603_1608Metric_Pad1.05x0.95mm_HandSolder" H 1638 3900 50  0001 C CNN
F 3 "" H 1600 4050 50  0000 C CNN
F 4 "" H 1600 4050 50  0001 C CNN "FarnellLink"
F 5 "" H 1600 4050 50  0001 C CNN "DigiKeyLink"
F 6 "81-GRM39X104K50D" H 1600 4050 50  0001 C CNN "MouserLink"
F 7 "C12" H 1600 4050 50  0001 C CNN "InternalName"
F 8 "" H 1600 4050 50  0001 C CNN "FarnellLink"
F 9 "" H 1600 4050 50  0001 C CNN "DigiKeyLink"
F 10 "81-GRM39X104K50D" H 1600 4050 50  0001 C CNN "MouserLink"
F 11 "C12" H 1600 4050 50  0001 C CNN "InternalName"
	1    1600 4050
	0    1    1    0   
$EndComp
$Comp
L Main_Control_Board-rescue:C C9
U 1 1 574F0BA5
P 1600 4300
F 0 "C9" H 1625 4400 50  0000 L CNN
F 1 "0.1uF" H 1625 4200 50  0000 L CNN
F 2 "Capacitor_SMD:C_0603_1608Metric_Pad1.05x0.95mm_HandSolder" H 1638 4150 50  0001 C CNN
F 3 "" H 1600 4300 50  0000 C CNN
F 4 "" H 1600 4300 50  0001 C CNN "FarnellLink"
F 5 "" H 1600 4300 50  0001 C CNN "DigiKeyLink"
F 6 "81-GRM39X104K50D" H 1600 4300 50  0001 C CNN "MouserLink"
F 7 "C12" H 1600 4300 50  0001 C CNN "InternalName"
F 8 "" H 1600 4300 50  0001 C CNN "FarnellLink"
F 9 "" H 1600 4300 50  0001 C CNN "DigiKeyLink"
F 10 "81-GRM39X104K50D" H 1600 4300 50  0001 C CNN "MouserLink"
F 11 "C12" H 1600 4300 50  0001 C CNN "InternalName"
	1    1600 4300
	0    1    1    0   
$EndComp
$Comp
L Main_Control_Board-rescue:C C10
U 1 1 574F0BCF
P 1600 4550
F 0 "C10" H 1625 4650 50  0000 L CNN
F 1 "0.1uF" H 1600 4450 50  0000 L CNN
F 2 "Capacitor_SMD:C_0603_1608Metric_Pad1.05x0.95mm_HandSolder" H 1638 4400 50  0001 C CNN
F 3 "" H 1600 4550 50  0000 C CNN
F 4 "" H 1600 4550 50  0001 C CNN "FarnellLink"
F 5 "" H 1600 4550 50  0001 C CNN "DigiKeyLink"
F 6 "81-GRM39X104K50D" H 1600 4550 50  0001 C CNN "MouserLink"
F 7 "C12" H 1600 4550 50  0001 C CNN "InternalName"
F 8 "" H 1600 4550 50  0001 C CNN "FarnellLink"
F 9 "" H 1600 4550 50  0001 C CNN "DigiKeyLink"
F 10 "81-GRM39X104K50D" H 1600 4550 50  0001 C CNN "MouserLink"
F 11 "C12" H 1600 4550 50  0001 C CNN "InternalName"
	1    1600 4550
	0    1    1    0   
$EndComp
$Comp
L Main_Control_Board-rescue:CP C11
U 1 1 574F0C5A
P 1600 4850
F 0 "C11" H 1450 5000 50  0000 L CNN
F 1 "10uF" H 1400 4750 50  0000 L CNN
F 2 "Capacitor_SMD:C_0603_1608Metric_Pad1.05x0.95mm_HandSolder" H 1638 4700 50  0001 C CNN
F 3 "" H 1600 4850 50  0000 C CNN
F 4 "" H 1600 4850 50  0001 C CNN "FarnellLink"
F 5 "" H 1600 4850 50  0001 C CNN "DigiKeyLink"
F 6 "81-GRM188R61A106KE9D" H 1600 4850 50  0001 C CNN "MouserLink"
F 7 "C14" H 1600 4850 50  0001 C CNN "InternalName"
F 8 "" H 1600 4850 50  0001 C CNN "FarnellLink"
F 9 "" H 1600 4850 50  0001 C CNN "DigiKeyLink"
F 10 "81-GRM188R61A106KE9D" H 1600 4850 50  0001 C CNN "MouserLink"
F 11 "C14" H 1600 4850 50  0001 C CNN "InternalName"
	1    1600 4850
	0    -1   -1   0   
$EndComp
$Comp
L Main_Control_Board-rescue:GND #PWR043
U 1 1 574F1127
P 2550 5150
F 0 "#PWR043" H 2550 4900 50  0001 C CNN
F 1 "GND" H 2550 5000 50  0000 C CNN
F 2 "" H 2550 5150 50  0000 C CNN
F 3 "" H 2550 5150 50  0000 C CNN
	1    2550 5150
	1    0    0    -1  
$EndComp
$Comp
L Main_Control_Board-rescue:Crystal Y2
U 1 1 574F1362
P 2250 5700
F 0 "Y2" H 2250 5850 50  0000 C CNN
F 1 "32.768kHz" H 2250 5550 50  0000 C CNN
F 2 "Sphere_lib_footprint:ABS07-32.768KHZ" H 2250 5700 50  0001 C CNN
F 3 "" H 2250 5700 50  0000 C CNN
F 4 "" H 2250 5700 50  0001 C CNN "FarnellLink"
F 5 "" H 2250 5700 50  0001 C CNN "DigiKeyLink"
F 6 "815-ABS07-32.768K9T" H 2250 5700 50  0001 C CNN "MouserLink"
F 7 "X1" H 2250 5700 50  0001 C CNN "InternalName"
F 8 "" H 2250 5700 50  0001 C CNN "FarnellLink"
F 9 "" H 2250 5700 50  0001 C CNN "DigiKeyLink"
F 10 "815-ABS07-32.768K9T" H 2250 5700 50  0001 C CNN "MouserLink"
F 11 "X1" H 2250 5700 50  0001 C CNN "InternalName"
	1    2250 5700
	1    0    0    -1  
$EndComp
$Comp
L Main_Control_Board-rescue:GND #PWR044
U 1 1 574F14E5
P 2050 6250
F 0 "#PWR044" H 2050 6000 50  0001 C CNN
F 1 "GND" H 2050 6100 50  0000 C CNN
F 2 "" H 2050 6250 50  0000 C CNN
F 3 "" H 2050 6250 50  0000 C CNN
	1    2050 6250
	1    0    0    -1  
$EndComp
$Comp
L Main_Control_Board-rescue:C C14
U 1 1 574F1536
P 2050 6050
F 0 "C14" H 2075 6150 50  0000 L CNN
F 1 "18pF" H 2075 5950 50  0000 L CNN
F 2 "Capacitor_SMD:C_0603_1608Metric_Pad1.05x0.95mm_HandSolder" H 2088 5900 50  0001 C CNN
F 3 "" H 2050 6050 50  0000 C CNN
F 4 "" H 2050 6050 50  0001 C CNN "FarnellLink"
F 5 "" H 2050 6050 50  0001 C CNN "DigiKeyLink"
F 6 "581-06035A180FAT2A" H 2050 6050 50  0001 C CNN "MouserLink"
F 7 "C8" H 2050 6050 50  0001 C CNN "InternalName"
F 8 "" H 2050 6050 50  0001 C CNN "FarnellLink"
F 9 "" H 2050 6050 50  0001 C CNN "DigiKeyLink"
F 10 "581-06035A180FAT2A" H 2050 6050 50  0001 C CNN "MouserLink"
F 11 "C8" H 2050 6050 50  0001 C CNN "InternalName"
	1    2050 6050
	-1   0    0    1   
$EndComp
$Comp
L Main_Control_Board-rescue:C C15
U 1 1 574F160F
P 2450 6050
F 0 "C15" H 2475 6150 50  0000 L CNN
F 1 "18pF" H 2500 5950 50  0000 L CNN
F 2 "Capacitor_SMD:C_0603_1608Metric_Pad1.05x0.95mm_HandSolder" H 2488 5900 50  0001 C CNN
F 3 "" H 2450 6050 50  0000 C CNN
F 4 "" H 2450 6050 50  0001 C CNN "FarnellLink"
F 5 "" H 2450 6050 50  0001 C CNN "DigiKeyLink"
F 6 "581-06035A180FAT2A" H 2450 6050 50  0001 C CNN "MouserLink"
F 7 "C8" H 2450 6050 50  0001 C CNN "InternalName"
F 8 "" H 2450 6050 50  0001 C CNN "FarnellLink"
F 9 "" H 2450 6050 50  0001 C CNN "DigiKeyLink"
F 10 "581-06035A180FAT2A" H 2450 6050 50  0001 C CNN "MouserLink"
F 11 "C8" H 2450 6050 50  0001 C CNN "InternalName"
	1    2450 6050
	-1   0    0    1   
$EndComp
$Comp
L Main_Control_Board-rescue:C C16
U 1 1 574F19F3
P 2700 6050
F 0 "C16" H 2725 6150 50  0000 L CNN
F 1 "18pF" H 2725 5950 50  0000 L CNN
F 2 "Capacitor_SMD:C_0603_1608Metric_Pad1.05x0.95mm_HandSolder" H 2738 5900 50  0001 C CNN
F 3 "" H 2700 6050 50  0000 C CNN
F 4 "" H 2700 6050 50  0001 C CNN "FarnellLink"
F 5 "" H 2700 6050 50  0001 C CNN "DigiKeyLink"
F 6 "581-06035A180FAT2A" H 2700 6050 50  0001 C CNN "MouserLink"
F 7 "C8" H 2700 6050 50  0001 C CNN "InternalName"
F 8 "" H 2700 6050 50  0001 C CNN "FarnellLink"
F 9 "" H 2700 6050 50  0001 C CNN "DigiKeyLink"
F 10 "581-06035A180FAT2A" H 2700 6050 50  0001 C CNN "MouserLink"
F 11 "C8" H 2700 6050 50  0001 C CNN "InternalName"
	1    2700 6050
	-1   0    0    1   
$EndComp
$Comp
L Main_Control_Board-rescue:C C17
U 1 1 574F1A8F
P 3100 6050
F 0 "C17" H 3125 6150 50  0000 L CNN
F 1 "18pF" H 3150 5950 50  0000 L CNN
F 2 "Capacitor_SMD:C_0603_1608Metric_Pad1.05x0.95mm_HandSolder" H 3138 5900 50  0001 C CNN
F 3 "" H 3100 6050 50  0000 C CNN
F 4 "" H 3100 6050 50  0001 C CNN "FarnellLink"
F 5 "" H 3100 6050 50  0001 C CNN "DigiKeyLink"
F 6 "581-06035A180FAT2A" H 3100 6050 50  0001 C CNN "MouserLink"
F 7 "C8" H 3100 6050 50  0001 C CNN "InternalName"
F 8 "" H 3100 6050 50  0001 C CNN "FarnellLink"
F 9 "" H 3100 6050 50  0001 C CNN "DigiKeyLink"
F 10 "581-06035A180FAT2A" H 3100 6050 50  0001 C CNN "MouserLink"
F 11 "C8" H 3100 6050 50  0001 C CNN "InternalName"
	1    3100 6050
	-1   0    0    1   
$EndComp
Text Label 9450 1100 2    60   ~ 0
TXD3
Text Label 9450 1200 2    60   ~ 0
RXD3
Text Label 9450 1300 2    60   ~ 0
TXD0
Text Label 9450 1400 2    60   ~ 0
RXD0
Text Label 9450 2600 2    60   ~ 0
TXD1
Text Label 9450 2700 2    60   ~ 0
RXD1
Text Label 9450 2200 2    60   ~ 0
TXD2
Text Label 9450 2300 2    60   ~ 0
RXD2
Text HLabel 5000 4850 1    60   Input ~ 0
Boot
Text HLabel 1750 1350 0    60   Input ~ 0
NReset
Text Label 9350 3000 2    60   ~ 0
SDA1
Text Label 9350 3100 2    60   ~ 0
SCL1
$Comp
L Main_Control_Board-rescue:LED-RESCUE-Main_Control_Board D1
U 1 1 574F8372
P 4700 2000
AR Path="/574F8372" Ref="D1"  Part="1" 
AR Path="/574F025F/574F8372" Ref="D1"  Part="1" 
F 0 "D1" H 4700 2100 50  0000 C CNN
F 1 "RED" H 4700 1900 50  0000 C CNN
F 2 "LED_SMD:LED_0603_1608Metric_Pad1.05x0.95mm_HandSolder" H 4700 2000 50  0001 C CNN
F 3 "" H 4700 2000 50  0000 C CNN
F 4 "" H 4700 2000 50  0001 C CNN "FarnellLink"
F 5 "" H 4700 2000 50  0001 C CNN "DigiKeyLink"
F 6 "593-VAOL-S6GT4" H 4700 2000 50  0001 C CNN "MouserLink"
F 7 "D1" H 4700 2000 50  0001 C CNN "InternalName"
F 8 "" H 4700 2000 50  0001 C CNN "FarnellLink"
F 9 "" H 4700 2000 50  0001 C CNN "DigiKeyLink"
F 10 "593-VAOL-S6GT4" H 4700 2000 50  0001 C CNN "MouserLink"
F 11 "D1" H 4700 2000 50  0001 C CNN "InternalName"
	1    4700 2000
	1    0    0    -1  
$EndComp
$Comp
L Main_Control_Board-rescue:LED-RESCUE-Main_Control_Board D2
U 1 1 574F8463
P 5050 2100
AR Path="/574F8463" Ref="D2"  Part="1" 
AR Path="/574F025F/574F8463" Ref="D2"  Part="1" 
F 0 "D2" H 5200 2050 50  0000 C CNN
F 1 "GREEN - VAOL" H 5050 2000 50  0000 C CNN
F 2 "LED_SMD:LED_0603_1608Metric_Pad1.05x0.95mm_HandSolder" H 5050 2100 50  0001 C CNN
F 3 "" H 5050 2100 50  0000 C CNN
F 4 "" H 5050 2100 50  0001 C CNN "FarnellLink"
F 5 "" H 5050 2100 50  0001 C CNN "DigiKeyLink"
F 6 "696-SMLFM0603SICTR" H 5050 2100 50  0001 C CNN "MouserLink"
F 7 "D2" H 5050 2100 50  0001 C CNN "InternalName"
F 8 "" H 5050 2100 50  0001 C CNN "FarnellLink"
F 9 "" H 5050 2100 50  0001 C CNN "DigiKeyLink"
F 10 "696-SMLFM0603SICTR" H 5050 2100 50  0001 C CNN "MouserLink"
F 11 "D2" H 5050 2100 50  0001 C CNN "InternalName"
	1    5050 2100
	1    0    0    -1  
$EndComp
$Comp
L Main_Control_Board-rescue:R R5
U 1 1 574F87AB
P 4850 2350
F 0 "R5" V 4930 2350 50  0000 C CNN
F 1 "470" V 4850 2350 50  0000 C CNN
F 2 "Resistor_SMD:R_0603_1608Metric_Pad1.05x0.95mm_HandSolder" V 4780 2350 50  0001 C CNN
F 3 "" H 4850 2350 50  0000 C CNN
F 4 "" H 4850 2350 50  0001 C CNN "FarnellLink"
F 5 "" H 4850 2350 50  0001 C CNN "DigiKeyLink"
F 6 "755-ESR03EZPF4700" H 4850 2350 50  0001 C CNN "MouserLink"
F 7 "R9" H 4850 2350 50  0001 C CNN "InternalName"
F 8 "" H 4850 2350 50  0001 C CNN "FarnellLink"
F 9 "" H 4850 2350 50  0001 C CNN "DigiKeyLink"
F 10 "755-ESR03EZPF4700" H 4850 2350 50  0001 C CNN "MouserLink"
F 11 "R9" H 4850 2350 50  0001 C CNN "InternalName"
	1    4850 2350
	-1   0    0    1   
$EndComp
$Comp
L Main_Control_Board-rescue:R R3
U 1 1 574F88ED
P 4450 2350
F 0 "R3" V 4530 2350 50  0000 C CNN
F 1 "470" V 4450 2350 50  0000 C CNN
F 2 "Resistor_SMD:R_0603_1608Metric_Pad1.05x0.95mm_HandSolder" V 4380 2350 50  0001 C CNN
F 3 "" H 4450 2350 50  0000 C CNN
F 4 "" H 4450 2350 50  0001 C CNN "FarnellLink"
F 5 "" H 4450 2350 50  0001 C CNN "DigiKeyLink"
F 6 "755-ESR03EZPF4700" H 4450 2350 50  0001 C CNN "MouserLink"
F 7 "R9" H 4450 2350 50  0001 C CNN "InternalName"
F 8 "" H 4450 2350 50  0001 C CNN "FarnellLink"
F 9 "" H 4450 2350 50  0001 C CNN "DigiKeyLink"
F 10 "755-ESR03EZPF4700" H 4450 2350 50  0001 C CNN "MouserLink"
F 11 "R9" H 4450 2350 50  0001 C CNN "InternalName"
	1    4450 2350
	-1   0    0    1   
$EndComp
$Comp
L Main_Control_Board-rescue:GND #PWR045
U 1 1 574F8C89
P 4450 2600
F 0 "#PWR045" H 4450 2350 50  0001 C CNN
F 1 "GND" H 4450 2450 50  0000 C CNN
F 2 "" H 4450 2600 50  0000 C CNN
F 3 "" H 4450 2600 50  0000 C CNN
	1    4450 2600
	1    0    0    -1  
$EndComp
$Comp
L Main_Control_Board-rescue:C C12
U 1 1 574FA0CE
P 2000 1550
F 0 "C12" H 2025 1650 50  0000 L CNN
F 1 "0.1uF" H 2025 1450 50  0000 L CNN
F 2 "Capacitor_SMD:C_0603_1608Metric_Pad1.05x0.95mm_HandSolder" H 2038 1400 50  0001 C CNN
F 3 "" H 2000 1550 50  0000 C CNN
F 4 "" H 2000 1550 50  0001 C CNN "FarnellLink"
F 5 "" H 2000 1550 50  0001 C CNN "DigiKeyLink"
F 6 "81-GRM39X104K50D" H 2000 1550 50  0001 C CNN "MouserLink"
F 7 "C12" H 2000 1550 50  0001 C CNN "InternalName"
F 8 "" H 2000 1550 50  0001 C CNN "FarnellLink"
F 9 "" H 2000 1550 50  0001 C CNN "DigiKeyLink"
F 10 "81-GRM39X104K50D" H 2000 1550 50  0001 C CNN "MouserLink"
F 11 "C12" H 2000 1550 50  0001 C CNN "InternalName"
	1    2000 1550
	-1   0    0    1   
$EndComp
$Comp
L Main_Control_Board-rescue:GND #PWR046
U 1 1 574FAB9E
P 2000 1750
F 0 "#PWR046" H 2000 1500 50  0001 C CNN
F 1 "GND" H 2000 1600 50  0000 C CNN
F 2 "" H 2000 1750 50  0000 C CNN
F 3 "" H 2000 1750 50  0000 C CNN
	1    2000 1750
	1    0    0    -1  
$EndComp
$Comp
L Main_Control_Board-rescue:R R2
U 1 1 574FAD15
P 2000 1100
F 0 "R2" V 2080 1100 50  0000 C CNN
F 1 "100k" V 2000 1100 50  0000 C CNN
F 2 "Resistor_SMD:R_0603_1608Metric_Pad1.05x0.95mm_HandSolder" V 1930 1100 50  0001 C CNN
F 3 "" H 2000 1100 50  0000 C CNN
F 4 "" H 2000 1100 50  0001 C CNN "FarnellLink"
F 5 "" H 2000 1100 50  0001 C CNN "DigiKeyLink"
F 6 "755-ESR03EZPF1003" H 2000 1100 50  0001 C CNN "MouserLink"
F 7 "R7" H 2000 1100 50  0001 C CNN "InternalName"
F 8 "" H 2000 1100 50  0001 C CNN "FarnellLink"
F 9 "" H 2000 1100 50  0001 C CNN "DigiKeyLink"
F 10 "755-ESR03EZPF1003" H 2000 1100 50  0001 C CNN "MouserLink"
F 11 "R7" H 2000 1100 50  0001 C CNN "InternalName"
	1    2000 1100
	-1   0    0    1   
$EndComp
$Comp
L Main_Control_Board-rescue:+3.3V #PWR047
U 1 1 574FADC8
P 2000 900
AR Path="/574FADC8" Ref="#PWR047"  Part="1" 
AR Path="/574F025F/574FADC8" Ref="#PWR047"  Part="1" 
F 0 "#PWR047" H 2000 750 50  0001 C CNN
F 1 "+3.3V" H 2000 1040 50  0000 C CNN
F 2 "" H 2000 900 50  0000 C CNN
F 3 "" H 2000 900 50  0000 C CNN
	1    2000 900 
	1    0    0    -1  
$EndComp
Text Label 5000 4000 0    60   ~ 0
PWM_UL
Text Label 5000 3900 0    60   ~ 0
PWM_UR
Text Label 5000 3800 0    60   ~ 0
PWM_FL
Text Label 5000 4100 0    60   ~ 0
PWM_FR
Text HLabel 9500 1100 2    60   Input ~ 0
TXD3
Text HLabel 9500 1200 2    60   Input ~ 0
RXD3
Text HLabel 9500 1300 2    60   Input ~ 0
TXD0
Text HLabel 9500 1400 2    60   Input ~ 0
RXD0
Text HLabel 9500 2200 2    60   Input ~ 0
TXD2
Text HLabel 9500 2300 2    60   Input ~ 0
RXD2
Text HLabel 9500 2600 2    60   Input ~ 0
TXD1
Text HLabel 9500 2700 2    60   Input ~ 0
RXD1
Text HLabel 9650 3000 2    60   Input ~ 0
SDA
Text HLabel 9650 3100 2    60   Input ~ 0
SCL
Text HLabel 4950 4000 0    60   Input ~ 0
PWM_UL
Text HLabel 4950 3900 0    60   Input ~ 0
PWM_UR
Text HLabel 4950 3800 0    60   Input ~ 0
PWM_FL
Text HLabel 4950 4100 0    60   Input ~ 0
PWM_FR
NoConn ~ 8950 5250
NoConn ~ 8950 5350
NoConn ~ 8950 4350
NoConn ~ 8950 4250
NoConn ~ 8950 4150
NoConn ~ 8950 4050
NoConn ~ 8950 3950
NoConn ~ 8950 3850
NoConn ~ 8950 3750
NoConn ~ 8950 3400
NoConn ~ 8950 3300
NoConn ~ 8950 3200
NoConn ~ 8950 2900
NoConn ~ 8950 2800
NoConn ~ 8950 2100
NoConn ~ 8950 2000
NoConn ~ 8950 1800
NoConn ~ 8950 1700
NoConn ~ 8950 1600
NoConn ~ 8950 1500
NoConn ~ 5400 5700
NoConn ~ 5400 5600
NoConn ~ 5400 5150
NoConn ~ 5400 5050
NoConn ~ 5400 4850
NoConn ~ 5400 4750
NoConn ~ 5400 4500
NoConn ~ 5400 4400
NoConn ~ 5400 4300
NoConn ~ 5400 4200
NoConn ~ 5400 3600
NoConn ~ 5400 3500
NoConn ~ 5400 3400
NoConn ~ 5400 3200
NoConn ~ 5400 3100
NoConn ~ 5400 3000
NoConn ~ 5400 2600
NoConn ~ 5400 2300
NoConn ~ 5400 2200
Text HLabel 5200 1100 0    60   Input ~ 0
P1.0
Text HLabel 5200 1200 0    60   Input ~ 0
P1.1
Text HLabel 5200 1300 0    60   Input ~ 0
P1.4
Text HLabel 5200 1400 0    60   Input ~ 0
P1.8
Text HLabel 5200 1500 0    60   Input ~ 0
P1.9
NoConn ~ 5400 1600
NoConn ~ 5400 1700
NoConn ~ 5400 1800
Text HLabel 2950 5300 0    60   Input ~ 0
VBat
$Comp
L Main_Control_Board-rescue:CONN_02X05 P8
U 1 1 5826B557
P 1950 7400
F 0 "P8" H 1950 7700 50  0000 C CNN
F 1 "Cortex 10-pin 0.05\" JTAG/SWD Connector" H 1950 7100 50  0000 C CNN
F 2 "Sphere_lib_footprint:ARM-SW-JTAG" H 1950 6200 50  0001 C CNN
F 3 "" H 1950 6200 50  0000 C CNN
F 4 "" H 1950 6200 50  0001 C CNN "FarnellLink"
F 5 "" H 1950 6200 50  0001 C CNN "DigiKeyLink"
F 6 "855-M50-3500542" H 1950 6200 50  0001 C CNN "MouserLink"
F 7 "J19" H 1950 6200 50  0001 C CNN "InternalName"
F 8 "" H 1950 6200 50  0001 C CNN "FarnellLink"
F 9 "" H 1950 6200 50  0001 C CNN "DigiKeyLink"
F 10 "855-M50-3500542" H 1950 6200 50  0001 C CNN "MouserLink"
F 11 "J19" H 1950 6200 50  0001 C CNN "InternalName"
	1    1950 7400
	1    0    0    -1  
$EndComp
Text Label 2700 7600 2    60   ~ 0
nReset
Text Label 2700 7500 2    60   ~ 0
NC/TDI
Text Label 2700 7400 2    60   ~ 0
SWO/TDO
Text Label 2700 7300 2    60   ~ 0
SWDCLK/TCK
Text Label 2700 7200 2    60   ~ 0
SWDIO/TMS
Text Label 1200 7500 0    60   ~ 0
KEY
Text Label 1200 7600 0    60   ~ 0
GNDDetect
Text Label 2550 1450 0    60   ~ 0
SWDIO/TMS
Text Label 2550 1550 0    60   ~ 0
SWDCLK/TCK
Text Label 2600 1750 0    60   ~ 0
SWO/TDO
Text Label 2550 1850 0    60   ~ 0
nReset
Text Label 2550 1350 0    60   ~ 0
NC/TDI
$Comp
L Main_Control_Board-rescue:GND #PWR048
U 1 1 5826FE91
P 900 7450
F 0 "#PWR048" H 900 7200 50  0001 C CNN
F 1 "GND" H 900 7300 50  0000 C CNN
F 2 "" H 900 7450 50  0000 C CNN
F 3 "" H 900 7450 50  0000 C CNN
	1    900  7450
	1    0    0    -1  
$EndComp
$Comp
L Main_Control_Board-rescue:+3.3V #PWR049
U 1 1 582702E0
P 900 7150
AR Path="/582702E0" Ref="#PWR049"  Part="1" 
AR Path="/574F025F/582702E0" Ref="#PWR049"  Part="1" 
F 0 "#PWR049" H 900 7000 50  0001 C CNN
F 1 "+3.3V" H 900 7290 50  0000 C CNN
F 2 "" H 900 7150 50  0000 C CNN
F 3 "" H 900 7150 50  0000 C CNN
	1    900  7150
	1    0    0    -1  
$EndComp
$Comp
L Main_Control_Board-rescue:GND #PWR050
U 1 1 58272662
P 3100 7300
F 0 "#PWR050" H 3100 7050 50  0001 C CNN
F 1 "GND" H 3100 7150 50  0000 C CNN
F 2 "" H 3100 7300 50  0000 C CNN
F 3 "" H 3100 7300 50  0000 C CNN
	1    3100 7300
	0    -1   -1   0   
$EndComp
$Comp
L Main_Control_Board-rescue:R R47
U 1 1 58272B4F
P 2900 7300
F 0 "R47" V 2950 7150 50  0000 C CNN
F 1 "100k" V 2900 7300 50  0000 C CNN
F 2 "Resistor_SMD:R_0603_1608Metric_Pad1.05x0.95mm_HandSolder" V 2830 7300 50  0001 C CNN
F 3 "" H 2900 7300 50  0000 C CNN
F 4 "" H 2900 7300 50  0001 C CNN "FarnellLink"
F 5 "" H 2900 7300 50  0001 C CNN "DigiKeyLink"
F 6 "755-ESR03EZPF1003" H 2900 7300 50  0001 C CNN "MouserLink"
F 7 "R7" H 2900 7300 50  0001 C CNN "InternalName"
F 8 "" H 2900 7300 50  0001 C CNN "FarnellLink"
F 9 "" H 2900 7300 50  0001 C CNN "DigiKeyLink"
F 10 "755-ESR03EZPF1003" H 2900 7300 50  0001 C CNN "MouserLink"
F 11 "R7" H 2900 7300 50  0001 C CNN "InternalName"
	1    2900 7300
	0    1    1    0   
$EndComp
Wire Wire Line
	2200 2150 2350 2150
Wire Wire Line
	2350 2150 2350 2350
Wire Wire Line
	3150 2250 3000 2250
Wire Wire Line
	3000 2250 3000 2150
Connection ~ 3000 2150
Wire Wire Line
	1900 2150 1400 2150
Wire Wire Line
	1400 2150 1400 2250
Connection ~ 2350 2150
Wire Wire Line
	3150 2450 3050 2450
Wire Wire Line
	3050 2450 3050 2550
Wire Wire Line
	3150 2550 3050 2550
Connection ~ 3050 2550
Wire Wire Line
	2350 2950 2350 3350
Wire Wire Line
	1400 3350 2350 3350
Wire Wire Line
	3150 3450 2950 3450
Wire Wire Line
	2950 3350 2950 3450
Connection ~ 2950 3350
Wire Wire Line
	2950 3850 3150 3850
Connection ~ 2950 3450
Wire Wire Line
	2950 3950 3150 3950
Connection ~ 2950 3850
Wire Wire Line
	2950 4050 3150 4050
Connection ~ 2950 3950
Wire Wire Line
	2950 4150 3150 4150
Connection ~ 2950 4050
Wire Wire Line
	2950 4350 3150 4350
Connection ~ 2950 4150
Wire Wire Line
	1400 3250 1400 3350
Connection ~ 2350 3350
Wire Wire Line
	1400 3700 1400 3800
Connection ~ 1400 3800
Wire Wire Line
	1400 3800 1450 3800
Wire Wire Line
	1400 4050 1450 4050
Wire Wire Line
	1400 4300 1450 4300
Connection ~ 1400 4050
Wire Wire Line
	1400 4550 1450 4550
Connection ~ 1400 4300
Wire Wire Line
	1400 4850 1450 4850
Connection ~ 1400 4550
Wire Wire Line
	1750 3800 1800 3800
Wire Wire Line
	1800 3800 1800 4050
Wire Wire Line
	1750 4050 1800 4050
Connection ~ 1800 4050
Wire Wire Line
	1750 4300 1800 4300
Connection ~ 1800 4300
Wire Wire Line
	1750 4550 1800 4550
Connection ~ 1800 4550
Wire Wire Line
	1800 4850 1750 4850
Connection ~ 1800 4850
Wire Wire Line
	3150 5100 3000 5100
Wire Wire Line
	2550 5100 2550 5150
Wire Wire Line
	3150 5000 3000 5000
Wire Wire Line
	3000 4600 3000 4700
Connection ~ 3000 5100
Wire Wire Line
	3150 4900 3000 4900
Connection ~ 3000 5000
Wire Wire Line
	3150 4800 3000 4800
Connection ~ 3000 4900
Wire Wire Line
	3150 4700 3000 4700
Connection ~ 3000 4800
Wire Wire Line
	3150 4600 3000 4600
Connection ~ 3000 4700
Wire Wire Line
	3150 5450 2050 5450
Wire Wire Line
	2450 5550 3150 5550
Wire Wire Line
	3150 5650 2700 5650
Wire Wire Line
	3100 5750 3150 5750
Wire Wire Line
	8950 1300 9500 1300
Wire Wire Line
	8950 1400 9500 1400
Wire Wire Line
	8950 1100 9500 1100
Wire Wire Line
	8950 1200 9500 1200
Wire Wire Line
	9500 2700 8950 2700
Wire Wire Line
	8950 2600 9500 2600
Wire Wire Line
	9500 2200 8950 2200
Wire Wire Line
	8950 2300 9500 2300
Wire Wire Line
	2350 1850 3150 1850
Wire Wire Line
	5000 4950 5000 4850
Wire Wire Line
	4950 3800 5400 3800
Wire Wire Line
	4950 3900 5400 3900
Wire Wire Line
	4950 4000 5400 4000
Wire Wire Line
	4950 4100 5400 4100
Wire Wire Line
	4500 2000 4450 2000
Wire Wire Line
	4450 2000 4450 2200
Wire Wire Line
	4900 2000 5400 2000
Wire Wire Line
	5400 2100 5250 2100
Wire Wire Line
	4850 2100 4850 2200
Wire Wire Line
	4450 2500 4450 2550
Wire Wire Line
	4450 2550 4850 2550
Wire Wire Line
	4850 2550 4850 2500
Connection ~ 4450 2550
Wire Wire Line
	2000 1700 2000 1750
Wire Wire Line
	2000 900  2000 950 
Wire Wire Line
	2000 1250 2000 1350
Connection ~ 2000 1350
Wire Wire Line
	5400 1100 5200 1100
Wire Wire Line
	5200 1200 5400 1200
Wire Wire Line
	5400 1300 5200 1300
Wire Wire Line
	5200 1400 5400 1400
Wire Wire Line
	5400 1500 5200 1500
Wire Wire Line
	2950 5300 3150 5300
Wire Wire Line
	2200 7600 2700 7600
Wire Wire Line
	2200 7500 2750 7500
Wire Wire Line
	2200 7400 2750 7400
Wire Wire Line
	2200 7300 2750 7300
Wire Wire Line
	2200 7200 2750 7200
Wire Wire Line
	900  7200 1700 7200
Wire Wire Line
	900  7300 1700 7300
Wire Wire Line
	900  7400 1700 7400
Wire Wire Line
	1700 7500 1200 7500
Wire Wire Line
	1200 7600 1700 7600
Wire Wire Line
	2350 1350 2350 1850
Wire Wire Line
	1750 1350 2000 1350
Wire Wire Line
	2550 1450 3150 1450
Wire Wire Line
	3150 1750 2600 1750
Wire Wire Line
	2550 1550 3150 1550
Wire Wire Line
	2550 1350 3150 1350
Wire Wire Line
	900  7300 900  7400
Connection ~ 900  7400
Wire Wire Line
	900  7150 900  7200
$Comp
L Main_Control_Board-rescue:R R46
U 1 1 5827331B
P 2900 7200
F 0 "R46" V 2950 7050 50  0000 C CNN
F 1 "100k" V 2900 7200 50  0000 C CNN
F 2 "Resistor_SMD:R_0603_1608Metric_Pad1.05x0.95mm_HandSolder" V 2830 7200 50  0001 C CNN
F 3 "" H 2900 7200 50  0000 C CNN
F 4 "" H 2900 7200 50  0001 C CNN "FarnellLink"
F 5 "" H 2900 7200 50  0001 C CNN "DigiKeyLink"
F 6 "755-ESR03EZPF1003" H 2900 7200 50  0001 C CNN "MouserLink"
F 7 "R7" H 2900 7200 50  0001 C CNN "InternalName"
F 8 "" H 2900 7200 50  0001 C CNN "FarnellLink"
F 9 "" H 2900 7200 50  0001 C CNN "DigiKeyLink"
F 10 "755-ESR03EZPF1003" H 2900 7200 50  0001 C CNN "MouserLink"
F 11 "R7" H 2900 7200 50  0001 C CNN "InternalName"
	1    2900 7200
	0    1    1    0   
$EndComp
$Comp
L Main_Control_Board-rescue:R R48
U 1 1 58273379
P 2900 7400
F 0 "R48" V 2950 7250 50  0000 C CNN
F 1 "100k" V 2900 7400 50  0000 C CNN
F 2 "Resistor_SMD:R_0603_1608Metric_Pad1.05x0.95mm_HandSolder" V 2830 7400 50  0001 C CNN
F 3 "" H 2900 7400 50  0000 C CNN
F 4 "" H 2900 7400 50  0001 C CNN "FarnellLink"
F 5 "" H 2900 7400 50  0001 C CNN "DigiKeyLink"
F 6 "755-ESR03EZPF1003" H 2900 7400 50  0001 C CNN "MouserLink"
F 7 "R7" H 2900 7400 50  0001 C CNN "InternalName"
F 8 "" H 2900 7400 50  0001 C CNN "FarnellLink"
F 9 "" H 2900 7400 50  0001 C CNN "DigiKeyLink"
F 10 "755-ESR03EZPF1003" H 2900 7400 50  0001 C CNN "MouserLink"
F 11 "R7" H 2900 7400 50  0001 C CNN "InternalName"
	1    2900 7400
	0    1    1    0   
$EndComp
$Comp
L Main_Control_Board-rescue:R R49
U 1 1 582733E6
P 2900 7500
F 0 "R49" V 2950 7350 50  0000 C CNN
F 1 "100k" V 2900 7500 50  0000 C CNN
F 2 "Resistor_SMD:R_0603_1608Metric_Pad1.05x0.95mm_HandSolder" V 2830 7500 50  0001 C CNN
F 3 "" H 2900 7500 50  0000 C CNN
F 4 "" H 2900 7500 50  0001 C CNN "FarnellLink"
F 5 "" H 2900 7500 50  0001 C CNN "DigiKeyLink"
F 6 "755-ESR03EZPF1003" H 2900 7500 50  0001 C CNN "MouserLink"
F 7 "R7" H 2900 7500 50  0001 C CNN "InternalName"
F 8 "" H 2900 7500 50  0001 C CNN "FarnellLink"
F 9 "" H 2900 7500 50  0001 C CNN "DigiKeyLink"
F 10 "755-ESR03EZPF1003" H 2900 7500 50  0001 C CNN "MouserLink"
F 11 "R7" H 2900 7500 50  0001 C CNN "InternalName"
	1    2900 7500
	0    1    1    0   
$EndComp
Wire Wire Line
	3100 7300 3050 7300
$Comp
L Main_Control_Board-rescue:+3.3V #PWR051
U 1 1 582739F2
P 3350 7150
AR Path="/582739F2" Ref="#PWR051"  Part="1" 
AR Path="/574F025F/582739F2" Ref="#PWR051"  Part="1" 
F 0 "#PWR051" H 3350 7000 50  0001 C CNN
F 1 "+3.3V" H 3350 7290 50  0000 C CNN
F 2 "" H 3350 7150 50  0000 C CNN
F 3 "" H 3350 7150 50  0000 C CNN
	1    3350 7150
	1    0    0    -1  
$EndComp
Wire Wire Line
	3050 7200 3350 7200
Wire Wire Line
	3350 7150 3350 7200
Wire Wire Line
	3350 7400 3050 7400
Connection ~ 3350 7200
Wire Wire Line
	3350 7500 3050 7500
Connection ~ 3350 7400
Text Label 3100 5850 0    60   ~ 0
X2
Text Label 2700 5650 0    60   ~ 0
X1
$Comp
L Main_Control_Board-rescue:Crystal_ABM Y3
U 1 1 58535490
P 5550 7650
F 0 "Y3" H 5550 7650 60  0000 C CNN
F 1 "ABM-Crystal-12MHz" H 5550 8350 60  0000 C CNN
F 2 "Sphere_lib_footprint:ABM-3B-12MHz" H 5550 7650 60  0001 C CNN
F 3 "" H 5550 7650 60  0000 C CNN
F 4 "" H 5550 7650 60  0001 C CNN "FarnellLink"
F 5 "" H 5550 7650 60  0001 C CNN "DigiKeyLink"
F 6 "815-ABM3B-12-T" H 5550 7650 60  0001 C CNN "MouserLink"
F 7 "X2" H 5550 7650 60  0001 C CNN "InternalName"
F 8 "" H 5550 7650 60  0001 C CNN "FarnellLink"
F 9 "" H 5550 7650 60  0001 C CNN "DigiKeyLink"
F 10 "815-ABM3B-12-T" H 5550 7650 60  0001 C CNN "MouserLink"
F 11 "X2" H 5550 7650 60  0001 C CNN "InternalName"
	1    5550 7650
	1    0    0    -1  
$EndComp
$Comp
L Main_Control_Board-rescue:GND #PWR052
U 1 1 585356A1
P 6250 7500
F 0 "#PWR052" H 6250 7250 50  0001 C CNN
F 1 "GND" H 6250 7350 50  0000 C CNN
F 2 "" H 6250 7500 50  0000 C CNN
F 3 "" H 6250 7500 50  0000 C CNN
	1    6250 7500
	1    0    0    -1  
$EndComp
Wire Wire Line
	6250 7200 6250 7350
Wire Wire Line
	6250 7350 6100 7350
Wire Wire Line
	6100 7200 6250 7200
Connection ~ 6250 7350
Wire Wire Line
	5000 7200 4600 7200
Wire Wire Line
	5000 7350 4600 7350
Text Label 4600 7350 0    60   ~ 0
X2
Text Label 4600 7200 0    60   ~ 0
X1
$Comp
L Main_Control_Board-rescue:LPC1768 U4
U 1 1 574F0268
P 5300 6400
F 0 "U4" H 4900 6700 60  0000 C CNN
F 1 "LPC1768" H 4900 6600 60  0000 C CNN
F 2 "Sphere_lib_footprint:QFP_100" H 5300 6400 60  0001 C CNN
F 3 "" H 5300 6400 60  0000 C CNN
F 4 "" H 5300 6400 60  0001 C CNN "FarnellLink"
F 5 "" H 5300 6400 60  0001 C CNN "DigiKeyLink"
F 6 "771-LPC1768FBD100551" H 5300 6400 60  0001 C CNN "MouserLink"
F 7 "U-3" H 5300 6400 60  0001 C CNN "InternalName"
F 8 "" H 5300 6400 60  0001 C CNN "FarnellLink"
F 9 "" H 5300 6400 60  0001 C CNN "DigiKeyLink"
F 10 "771-LPC1768FBD100551" H 5300 6400 60  0001 C CNN "MouserLink"
F 11 "U-3" H 5300 6400 60  0001 C CNN "InternalName"
	1    5300 6400
	1    0    0    -1  
$EndComp
Wire Wire Line
	5000 4950 5400 4950
Text HLabel 4900 3300 0    60   Input ~ 0
OD_PWRON
Wire Wire Line
	5400 3300 4900 3300
Wire Wire Line
	2400 5700 2450 5700
Connection ~ 2450 5700
Wire Wire Line
	2100 5700 2050 5700
Connection ~ 2050 5700
Wire Wire Line
	2050 5450 2050 5700
Wire Wire Line
	2450 5550 2450 5700
Wire Wire Line
	3100 5750 3100 5900
Wire Wire Line
	2050 6200 2050 6250
Wire Wire Line
	2050 6250 2450 6250
Wire Wire Line
	2450 6250 2450 6200
Wire Wire Line
	2700 6250 2700 6200
Connection ~ 2450 6250
Wire Wire Line
	3100 6250 3100 6200
Connection ~ 2700 6250
Wire Wire Line
	2700 5650 2700 5900
Wire Notes Line
	6950 6550 500  6550
Wire Notes Line
	4000 6550 4000 7750
Text Notes 4150 6800 0    118  ~ 0
Crystal
Text Notes 600  6800 0    118  ~ 0
Debug Connector
Text Notes 650  700  0    118  ~ 0
LPC1768
Wire Wire Line
	3000 2150 3150 2150
Wire Wire Line
	2350 2150 3000 2150
Wire Wire Line
	3050 2550 3050 2600
Wire Wire Line
	2950 3350 3150 3350
Wire Wire Line
	2950 3450 2950 3850
Wire Wire Line
	2950 3850 2950 3950
Wire Wire Line
	2950 3950 2950 4050
Wire Wire Line
	2950 4050 2950 4150
Wire Wire Line
	2950 4150 2950 4350
Wire Wire Line
	2350 3350 2950 3350
Wire Wire Line
	1400 3800 1400 4050
Wire Wire Line
	1400 4050 1400 4300
Wire Wire Line
	1400 4300 1400 4550
Wire Wire Line
	1400 4550 1400 4850
Wire Wire Line
	1800 4050 1800 4300
Wire Wire Line
	1800 4300 1800 4550
Wire Wire Line
	1800 4550 1800 4850
Wire Wire Line
	3000 5100 2550 5100
Wire Wire Line
	3000 5000 3000 5100
Wire Wire Line
	3000 4900 3000 5000
Wire Wire Line
	3000 4800 3000 4900
Wire Wire Line
	3000 4700 3000 4800
Wire Wire Line
	4450 2550 4450 2600
Wire Wire Line
	2000 1350 2000 1400
Wire Wire Line
	2000 1350 2350 1350
Wire Wire Line
	900  7400 900  7450
Wire Wire Line
	3350 7200 3350 7400
Wire Wire Line
	3350 7400 3350 7500
Wire Wire Line
	6250 7350 6250 7500
Wire Wire Line
	2450 5700 2450 5900
Wire Wire Line
	2050 5700 2050 5900
Wire Wire Line
	2450 6250 2700 6250
Wire Wire Line
	2700 6250 3100 6250
Wire Wire Line
	5400 2400 4950 2400
Wire Wire Line
	4950 2400 4950 2850
Wire Wire Line
	4950 2850 4850 2850
Wire Wire Line
	5400 2500 5050 2500
Wire Wire Line
	5050 2500 5050 2950
Wire Wire Line
	5050 2950 4850 2950
Wire Wire Line
	5400 2700 5100 2700
Wire Wire Line
	5100 2700 5100 3050
Wire Wire Line
	5100 3050 4850 3050
Wire Wire Line
	5400 2900 5150 2900
Wire Wire Line
	5150 2900 5150 3150
Wire Wire Line
	5150 3150 4850 3150
Text HLabel 4850 2850 0    60   Input ~ 0
SCK0
Text HLabel 4850 2950 0    60   Input ~ 0
SSEL0
Text HLabel 4850 3050 0    60   Input ~ 0
MISO0
Text HLabel 4850 3150 0    60   Input ~ 0
MOSI0
Wire Wire Line
	1800 4850 1800 5150
$Comp
L Main_Control_Board-rescue:C C26
U 1 1 5BE46DDC
P 1600 5150
F 0 "C26" H 1625 5250 50  0000 L CNN
F 1 "0.1uF" H 1600 5050 50  0000 L CNN
F 2 "Capacitor_SMD:C_0603_1608Metric_Pad1.05x0.95mm_HandSolder" H 1638 5000 50  0001 C CNN
F 3 "" H 1600 5150 50  0000 C CNN
F 4 "" H 1600 5150 50  0001 C CNN "FarnellLink"
F 5 "" H 1600 5150 50  0001 C CNN "DigiKeyLink"
F 6 "81-GRM39X104K50D" H 1600 5150 50  0001 C CNN "MouserLink"
F 7 "C12" H 1600 5150 50  0001 C CNN "InternalName"
F 8 "" H 1600 5150 50  0001 C CNN "FarnellLink"
F 9 "" H 1600 5150 50  0001 C CNN "DigiKeyLink"
F 10 "81-GRM39X104K50D" H 1600 5150 50  0001 C CNN "MouserLink"
F 11 "C12" H 1600 5150 50  0001 C CNN "InternalName"
	1    1600 5150
	0    1    1    0   
$EndComp
$Comp
L Main_Control_Board-rescue:C C27
U 1 1 5BE46E50
P 1600 5400
F 0 "C27" H 1625 5500 50  0000 L CNN
F 1 "10pF" H 1600 5300 50  0000 L CNN
F 2 "Capacitor_SMD:C_0603_1608Metric_Pad1.05x0.95mm_HandSolder" H 1638 5250 50  0001 C CNN
F 3 "" H 1600 5400 50  0000 C CNN
F 4 "" H 1600 5400 50  0001 C CNN "FarnellLink"
F 5 "" H 1600 5400 50  0001 C CNN "DigiKeyLink"
F 6 "81-GRM39X104K50D" H 1600 5400 50  0001 C CNN "MouserLink"
F 7 "C12" H 1600 5400 50  0001 C CNN "InternalName"
F 8 "" H 1600 5400 50  0001 C CNN "FarnellLink"
F 9 "" H 1600 5400 50  0001 C CNN "DigiKeyLink"
F 10 "81-GRM39X104K50D" H 1600 5400 50  0001 C CNN "MouserLink"
F 11 "C12" H 1600 5400 50  0001 C CNN "InternalName"
	1    1600 5400
	0    1    1    0   
$EndComp
$Comp
L Main_Control_Board-rescue:C C28
U 1 1 5BE46EB0
P 1600 5650
F 0 "C28" H 1625 5750 50  0000 L CNN
F 1 "10pF" H 1600 5550 50  0000 L CNN
F 2 "Capacitor_SMD:C_0603_1608Metric_Pad1.05x0.95mm_HandSolder" H 1638 5500 50  0001 C CNN
F 3 "" H 1600 5650 50  0000 C CNN
F 4 "" H 1600 5650 50  0001 C CNN "FarnellLink"
F 5 "" H 1600 5650 50  0001 C CNN "DigiKeyLink"
F 6 "81-GRM39X104K50D" H 1600 5650 50  0001 C CNN "MouserLink"
F 7 "C12" H 1600 5650 50  0001 C CNN "InternalName"
F 8 "" H 1600 5650 50  0001 C CNN "FarnellLink"
F 9 "" H 1600 5650 50  0001 C CNN "DigiKeyLink"
F 10 "81-GRM39X104K50D" H 1600 5650 50  0001 C CNN "MouserLink"
F 11 "C12" H 1600 5650 50  0001 C CNN "InternalName"
	1    1600 5650
	0    1    1    0   
$EndComp
$Comp
L Main_Control_Board-rescue:C C29
U 1 1 5BE46F0E
P 1600 5850
F 0 "C29" H 1625 5950 50  0000 L CNN
F 1 "10pF" H 1600 5750 50  0000 L CNN
F 2 "Capacitor_SMD:C_0603_1608Metric_Pad1.05x0.95mm_HandSolder" H 1638 5700 50  0001 C CNN
F 3 "" H 1600 5850 50  0000 C CNN
F 4 "" H 1600 5850 50  0001 C CNN "FarnellLink"
F 5 "" H 1600 5850 50  0001 C CNN "DigiKeyLink"
F 6 "81-GRM39X104K50D" H 1600 5850 50  0001 C CNN "MouserLink"
F 7 "C12" H 1600 5850 50  0001 C CNN "InternalName"
F 8 "" H 1600 5850 50  0001 C CNN "FarnellLink"
F 9 "" H 1600 5850 50  0001 C CNN "DigiKeyLink"
F 10 "81-GRM39X104K50D" H 1600 5850 50  0001 C CNN "MouserLink"
F 11 "C12" H 1600 5850 50  0001 C CNN "InternalName"
	1    1600 5850
	0    1    1    0   
$EndComp
Wire Wire Line
	1400 4850 1400 5150
Wire Wire Line
	1400 5850 1450 5850
Connection ~ 1400 4850
Wire Wire Line
	1450 5150 1400 5150
Connection ~ 1400 5150
Wire Wire Line
	1400 5150 1400 5400
Wire Wire Line
	1450 5400 1400 5400
Connection ~ 1400 5400
Wire Wire Line
	1400 5400 1400 5650
Wire Wire Line
	1450 5650 1400 5650
Connection ~ 1400 5650
Wire Wire Line
	1400 5650 1400 5850
Wire Wire Line
	1750 5150 1800 5150
Connection ~ 1800 5150
Wire Wire Line
	1800 5150 1800 5400
Wire Wire Line
	1750 5400 1800 5400
Connection ~ 1800 5400
Wire Wire Line
	1800 5400 1800 5650
Wire Wire Line
	1750 5650 1800 5650
Connection ~ 1800 5650
Wire Wire Line
	1800 5650 1800 5850
Wire Wire Line
	1750 5850 1800 5850
Connection ~ 1800 5850
Wire Wire Line
	1800 5850 1800 5950
Wire Wire Line
	5400 5250 4950 5250
Text HLabel 4950 5250 0    60   Input ~ 0
DEBUG
$Comp
L Main_Control_Board-rescue:R R17
U 1 1 5BFAA5CD
P 4700 4750
F 0 "R17" V 4780 4750 50  0000 C CNN
F 1 "100k" V 4700 4750 50  0000 C CNN
F 2 "Resistor_SMD:R_0603_1608Metric_Pad1.05x0.95mm_HandSolder" V 4630 4750 50  0001 C CNN
F 3 "" H 4700 4750 50  0000 C CNN
F 4 "" H 4700 4750 50  0001 C CNN "FarnellLink"
F 5 "" H 4700 4750 50  0001 C CNN "DigiKeyLink"
F 6 "755-ESR03EZPF1003" H 4700 4750 50  0001 C CNN "MouserLink"
F 7 "R7" H 4700 4750 50  0001 C CNN "InternalName"
F 8 "" H 4700 4750 50  0001 C CNN "FarnellLink"
F 9 "" H 4700 4750 50  0001 C CNN "DigiKeyLink"
F 10 "755-ESR03EZPF1003" H 4700 4750 50  0001 C CNN "MouserLink"
F 11 "R7" H 4700 4750 50  0001 C CNN "InternalName"
	1    4700 4750
	-1   0    0    1   
$EndComp
Wire Wire Line
	4700 4900 4700 4950
Wire Wire Line
	4700 4950 5000 4950
Connection ~ 5000 4950
$Comp
L Main_Control_Board-rescue:+3.3V #PWR?
U 1 1 5BFB3F39
P 4700 4550
AR Path="/5BFB3F39" Ref="#PWR?"  Part="1" 
AR Path="/574F025F/5BFB3F39" Ref="#PWR068"  Part="1" 
F 0 "#PWR068" H 4700 4400 50  0001 C CNN
F 1 "+3.3V" H 4700 4690 50  0000 C CNN
F 2 "" H 4700 4550 50  0000 C CNN
F 3 "" H 4700 4550 50  0000 C CNN
	1    4700 4550
	1    0    0    -1  
$EndComp
Wire Wire Line
	4700 4550 4700 4600
$Comp
L Main_Control_Board-rescue:R R18
U 1 1 5BFC3935
P 9750 4850
F 0 "R18" V 9830 4850 50  0000 C CNN
F 1 "DNOT_POP" V 9650 4850 50  0000 C CNN
F 2 "Resistor_SMD:R_0603_1608Metric_Pad1.05x0.95mm_HandSolder" V 9680 4850 50  0001 C CNN
F 3 "" H 9750 4850 50  0000 C CNN
F 4 "" H 9750 4850 50  0001 C CNN "FarnellLink"
F 5 "" H 9750 4850 50  0001 C CNN "DigiKeyLink"
F 6 "755-ESR03EZPF1003" H 9750 4850 50  0001 C CNN "MouserLink"
F 7 "R7" H 9750 4850 50  0001 C CNN "InternalName"
F 8 "" H 9750 4850 50  0001 C CNN "FarnellLink"
F 9 "" H 9750 4850 50  0001 C CNN "DigiKeyLink"
F 10 "755-ESR03EZPF1003" H 9750 4850 50  0001 C CNN "MouserLink"
F 11 "R7" H 9750 4850 50  0001 C CNN "InternalName"
	1    9750 4850
	1    0    0    -1  
$EndComp
$Comp
L Main_Control_Board-rescue:R R19
U 1 1 5BFC3C6D
P 10100 4850
F 0 "R19" V 10180 4850 50  0000 C CNN
F 1 "DNOT_POP" V 10000 4850 50  0000 C CNN
F 2 "Resistor_SMD:R_0603_1608Metric_Pad1.05x0.95mm_HandSolder" V 10030 4850 50  0001 C CNN
F 3 "" H 10100 4850 50  0000 C CNN
F 4 "" H 10100 4850 50  0001 C CNN "FarnellLink"
F 5 "" H 10100 4850 50  0001 C CNN "DigiKeyLink"
F 6 "755-ESR03EZPF1003" H 10100 4850 50  0001 C CNN "MouserLink"
F 7 "R7" H 10100 4850 50  0001 C CNN "InternalName"
F 8 "" H 10100 4850 50  0001 C CNN "FarnellLink"
F 9 "" H 10100 4850 50  0001 C CNN "DigiKeyLink"
F 10 "755-ESR03EZPF1003" H 10100 4850 50  0001 C CNN "MouserLink"
F 11 "R7" H 10100 4850 50  0001 C CNN "InternalName"
	1    10100 4850
	-1   0    0    1   
$EndComp
$Comp
L Main_Control_Board-rescue:+3.3V #PWR?
U 1 1 5BFD70B8
P 9950 4550
AR Path="/5BFD70B8" Ref="#PWR?"  Part="1" 
AR Path="/574F025F/5BFD70B8" Ref="#PWR069"  Part="1" 
F 0 "#PWR069" H 9950 4400 50  0001 C CNN
F 1 "+3.3V" H 9950 4690 50  0000 C CNN
F 2 "" H 9950 4550 50  0000 C CNN
F 3 "" H 9950 4550 50  0000 C CNN
	1    9950 4550
	1    0    0    -1  
$EndComp
Wire Wire Line
	8950 3000 9650 3000
Wire Wire Line
	8950 3100 9650 3100
Wire Wire Line
	9750 4700 9750 4600
Wire Wire Line
	9750 4600 9950 4600
Wire Wire Line
	9950 4600 9950 4550
Wire Wire Line
	10100 4600 10100 4700
Text Label 9750 5300 1    60   ~ 0
SDA1
Wire Wire Line
	9750 5000 9750 5300
Text Label 10100 5300 1    60   ~ 0
SCL1
Wire Wire Line
	10100 5000 10100 5300
Wire Wire Line
	9950 4600 10100 4600
Connection ~ 9950 4600
$EndSCHEMATC
