EESchema Schematic File Version 4
LIBS:Main_Control_Board-cache
EELAYER 26 0
EELAYER END
$Descr A4 11693 8268
encoding utf-8
Sheet 3 5
Title "Main Sensors Board "
Date "2017-10-09"
Rev "0.3"
Comp "DROP Lab, University of Michigan"
Comment1 "Designed by Eduardo Iscar "
Comment2 ""
Comment3 ""
Comment4 ""
$EndDescr
$Comp
L Main_Control_Board-rescue:CONN_02X15 P5
U 1 1 57557847
P 9150 2250
F 0 "P5" H 9150 3050 50  0000 C CNN
F 1 "CONN_02X15" V 9150 2250 50  0000 C CNN
F 2 "Sphere_lib_footprint:Milligrid30pin" H 9150 1100 50  0001 C CNN
F 3 "" H 9150 1100 50  0000 C CNN
F 4 "" H 9150 1100 50  0001 C CNN "FarnellLink"
F 5 "" H 9150 1100 50  0001 C CNN "DigiKeyLink"
F 6 "538-87832-3020" H 9150 1100 50  0001 C CNN "MouserLink"
F 7 "J20" H 9150 1100 50  0001 C CNN "InternalName"
F 8 "" H 9150 1100 50  0001 C CNN "FarnellLink"
F 9 "" H 9150 1100 50  0001 C CNN "DigiKeyLink"
F 10 "538-87832-3020" H 9150 1100 50  0001 C CNN "MouserLink"
F 11 "J20" H 9150 1100 50  0001 C CNN "InternalName"
	1    9150 2250
	1    0    0    -1  
$EndComp
Wire Wire Line
	7850 1550 8900 1550
Wire Wire Line
	8350 1650 8900 1650
Wire Wire Line
	8350 1750 8900 1750
Wire Wire Line
	8350 1850 8900 1850
Wire Wire Line
	8350 1950 8900 1950
Wire Wire Line
	8350 2050 8900 2050
Wire Wire Line
	8350 2150 8900 2150
Wire Wire Line
	8350 2250 8900 2250
Wire Wire Line
	8350 2350 8900 2350
Wire Wire Line
	8350 2450 8900 2450
Wire Wire Line
	8350 2550 8900 2550
Wire Wire Line
	8350 2650 8900 2650
Wire Wire Line
	8350 2750 8900 2750
Wire Wire Line
	8350 2850 8900 2850
Wire Wire Line
	8350 2950 8900 2950
Wire Wire Line
	9400 1550 10050 1550
Wire Wire Line
	9400 1650 10000 1650
Wire Wire Line
	9400 1750 10000 1750
Wire Wire Line
	9400 1850 10000 1850
Wire Wire Line
	9400 1950 10000 1950
Wire Wire Line
	9400 2050 10000 2050
Wire Wire Line
	9400 2150 10000 2150
Wire Wire Line
	9400 2250 10000 2250
Wire Wire Line
	9400 2350 10000 2350
Wire Wire Line
	9400 2450 10000 2450
Wire Wire Line
	9400 2550 10000 2550
Wire Wire Line
	9400 2650 10000 2650
Wire Wire Line
	9400 2750 10000 2750
Wire Wire Line
	9400 2850 10050 2850
Wire Wire Line
	9400 2950 10050 2950
Text Label 8350 1550 0    60   ~ 0
5V0
Text Label 8350 1650 0    60   ~ 0
ADC_0.AIN0
Text Label 8350 1750 0    60   ~ 0
UART_0.CTSN
Text Label 8350 1850 0    60   ~ 0
SPI_1.MOSI
Text Label 8350 1950 0    60   ~ 0
SPI_1.MISO
Text Label 8350 2050 0    60   ~ 0
SPI_1.CSN
Text Label 8350 2150 0    60   ~ 0
XE.INT13
Text Label 8350 2250 0    60   ~ 0
XE.INT10
Text Label 8350 2350 0    60   ~ 0
XE.INT14
Text Label 8350 2450 0    60   ~ 0
XE.INT22
Text Label 8350 2550 0    60   ~ 0
XE.INT21
Text Label 8350 2650 0    60   ~ 0
ADC_0.AIN3
Text Label 8350 2750 0    60   ~ 0
XE.INT15
Text Label 8350 2850 0    60   ~ 0
XE.INT25
Text Label 8350 2950 0    60   ~ 0
VDD_IO(1.8V)
Text Label 10000 1550 2    60   ~ 0
GND
Text Label 10000 1650 2    60   ~ 0
UART_0.RTSN
Text Label 10000 1750 2    60   ~ 0
UART_0.RXD
Text Label 10000 1850 2    60   ~ 0
UART_0.TXD
Text Label 10000 1950 2    60   ~ 0
SPI_1.CLK
Text Label 10000 2050 2    60   ~ 0
PWRON
Text Label 10000 2150 2    60   ~ 0
I2C_1.SCL
Text Label 10000 2250 2    60   ~ 0
I2C_1.SDA
Text Label 10000 2350 2    60   ~ 0
XE.INT11
Text Label 10000 2450 2    60   ~ 0
XE.INT20
Text Label 10000 2550 2    60   ~ 0
XE.INT23
Text Label 10000 2650 2    60   ~ 0
XE.INT17
Text Label 10000 2750 2    60   ~ 0
XE.INT16
Text Label 10000 2850 2    60   ~ 0
GND
Text Label 10000 2950 2    60   ~ 0
GND
$Comp
L Main_Control_Board-rescue:+5V #PWR027
U 1 1 57558827
P 7850 1400
F 0 "#PWR027" H 7850 1250 50  0001 C CNN
F 1 "+5V" H 7850 1540 50  0000 C CNN
F 2 "" H 7850 1400 50  0000 C CNN
F 3 "" H 7850 1400 50  0000 C CNN
	1    7850 1400
	1    0    0    -1  
$EndComp
Wire Wire Line
	7850 1400 7850 1550
$Comp
L Main_Control_Board-rescue:GND #PWR028
U 1 1 5755889B
P 10050 3050
F 0 "#PWR028" H 10050 2800 50  0001 C CNN
F 1 "GND" H 10050 2900 50  0000 C CNN
F 2 "" H 10050 3050 50  0000 C CNN
F 3 "" H 10050 3050 50  0000 C CNN
	1    10050 3050
	1    0    0    -1  
$EndComp
Wire Wire Line
	10050 2850 10050 2950
Connection ~ 10050 2950
$Comp
L Main_Control_Board-rescue:GND #PWR029
U 1 1 575588F7
P 9750 1250
F 0 "#PWR029" H 9750 1000 50  0001 C CNN
F 1 "GND" H 9750 1100 50  0000 C CNN
F 2 "" H 9750 1250 50  0000 C CNN
F 3 "" H 9750 1250 50  0000 C CNN
	1    9750 1250
	1    0    0    -1  
$EndComp
Wire Wire Line
	9750 1250 10050 1250
Wire Wire Line
	10050 1250 10050 1550
$Comp
L Main_Control_Board-rescue:+3.3V #PWR030
U 1 1 5755A9E3
P 3900 2250
AR Path="/5755A9E3" Ref="#PWR030"  Part="1" 
AR Path="/5755779A/5755A9E3" Ref="#PWR030"  Part="1" 
F 0 "#PWR030" H 3900 2100 50  0001 C CNN
F 1 "+3.3V" H 3900 2390 50  0000 C CNN
F 2 "" H 3900 2250 50  0000 C CNN
F 3 "" H 3900 2250 50  0000 C CNN
	1    3900 2250
	1    0    0    -1  
$EndComp
Text Label 3700 1800 3    60   ~ 0
VDD_IO(1.8V)
Text HLabel 4450 3050 2    60   Input ~ 0
OD_U0_RX
Text HLabel 4450 3150 2    60   Input ~ 0
OD_U0_TX
Text Label 2850 3050 0    60   ~ 0
UART_0.RXD
Text Label 2850 3150 0    60   ~ 0
UART_0.TXD
$Comp
L Main_Control_Board-rescue:CONN_01X04 P4
U 1 1 57577274
P 9200 5750
F 0 "P4" H 9200 6000 50  0000 C CNN
F 1 "CONN_01X04" V 9300 5750 50  0000 C CNN
F 2 "Sphere_lib_footprint:Molex-UART-Male" H 9200 5750 50  0001 C CNN
F 3 "" H 9200 5750 50  0000 C CNN
F 4 "" H 9200 5750 50  0001 C CNN "FarnellLink"
F 5 "" H 9200 5750 50  0001 C CNN "DigiKeyLink"
F 6 "538-22-03-5045" H 9200 5750 50  0001 C CNN "MouserLink"
F 7 "J-17" H 9200 5750 50  0001 C CNN "InternalName"
F 8 "" H 9200 5750 50  0001 C CNN "FarnellLink"
F 9 "" H 9200 5750 50  0001 C CNN "DigiKeyLink"
F 10 "538-22-03-5045" H 9200 5750 50  0001 C CNN "MouserLink"
F 11 "J-17" H 9200 5750 50  0001 C CNN "InternalName"
	1    9200 5750
	1    0    0    -1  
$EndComp
$Comp
L Main_Control_Board-rescue:GND #PWR031
U 1 1 5757776B
P 8900 5950
F 0 "#PWR031" H 8900 5700 50  0001 C CNN
F 1 "GND" H 8900 5800 50  0000 C CNN
F 2 "" H 8900 5950 50  0000 C CNN
F 3 "" H 8900 5950 50  0000 C CNN
	1    8900 5950
	1    0    0    -1  
$EndComp
Wire Wire Line
	8400 5550 8400 5600
Wire Wire Line
	8400 5600 9000 5600
Wire Wire Line
	9000 5900 8900 5900
Wire Wire Line
	8900 5900 8900 5950
Wire Wire Line
	9000 5700 8400 5700
Wire Wire Line
	9000 5800 8400 5800
Text Label 8400 5800 0    60   ~ 0
UART_2.RXD
Text Label 8400 5700 0    60   ~ 0
UART_2.TXD
Text HLabel 4450 2950 2    60   Input ~ 0
OD_U2_TX
Text HLabel 4450 2850 2    60   Input ~ 0
OD_U2_RX
Text Label 2850 2950 0    60   ~ 0
UART_2.TXD
Text Label 2850 2850 0    60   ~ 0
UART_2.RXD
Text Label 2850 3550 0    60   ~ 0
XE.INT14
Text Label 2950 5050 0    60   ~ 0
XE.INT22
Text Label 2950 5250 0    60   ~ 0
XE.INT21
Text HLabel 4450 3550 2    60   Input ~ 0
XE.INT14_3.3
Text HLabel 4400 5050 2    60   Input ~ 0
XE.INT22_3.3
Text HLabel 4400 5250 2    60   Input ~ 0
XE.INT21_3.3
$Comp
L Main_Control_Board-rescue:CONN_01X02 P6
U 1 1 575EAD7B
P 9600 4200
F 0 "P6" H 9600 4350 50  0000 C CNN
F 1 "CONN_01X02" V 9700 4200 50  0000 C CNN
F 2 "Sphere_lib_footprint:Molex-Battery-Backup" H 9600 4200 50  0001 C CNN
F 3 "" H 9600 4200 50  0000 C CNN
F 4 "" H 9600 4200 50  0001 C CNN "FarnellLink"
F 5 "" H 9600 4200 50  0001 C CNN "DigiKeyLink"
F 6 "538-53398-0271" H 9600 4200 50  0001 C CNN "MouserLink"
F 7 "J-15" H 9600 4200 50  0001 C CNN "InternalName"
F 8 "" H 9600 4200 50  0001 C CNN "FarnellLink"
F 9 "" H 9600 4200 50  0001 C CNN "DigiKeyLink"
F 10 "538-53398-0271" H 9600 4200 50  0001 C CNN "MouserLink"
F 11 "J-15" H 9600 4200 50  0001 C CNN "InternalName"
	1    9600 4200
	1    0    0    -1  
$EndComp
$Comp
L Main_Control_Board-rescue:Battery-RESCUE-Main_Control_Board CR2032
U 1 1 575EAE70
P 8800 4200
AR Path="/575EAE70" Ref="CR2032"  Part="1" 
AR Path="/5755779A/575EAE70" Ref="CR2032"  Part="1" 
F 0 "CR2032" V 8650 3750 50  0000 L CNN
F 1 "Battery" H 8900 4150 50  0000 L CNN
F 2 "Sphere_lib_footprint:CR1225" V 8800 4240 50  0001 C CNN
F 3 "" V 8800 4240 50  0000 C CNN
F 4 "" V 8800 4240 50  0001 C CNN "FarnellLink"
F 5 "" V 8800 4240 50  0001 C CNN "DigiKeyLink"
F 6 "614-SMTM1225" V 8800 4240 50  0001 C CNN "MouserLink"
F 7 "B3" V 8800 4240 50  0001 C CNN "InternalName"
F 8 "" V 8800 4240 50  0001 C CNN "FarnellLink"
F 9 "" V 8800 4240 50  0001 C CNN "DigiKeyLink"
F 10 "614-SMTM1225" V 8800 4240 50  0001 C CNN "MouserLink"
F 11 "B3" V 8800 4240 50  0001 C CNN "InternalName"
	1    8800 4200
	1    0    0    -1  
$EndComp
Wire Wire Line
	8800 4050 8800 3950
Wire Wire Line
	8800 3950 9250 3950
Wire Wire Line
	9350 3950 9350 4150
Wire Wire Line
	9350 4150 9400 4150
Wire Wire Line
	9400 4250 9350 4250
Wire Wire Line
	9350 4250 9350 4450
Wire Wire Line
	9350 4450 9250 4450
Wire Wire Line
	8800 4450 8800 4350
Text HLabel 4450 3350 2    60   Input ~ 0
XE.INT13_3.3
Text Label 2850 3450 0    60   ~ 0
XE.INT10
Text HLabel 4450 3450 2    60   Input ~ 0
XE.INT10_3.3
Text Label 2950 5450 0    60   ~ 0
XE.INT15
Text HLabel 4400 5450 2    60   Input ~ 0
XE.INT15_3.3
Text Label 2950 5650 0    60   ~ 0
XE.INT25
Text HLabel 4400 5650 2    60   Input ~ 0
XE.INT25_3.3
$Comp
L Main_Control_Board-rescue:GND #PWR032
U 1 1 58262C3F
P 9250 4500
F 0 "#PWR032" H 9250 4250 50  0001 C CNN
F 1 "GND" H 9250 4350 50  0000 C CNN
F 2 "" H 9250 4500 50  0000 C CNN
F 3 "" H 9250 4500 50  0000 C CNN
	1    9250 4500
	1    0    0    -1  
$EndComp
Wire Wire Line
	9250 4500 9250 4450
Connection ~ 9250 4450
Wire Wire Line
	9250 3950 9250 3850
Connection ~ 9250 3950
Text HLabel 9250 3850 1    60   Input ~ 0
Vbat
NoConn ~ 8350 1650
NoConn ~ 8350 1750
NoConn ~ 8350 1850
NoConn ~ 8350 1950
NoConn ~ 8350 2050
NoConn ~ 8350 2650
NoConn ~ 10000 2750
NoConn ~ 10000 2650
NoConn ~ 10000 2550
NoConn ~ 10000 2450
NoConn ~ 10000 2250
NoConn ~ 10000 2150
NoConn ~ 10000 1950
NoConn ~ 10000 1650
Text Label 2850 3250 0    60   ~ 0
PWRON
Text HLabel 4450 3250 2    60   BiDi ~ 0
LPC_OD_PWRON
Text Notes 7800 900  0    118  ~ 0
Connector
Text Notes 7900 3550 0    118  ~ 0
Real Time Clock Connector
Text Notes 7950 5200 0    118  ~ 0
ODROID UART2 Connector
Wire Notes Line
	7500 500  7500 6500
Wire Notes Line
	7500 3300 11200 3300
Wire Notes Line
	7500 4850 11200 4850
Text Notes 1200 950  0    118  ~ 0
Level Shifters: 1.8V to 3.3
Wire Wire Line
	10050 2950 10050 3050
Wire Wire Line
	9250 4450 8800 4450
Wire Wire Line
	9250 3950 9350 3950
$Comp
L Sphere_lib:TXB0108-PWR U8
U 1 1 5BB79C0A
P 3800 3150
F 0 "U8" H 3450 2450 50  0000 C CNN
F 1 "TXB0108" H 3450 2350 50  0000 C CNN
F 2 "Package_SO:SSOP-20_4.4x6.5mm_P0.65mm" H 3800 2400 50  0001 C CNN
F 3 "http://www.ti.com/lit/ds/symlink/txb0108.pdf" H 3800 3050 50  0001 C CNN
	1    3800 3150
	1    0    0    -1  
$EndComp
Wire Wire Line
	3700 1800 3700 2450
Wire Wire Line
	3900 2250 3900 2450
Wire Wire Line
	4200 2850 4450 2850
Wire Wire Line
	4450 2950 4200 2950
Wire Wire Line
	4450 3050 4200 3050
Wire Wire Line
	4450 3150 4200 3150
Wire Wire Line
	4450 3250 4200 3250
Wire Wire Line
	4450 3350 4200 3350
Wire Wire Line
	3400 2850 2850 2850
Wire Wire Line
	2850 2950 3400 2950
Wire Wire Line
	2850 3050 3400 3050
Wire Wire Line
	2850 3150 3400 3150
Wire Wire Line
	2850 3250 3400 3250
Wire Wire Line
	2850 3350 3400 3350
$Comp
L Logic_LevelTranslator:TXB0104PW U9
U 1 1 5BBAC933
P 3800 5350
F 0 "U9" H 3950 4650 50  0000 C CNN
F 1 "TXB0104PW" H 3450 4550 50  0000 C CNN
F 2 "Package_SO:TSSOP-14_4.4x5mm_P0.65mm" H 3800 4600 50  0001 C CNN
F 3 "http://www.ti.com/lit/ds/symlink/txb0104.pdf" H 3910 5445 50  0001 C CNN
	1    3800 5350
	1    0    0    -1  
$EndComp
$Comp
L Main_Control_Board-rescue:+3.3V #PWR?
U 1 1 5BBAC9DB
P 3900 4500
AR Path="/5BBAC9DB" Ref="#PWR?"  Part="1" 
AR Path="/5755779A/5BBAC9DB" Ref="#PWR058"  Part="1" 
F 0 "#PWR058" H 3900 4350 50  0001 C CNN
F 1 "+3.3V" H 3900 4640 50  0000 C CNN
F 2 "" H 3900 4500 50  0000 C CNN
F 3 "" H 3900 4500 50  0000 C CNN
	1    3900 4500
	1    0    0    -1  
$EndComp
Text Label 3700 4050 3    60   ~ 0
VDD_IO(1.8V)
Wire Wire Line
	3700 4050 3700 4650
Wire Wire Line
	3900 4500 3900 4650
Text Label 2850 3350 0    60   ~ 0
XE.INT13
Wire Wire Line
	2950 5050 3400 5050
Wire Wire Line
	2950 5250 3400 5250
Wire Wire Line
	2950 5450 3400 5450
Wire Wire Line
	2950 5650 3400 5650
Wire Wire Line
	4400 5050 4200 5050
Wire Wire Line
	4200 5250 4400 5250
Wire Wire Line
	4200 5450 4400 5450
Wire Wire Line
	4200 5650 4400 5650
$Comp
L Main_Control_Board-rescue:GND #PWR056
U 1 1 5BC40FAE
P 3800 3900
F 0 "#PWR056" H 3800 3650 50  0001 C CNN
F 1 "GND" H 3800 3750 50  0000 C CNN
F 2 "" H 3800 3900 50  0000 C CNN
F 3 "" H 3800 3900 50  0000 C CNN
	1    3800 3900
	1    0    0    -1  
$EndComp
Wire Wire Line
	3800 3850 3800 3900
$Comp
L Main_Control_Board-rescue:GND #PWR057
U 1 1 5BC43468
P 3800 6100
F 0 "#PWR057" H 3800 5850 50  0001 C CNN
F 1 "GND" H 3800 5950 50  0000 C CNN
F 2 "" H 3800 6100 50  0000 C CNN
F 3 "" H 3800 6100 50  0000 C CNN
	1    3800 6100
	1    0    0    -1  
$EndComp
Wire Wire Line
	3800 6100 3800 6050
Wire Wire Line
	2850 3450 3400 3450
Wire Wire Line
	3400 3550 2850 3550
Wire Wire Line
	4450 3450 4200 3450
Wire Wire Line
	4200 3550 4450 3550
Text Label 2550 4850 0    60   ~ 0
XE.INT11
Wire Wire Line
	2550 4850 2600 4850
$Comp
L Device:R R10
U 1 1 5BF3B6C3
P 2600 5050
F 0 "R10" H 2670 5096 50  0000 L CNN
F 1 "1k" H 2670 5005 50  0000 L CNN
F 2 "Resistor_SMD:R_0603_1608Metric_Pad1.05x0.95mm_HandSolder" V 2530 5050 50  0001 C CNN
F 3 "~" H 2600 5050 50  0001 C CNN
	1    2600 5050
	1    0    0    -1  
$EndComp
Wire Wire Line
	2600 4900 2600 4850
Connection ~ 2600 4850
Wire Wire Line
	2600 4850 3400 4850
Wire Wire Line
	2600 5200 2600 6100
Wire Wire Line
	2600 6100 3800 6100
Connection ~ 3800 6100
Text Label 2850 2750 0    60   ~ 0
XE.INT11
Wire Wire Line
	2850 2750 3400 2750
$Comp
L Device:C_Small C36
U 1 1 5C005119
P 6000 3000
F 0 "C36" H 6092 3046 50  0000 L CNN
F 1 "0.1uF" H 6092 2955 50  0000 L CNN
F 2 "Capacitor_SMD:C_0603_1608Metric_Pad1.05x0.95mm_HandSolder" H 6000 3000 50  0001 C CNN
F 3 "~" H 6000 3000 50  0001 C CNN
	1    6000 3000
	1    0    0    -1  
$EndComp
$Comp
L Device:C_Small C37
U 1 1 5C0052DC
P 6250 3000
F 0 "C37" H 6342 3046 50  0000 L CNN
F 1 "0.1uF" H 6342 2955 50  0000 L CNN
F 2 "Capacitor_SMD:C_0603_1608Metric_Pad1.05x0.95mm_HandSolder" H 6250 3000 50  0001 C CNN
F 3 "~" H 6250 3000 50  0001 C CNN
	1    6250 3000
	1    0    0    -1  
$EndComp
$Comp
L Device:C_Small C38
U 1 1 5C005310
P 6550 3000
F 0 "C38" H 6642 3046 50  0000 L CNN
F 1 "0.1uF" H 6642 2955 50  0000 L CNN
F 2 "Capacitor_SMD:C_0603_1608Metric_Pad1.05x0.95mm_HandSolder" H 6550 3000 50  0001 C CNN
F 3 "~" H 6550 3000 50  0001 C CNN
	1    6550 3000
	1    0    0    -1  
$EndComp
$Comp
L Device:C_Small C39
U 1 1 5C00533C
P 6750 3000
F 0 "C39" H 6842 3046 50  0000 L CNN
F 1 "0.1uF" H 6842 2955 50  0000 L CNN
F 2 "Capacitor_SMD:C_0603_1608Metric_Pad1.05x0.95mm_HandSolder" H 6750 3000 50  0001 C CNN
F 3 "~" H 6750 3000 50  0001 C CNN
	1    6750 3000
	1    0    0    -1  
$EndComp
$Comp
L Main_Control_Board-rescue:GND #PWR065
U 1 1 5C005366
P 6450 3250
F 0 "#PWR065" H 6450 3000 50  0001 C CNN
F 1 "GND" H 6450 3100 50  0000 C CNN
F 2 "" H 6450 3250 50  0000 C CNN
F 3 "" H 6450 3250 50  0000 C CNN
	1    6450 3250
	1    0    0    -1  
$EndComp
$Comp
L Main_Control_Board-rescue:+3.3V #PWR?
U 1 1 5C005387
P 6650 2700
AR Path="/5C005387" Ref="#PWR?"  Part="1" 
AR Path="/5755779A/5C005387" Ref="#PWR066"  Part="1" 
F 0 "#PWR066" H 6650 2550 50  0001 C CNN
F 1 "+3.3V" H 6650 2840 50  0000 C CNN
F 2 "" H 6650 2700 50  0000 C CNN
F 3 "" H 6650 2700 50  0000 C CNN
	1    6650 2700
	1    0    0    -1  
$EndComp
Text Label 6150 2100 3    60   ~ 0
VDD_IO(1.8V)
Wire Wire Line
	6000 2900 6000 2800
Wire Wire Line
	6000 2800 6150 2800
Wire Wire Line
	6250 2800 6250 2900
Wire Wire Line
	6150 2100 6150 2800
Connection ~ 6150 2800
Wire Wire Line
	6150 2800 6250 2800
Wire Wire Line
	6650 2700 6650 2800
Wire Wire Line
	6650 2800 6550 2800
Wire Wire Line
	6550 2800 6550 2900
Wire Wire Line
	6650 2800 6750 2800
Wire Wire Line
	6750 2800 6750 2900
Connection ~ 6650 2800
Wire Wire Line
	6000 3100 6000 3200
Wire Wire Line
	6000 3200 6250 3200
Wire Wire Line
	6450 3200 6450 3250
Wire Wire Line
	6250 3100 6250 3200
Connection ~ 6250 3200
Wire Wire Line
	6250 3200 6450 3200
Wire Wire Line
	6550 3100 6550 3200
Wire Wire Line
	6550 3200 6450 3200
Connection ~ 6450 3200
Wire Wire Line
	6750 3100 6750 3200
Wire Wire Line
	6750 3200 6550 3200
Connection ~ 6550 3200
$EndSCHEMATC
