EESchema Schematic File Version 4
LIBS:Main_Control_Board-cache
EELAYER 26 0
EELAYER END
$Descr A4 11693 8268
encoding utf-8
Sheet 2 5
Title "Main Sensors Board "
Date "2017-10-09"
Rev "0.3"
Comp "DROP Lab, University of Michigan"
Comment1 "Designed by Eduardo Iscar "
Comment2 ""
Comment3 ""
Comment4 ""
$EndDescr
$Comp
L Main_Control_Board-rescue:+5V #PWR013
U 1 1 570FC200
P 4300 1600
F 0 "#PWR013" H 4300 1450 50  0001 C CNN
F 1 "+5V" H 4300 1740 50  0000 C CNN
F 2 "" H 4300 1600 50  0000 C CNN
F 3 "" H 4300 1600 50  0000 C CNN
	1    4300 1600
	1    0    0    -1  
$EndComp
$Comp
L Main_Control_Board-rescue:ATMEGA328P-A IC1
U 1 1 570FC396
P 5350 2850
F 0 "IC1" H 4600 4100 50  0000 L BNN
F 1 "ATMEGA328P-A" H 5750 1450 50  0000 L BNN
F 2 "Sphere_lib_footprint:QFP_32" H 5350 2850 50  0000 C CIN
F 3 "" H 5350 2850 50  0000 C CNN
F 4 "" H 5350 2850 50  0001 C CNN "FarnellLink"
F 5 "" H 5350 2850 50  0001 C CNN "DigiKeyLink"
F 6 "556-ATMEGA328P-AU" H 5350 2850 50  0001 C CNN "MouserLink"
F 7 "U14" H 5350 2850 50  0001 C CNN "InternalName"
F 8 "" H 5350 2850 50  0001 C CNN "FarnellLink"
F 9 "" H 5350 2850 50  0001 C CNN "DigiKeyLink"
F 10 "556-ATMEGA328P-AU" H 5350 2850 50  0001 C CNN "MouserLink"
F 11 "U14" H 5350 2850 50  0001 C CNN "InternalName"
	1    5350 2850
	1    0    0    -1  
$EndComp
$Comp
L Main_Control_Board-rescue:+5V #PWR014
U 1 1 570FC6BE
P 4100 1600
F 0 "#PWR014" H 4100 1450 50  0001 C CNN
F 1 "+5V" H 4100 1740 50  0000 C CNN
F 2 "" H 4100 1600 50  0000 C CNN
F 3 "" H 4100 1600 50  0000 C CNN
	1    4100 1600
	1    0    0    -1  
$EndComp
$Comp
L Main_Control_Board-rescue:C C1
U 1 1 570FC6F8
P 4100 1850
F 0 "C1" H 4125 1950 50  0000 L CNN
F 1 "0.1uF" H 4125 1750 50  0000 L CNN
F 2 "Capacitor_SMD:C_0603_1608Metric_Pad1.05x0.95mm_HandSolder" H 4138 1700 50  0001 C CNN
F 3 "" H 4100 1850 50  0000 C CNN
F 4 "" H 4100 1850 50  0001 C CNN "FarnellLink"
F 5 "" H 4100 1850 50  0001 C CNN "DigiKeyLink"
F 6 "81-GRM39X104K50D" H 4100 1850 50  0001 C CNN "MouserLink"
F 7 "C12" H 4100 1850 50  0001 C CNN "InternalName"
F 8 "" H 4100 1850 50  0001 C CNN "FarnellLink"
F 9 "" H 4100 1850 50  0001 C CNN "DigiKeyLink"
F 10 "81-GRM39X104K50D" H 4100 1850 50  0001 C CNN "MouserLink"
F 11 "C12" H 4100 1850 50  0001 C CNN "InternalName"
	1    4100 1850
	1    0    0    -1  
$EndComp
Text Label 6650 3200 2    60   ~ 0
RESET_A
$Comp
L Main_Control_Board-rescue:CONN_02X03 P3
U 1 1 570FCE85
P 9650 4100
F 0 "P3" H 9650 4300 50  0000 C CNN
F 1 "CONN_02X03" H 9650 3900 50  0000 C CNN
F 2 "Sphere_lib_footprint:6pin_2row_0.05in_SMD" H 9650 2900 50  0001 C CNN
F 3 "" H 9650 2900 50  0000 C CNN
F 4 "" H 9650 2900 50  0001 C CNN "FarnellLink"
F 5 "" H 9650 2900 50  0001 C CNN "DigiKeyLink"
F 6 "538-90131-0763" H 9650 2900 50  0001 C CNN "MouserLink"
F 7 "J22" H 9650 2900 50  0001 C CNN "InternalName"
F 8 "" H 9650 2900 50  0001 C CNN "FarnellLink"
F 9 "" H 9650 2900 50  0001 C CNN "DigiKeyLink"
F 10 "538-90131-0763" H 9650 2900 50  0001 C CNN "MouserLink"
F 11 "J22" H 9650 2900 50  0001 C CNN "InternalName"
	1    9650 4100
	1    0    0    -1  
$EndComp
Text Label 10100 4100 2    60   ~ 0
MOSI
Text Label 9200 4100 0    60   ~ 0
SCK
Text Label 9050 4200 0    60   ~ 0
RESET_A
Text Label 9200 4000 0    60   ~ 0
MISO
$Comp
L Main_Control_Board-rescue:+5V #PWR015
U 1 1 570FD0BF
P 10100 3950
F 0 "#PWR015" H 10100 3800 50  0001 C CNN
F 1 "+5V" H 10100 4090 50  0000 C CNN
F 2 "" H 10100 3950 50  0000 C CNN
F 3 "" H 10100 3950 50  0000 C CNN
	1    10100 3950
	1    0    0    -1  
$EndComp
Text Label 6650 2150 2    60   ~ 0
MISO
Text Label 6650 2250 2    60   ~ 0
SCK
Text Label 6650 2050 2    60   ~ 0
MOSI
Text HLabel 1050 2150 0    60   Input ~ 0
SDA
Text HLabel 1050 2050 0    60   Input ~ 0
SCL
Text Label 2700 2150 2    60   ~ 0
SDA_A
Text Label 2700 2050 2    60   ~ 0
SCL_A
Text Label 6650 3000 2    60   ~ 0
SDA_A
Text Label 6650 3100 2    60   ~ 0
SCL_A
Text HLabel 1050 3950 0    60   Input ~ 0
/ARESET
Text HLabel 1050 3550 0    60   Input ~ 0
RXD
Text HLabel 1050 3750 0    60   Input ~ 0
TXD
Text Label 6650 3350 2    60   ~ 0
RXD_A
Text Label 6650 3450 2    60   ~ 0
TXD_A
$Comp
L Main_Control_Board-rescue:+5V #PWR016
U 1 1 57509642
P 2450 1800
F 0 "#PWR016" H 2450 1650 50  0001 C CNN
F 1 "+5V" H 2450 1940 50  0000 C CNN
F 2 "" H 2450 1800 50  0000 C CNN
F 3 "" H 2450 1800 50  0000 C CNN
	1    2450 1800
	1    0    0    -1  
$EndComp
$Comp
L Main_Control_Board-rescue:+3.3V #PWR017
U 1 1 575096C6
P 1100 1800
AR Path="/575096C6" Ref="#PWR017"  Part="1" 
AR Path="/57504772/575096C6" Ref="#PWR017"  Part="1" 
F 0 "#PWR017" H 1100 1650 50  0001 C CNN
F 1 "+3.3V" H 1100 1940 50  0000 C CNN
F 2 "" H 1100 1800 50  0000 C CNN
F 3 "" H 1100 1800 50  0000 C CNN
	1    1100 1800
	1    0    0    -1  
$EndComp
Text Label 2600 3950 2    60   ~ 0
RESET_A
Text Label 2600 3550 2    60   ~ 0
RXD_A
Text Label 2600 3750 2    60   ~ 0
TXD_A
$Comp
L Main_Control_Board-rescue:WS5050 D3
U 1 1 5751E5F3
P 1650 6200
F 0 "D3" H 1600 6750 60  0000 C CNN
F 1 "WS5050" H 1650 6200 60  0000 C CNN
F 2 "Sphere_lib_footprint:WS2812B" H 1650 6200 60  0001 C CNN
F 3 "" H 1650 6200 60  0000 C CNN
F 4 "" H 1650 6200 60  0001 C CNN "FarnellLink"
F 5 "" H 1650 6200 60  0001 C CNN "DigiKeyLink"
F 6 "https://www.adafruit.com/product/1655" H 1650 6200 60  0001 C CNN "MouserLink"
F 7 "D4" H 1650 6200 60  0001 C CNN "InternalName"
F 8 "" H 1650 6200 60  0001 C CNN "FarnellLink"
F 9 "" H 1650 6200 60  0001 C CNN "DigiKeyLink"
F 10 "https://www.adafruit.com/product/1655" H 1650 6200 60  0001 C CNN "MouserLink"
F 11 "D4" H 1650 6200 60  0001 C CNN "InternalName"
	1    1650 6200
	1    0    0    -1  
$EndComp
$Comp
L Main_Control_Board-rescue:WS5050 D4
U 1 1 5751F2DC
P 2950 6200
F 0 "D4" H 2900 6750 60  0000 C CNN
F 1 "WS5050" H 2950 6200 60  0000 C CNN
F 2 "Sphere_lib_footprint:WS2812B" H 2950 6200 60  0001 C CNN
F 3 "" H 2950 6200 60  0000 C CNN
F 4 "" H 2950 6200 60  0001 C CNN "FarnellLink"
F 5 "" H 2950 6200 60  0001 C CNN "DigiKeyLink"
F 6 "https://www.adafruit.com/product/1655" H 2950 6200 60  0001 C CNN "MouserLink"
F 7 "D4" H 2950 6200 60  0001 C CNN "InternalName"
F 8 "" H 2950 6200 60  0001 C CNN "FarnellLink"
F 9 "" H 2950 6200 60  0001 C CNN "DigiKeyLink"
F 10 "https://www.adafruit.com/product/1655" H 2950 6200 60  0001 C CNN "MouserLink"
F 11 "D4" H 2950 6200 60  0001 C CNN "InternalName"
	1    2950 6200
	1    0    0    -1  
$EndComp
$Comp
L Main_Control_Board-rescue:WS5050 D5
U 1 1 5751F3B3
P 4100 6200
F 0 "D5" H 4050 6750 60  0000 C CNN
F 1 "WS5050" H 4100 6200 60  0000 C CNN
F 2 "Sphere_lib_footprint:WS2812B" H 4100 6200 60  0001 C CNN
F 3 "" H 4100 6200 60  0000 C CNN
F 4 "" H 4100 6200 60  0001 C CNN "FarnellLink"
F 5 "" H 4100 6200 60  0001 C CNN "DigiKeyLink"
F 6 "https://www.adafruit.com/product/1655" H 4100 6200 60  0001 C CNN "MouserLink"
F 7 "D4" H 4100 6200 60  0001 C CNN "InternalName"
F 8 "" H 4100 6200 60  0001 C CNN "FarnellLink"
F 9 "" H 4100 6200 60  0001 C CNN "DigiKeyLink"
F 10 "https://www.adafruit.com/product/1655" H 4100 6200 60  0001 C CNN "MouserLink"
F 11 "D4" H 4100 6200 60  0001 C CNN "InternalName"
	1    4100 6200
	1    0    0    -1  
$EndComp
$Comp
L Main_Control_Board-rescue:WS5050 D7
U 1 1 5751F55E
P 6450 6200
F 0 "D7" H 6400 6750 60  0000 C CNN
F 1 "WS5050" H 6450 6200 60  0000 C CNN
F 2 "Sphere_lib_footprint:WS2812B" H 6450 6200 60  0001 C CNN
F 3 "" H 6450 6200 60  0000 C CNN
F 4 "" H 6450 6200 60  0001 C CNN "FarnellLink"
F 5 "" H 6450 6200 60  0001 C CNN "DigiKeyLink"
F 6 "https://www.adafruit.com/product/1655" H 6450 6200 60  0001 C CNN "MouserLink"
F 7 "D4" H 6450 6200 60  0001 C CNN "InternalName"
F 8 "" H 6450 6200 60  0001 C CNN "FarnellLink"
F 9 "" H 6450 6200 60  0001 C CNN "DigiKeyLink"
F 10 "https://www.adafruit.com/product/1655" H 6450 6200 60  0001 C CNN "MouserLink"
F 11 "D4" H 6450 6200 60  0001 C CNN "InternalName"
	1    6450 6200
	1    0    0    -1  
$EndComp
$Comp
L Main_Control_Board-rescue:WS5050 D8
U 1 1 5751F64E
P 7650 6200
F 0 "D8" H 7600 6750 60  0000 C CNN
F 1 "WS5050" H 7650 6200 60  0000 C CNN
F 2 "Sphere_lib_footprint:WS2812B" H 7650 6200 60  0001 C CNN
F 3 "" H 7650 6200 60  0000 C CNN
F 4 "" H 7650 6200 60  0001 C CNN "FarnellLink"
F 5 "" H 7650 6200 60  0001 C CNN "DigiKeyLink"
F 6 "https://www.adafruit.com/product/1655" H 7650 6200 60  0001 C CNN "MouserLink"
F 7 "D4" H 7650 6200 60  0001 C CNN "InternalName"
F 8 "" H 7650 6200 60  0001 C CNN "FarnellLink"
F 9 "" H 7650 6200 60  0001 C CNN "DigiKeyLink"
F 10 "https://www.adafruit.com/product/1655" H 7650 6200 60  0001 C CNN "MouserLink"
F 11 "D4" H 7650 6200 60  0001 C CNN "InternalName"
	1    7650 6200
	1    0    0    -1  
$EndComp
$Comp
L Main_Control_Board-rescue:WS5050 D11
U 1 1 5751F72F
P 8850 6200
F 0 "D11" H 8800 6750 60  0000 C CNN
F 1 "WS5050" H 8850 6200 60  0000 C CNN
F 2 "Sphere_lib_footprint:WS2812B" H 8850 6200 60  0001 C CNN
F 3 "" H 8850 6200 60  0000 C CNN
F 4 "" H 8850 6200 60  0001 C CNN "FarnellLink"
F 5 "" H 8850 6200 60  0001 C CNN "DigiKeyLink"
F 6 "https://www.adafruit.com/product/1655" H 8850 6200 60  0001 C CNN "MouserLink"
F 7 "D4" H 8850 6200 60  0001 C CNN "InternalName"
F 8 "" H 8850 6200 60  0001 C CNN "FarnellLink"
F 9 "" H 8850 6200 60  0001 C CNN "DigiKeyLink"
F 10 "https://www.adafruit.com/product/1655" H 8850 6200 60  0001 C CNN "MouserLink"
F 11 "D4" H 8850 6200 60  0001 C CNN "InternalName"
	1    8850 6200
	1    0    0    -1  
$EndComp
$Comp
L Main_Control_Board-rescue:+5V #PWR018
U 1 1 575212FC
P 950 5450
F 0 "#PWR018" H 950 5300 50  0001 C CNN
F 1 "+5V" H 950 5590 50  0000 C CNN
F 2 "" H 950 5450 50  0000 C CNN
F 3 "" H 950 5450 50  0000 C CNN
	1    950  5450
	1    0    0    -1  
$EndComp
$Comp
L Main_Control_Board-rescue:R R8
U 1 1 575371C0
P 1000 6100
F 0 "R8" V 1080 6100 50  0000 C CNN
F 1 "470" V 1000 6100 50  0000 C CNN
F 2 "Resistor_SMD:R_0603_1608Metric_Pad1.05x0.95mm_HandSolder" V 930 6100 50  0001 C CNN
F 3 "" H 1000 6100 50  0000 C CNN
F 4 "" H 1000 6100 50  0001 C CNN "FarnellLink"
F 5 "" H 1000 6100 50  0001 C CNN "DigiKeyLink"
F 6 "71-CRCW0603-499-E3" H 1000 6100 50  0001 C CNN "MouserLink"
F 7 "R11" H 1000 6100 50  0001 C CNN "InternalName"
F 8 "" H 1000 6100 50  0001 C CNN "FarnellLink"
F 9 "" H 1000 6100 50  0001 C CNN "DigiKeyLink"
F 10 "71-CRCW0603-499-E3" H 1000 6100 50  0001 C CNN "MouserLink"
F 11 "R11" H 1000 6100 50  0001 C CNN "InternalName"
	1    1000 6100
	0    1    1    0   
$EndComp
Text Label 500  6100 0    60   ~ 0
LED_DATA
$Comp
L Main_Control_Board-rescue:+5V #PWR019
U 1 1 57539224
P 2750 6900
F 0 "#PWR019" H 2750 6750 50  0001 C CNN
F 1 "+5V" H 2750 7040 50  0000 C CNN
F 2 "" H 2750 6900 50  0000 C CNN
F 3 "" H 2750 6900 50  0000 C CNN
	1    2750 6900
	1    0    0    -1  
$EndComp
$Comp
L Main_Control_Board-rescue:C C18
U 1 1 57539C26
P 1800 7250
F 0 "C18" H 1825 7350 50  0000 L CNN
F 1 "0.1uF" H 1825 7150 50  0000 L CNN
F 2 "Capacitor_SMD:C_0603_1608Metric_Pad1.05x0.95mm_HandSolder" H 1838 7100 50  0001 C CNN
F 3 "" H 1800 7250 50  0000 C CNN
F 4 "" H 1800 7250 50  0001 C CNN "FarnellLink"
F 5 "" H 1800 7250 50  0001 C CNN "DigiKeyLink"
F 6 "81-GRM39X104K50D" H 1800 7250 50  0001 C CNN "MouserLink"
F 7 "C12" H 1800 7250 50  0001 C CNN "InternalName"
F 8 "" H 1800 7250 50  0001 C CNN "FarnellLink"
F 9 "" H 1800 7250 50  0001 C CNN "DigiKeyLink"
F 10 "81-GRM39X104K50D" H 1800 7250 50  0001 C CNN "MouserLink"
F 11 "C12" H 1800 7250 50  0001 C CNN "InternalName"
	1    1800 7250
	1    0    0    -1  
$EndComp
$Comp
L Main_Control_Board-rescue:C C19
U 1 1 5753A311
P 2100 7250
F 0 "C19" H 2125 7350 50  0000 L CNN
F 1 "0.1uF" H 2125 7150 50  0000 L CNN
F 2 "Capacitor_SMD:C_0603_1608Metric_Pad1.05x0.95mm_HandSolder" H 2138 7100 50  0001 C CNN
F 3 "" H 2100 7250 50  0000 C CNN
F 4 "" H 2100 7250 50  0001 C CNN "FarnellLink"
F 5 "" H 2100 7250 50  0001 C CNN "DigiKeyLink"
F 6 "81-GRM39X104K50D" H 2100 7250 50  0001 C CNN "MouserLink"
F 7 "C12" H 2100 7250 50  0001 C CNN "InternalName"
F 8 "" H 2100 7250 50  0001 C CNN "FarnellLink"
F 9 "" H 2100 7250 50  0001 C CNN "DigiKeyLink"
F 10 "81-GRM39X104K50D" H 2100 7250 50  0001 C CNN "MouserLink"
F 11 "C12" H 2100 7250 50  0001 C CNN "InternalName"
	1    2100 7250
	1    0    0    -1  
$EndComp
$Comp
L Main_Control_Board-rescue:C C20
U 1 1 5753A3D9
P 2350 7250
F 0 "C20" H 2375 7350 50  0000 L CNN
F 1 "0.1uF" H 2375 7150 50  0000 L CNN
F 2 "Capacitor_SMD:C_0603_1608Metric_Pad1.05x0.95mm_HandSolder" H 2388 7100 50  0001 C CNN
F 3 "" H 2350 7250 50  0000 C CNN
F 4 "" H 2350 7250 50  0001 C CNN "FarnellLink"
F 5 "" H 2350 7250 50  0001 C CNN "DigiKeyLink"
F 6 "81-GRM39X104K50D" H 2350 7250 50  0001 C CNN "MouserLink"
F 7 "C12" H 2350 7250 50  0001 C CNN "InternalName"
F 8 "" H 2350 7250 50  0001 C CNN "FarnellLink"
F 9 "" H 2350 7250 50  0001 C CNN "DigiKeyLink"
F 10 "81-GRM39X104K50D" H 2350 7250 50  0001 C CNN "MouserLink"
F 11 "C12" H 2350 7250 50  0001 C CNN "InternalName"
	1    2350 7250
	1    0    0    -1  
$EndComp
$Comp
L Main_Control_Board-rescue:C C21
U 1 1 5753A4B0
P 2650 7250
F 0 "C21" H 2675 7350 50  0000 L CNN
F 1 "0.1uF" H 2675 7150 50  0000 L CNN
F 2 "Capacitor_SMD:C_0603_1608Metric_Pad1.05x0.95mm_HandSolder" H 2688 7100 50  0001 C CNN
F 3 "" H 2650 7250 50  0000 C CNN
F 4 "" H 2650 7250 50  0001 C CNN "FarnellLink"
F 5 "" H 2650 7250 50  0001 C CNN "DigiKeyLink"
F 6 "81-GRM39X104K50D" H 2650 7250 50  0001 C CNN "MouserLink"
F 7 "C12" H 2650 7250 50  0001 C CNN "InternalName"
F 8 "" H 2650 7250 50  0001 C CNN "FarnellLink"
F 9 "" H 2650 7250 50  0001 C CNN "DigiKeyLink"
F 10 "81-GRM39X104K50D" H 2650 7250 50  0001 C CNN "MouserLink"
F 11 "C12" H 2650 7250 50  0001 C CNN "InternalName"
	1    2650 7250
	1    0    0    -1  
$EndComp
$Comp
L Main_Control_Board-rescue:C C22
U 1 1 5753A57C
P 2900 7250
F 0 "C22" H 2925 7350 50  0000 L CNN
F 1 "0.1uF" H 2925 7150 50  0000 L CNN
F 2 "Capacitor_SMD:C_0603_1608Metric_Pad1.05x0.95mm_HandSolder" H 2938 7100 50  0001 C CNN
F 3 "" H 2900 7250 50  0000 C CNN
F 4 "" H 2900 7250 50  0001 C CNN "FarnellLink"
F 5 "" H 2900 7250 50  0001 C CNN "DigiKeyLink"
F 6 "81-GRM39X104K50D" H 2900 7250 50  0001 C CNN "MouserLink"
F 7 "C12" H 2900 7250 50  0001 C CNN "InternalName"
F 8 "" H 2900 7250 50  0001 C CNN "FarnellLink"
F 9 "" H 2900 7250 50  0001 C CNN "DigiKeyLink"
F 10 "81-GRM39X104K50D" H 2900 7250 50  0001 C CNN "MouserLink"
F 11 "C12" H 2900 7250 50  0001 C CNN "InternalName"
	1    2900 7250
	1    0    0    -1  
$EndComp
$Comp
L Main_Control_Board-rescue:C C23
U 1 1 5753A64B
P 3150 7250
F 0 "C23" H 3175 7350 50  0000 L CNN
F 1 "0.1uF" H 3175 7150 50  0000 L CNN
F 2 "Capacitor_SMD:C_0603_1608Metric_Pad1.05x0.95mm_HandSolder" H 3188 7100 50  0001 C CNN
F 3 "" H 3150 7250 50  0000 C CNN
F 4 "" H 3150 7250 50  0001 C CNN "FarnellLink"
F 5 "" H 3150 7250 50  0001 C CNN "DigiKeyLink"
F 6 "81-GRM39X104K50D" H 3150 7250 50  0001 C CNN "MouserLink"
F 7 "C12" H 3150 7250 50  0001 C CNN "InternalName"
F 8 "" H 3150 7250 50  0001 C CNN "FarnellLink"
F 9 "" H 3150 7250 50  0001 C CNN "DigiKeyLink"
F 10 "81-GRM39X104K50D" H 3150 7250 50  0001 C CNN "MouserLink"
F 11 "C12" H 3150 7250 50  0001 C CNN "InternalName"
	1    3150 7250
	1    0    0    -1  
$EndComp
$Comp
L Main_Control_Board-rescue:C C24
U 1 1 5753B347
P 3400 7250
F 0 "C24" H 3425 7350 50  0000 L CNN
F 1 "0.1uF" H 3425 7150 50  0000 L CNN
F 2 "Capacitor_SMD:C_0603_1608Metric_Pad1.05x0.95mm_HandSolder" H 3438 7100 50  0001 C CNN
F 3 "" H 3400 7250 50  0000 C CNN
F 4 "" H 3400 7250 50  0001 C CNN "FarnellLink"
F 5 "" H 3400 7250 50  0001 C CNN "DigiKeyLink"
F 6 "81-GRM39X104K50D" H 3400 7250 50  0001 C CNN "MouserLink"
F 7 "C12" H 3400 7250 50  0001 C CNN "InternalName"
F 8 "" H 3400 7250 50  0001 C CNN "FarnellLink"
F 9 "" H 3400 7250 50  0001 C CNN "DigiKeyLink"
F 10 "81-GRM39X104K50D" H 3400 7250 50  0001 C CNN "MouserLink"
F 11 "C12" H 3400 7250 50  0001 C CNN "InternalName"
	1    3400 7250
	1    0    0    -1  
$EndComp
$Comp
L Main_Control_Board-rescue:C C25
U 1 1 5753B422
P 3650 7250
F 0 "C25" H 3675 7350 50  0000 L CNN
F 1 "0.1uF" H 3675 7150 50  0000 L CNN
F 2 "Capacitor_SMD:C_0603_1608Metric_Pad1.05x0.95mm_HandSolder" H 3688 7100 50  0001 C CNN
F 3 "" H 3650 7250 50  0000 C CNN
F 4 "" H 3650 7250 50  0001 C CNN "FarnellLink"
F 5 "" H 3650 7250 50  0001 C CNN "DigiKeyLink"
F 6 "81-GRM39X104K50D" H 3650 7250 50  0001 C CNN "MouserLink"
F 7 "C12" H 3650 7250 50  0001 C CNN "InternalName"
F 8 "" H 3650 7250 50  0001 C CNN "FarnellLink"
F 9 "" H 3650 7250 50  0001 C CNN "DigiKeyLink"
F 10 "81-GRM39X104K50D" H 3650 7250 50  0001 C CNN "MouserLink"
F 11 "C12" H 3650 7250 50  0001 C CNN "InternalName"
	1    3650 7250
	1    0    0    -1  
$EndComp
Text Notes 4500 7650 2    60   ~ 0
Place one cap close to each LED 
Text Label 6850 3950 2    60   ~ 0
LED_DATA
Text Label 6650 3650 2    60   ~ 0
LED1
$Comp
L Main_Control_Board-rescue:LED-RESCUE-Main_Control_Board D9
U 1 1 575FE795
P 9450 1800
AR Path="/575FE795" Ref="D9"  Part="1" 
AR Path="/57504772/575FE795" Ref="D9"  Part="1" 
F 0 "D9" H 9450 1900 50  0000 C CNN
F 1 "GREEN" H 9450 1700 50  0000 C CNN
F 2 "LED_SMD:LED_0603_1608Metric_Pad1.05x0.95mm_HandSolder" H 9450 1800 50  0001 C CNN
F 3 "" H 9450 1800 50  0000 C CNN
F 4 "" H 9450 1800 50  0001 C CNN "FarnellLink"
F 5 "" H 9450 1800 50  0001 C CNN "DigiKeyLink"
F 6 "593-VAOL-S6GT4" H 9450 1800 50  0001 C CNN "MouserLink"
F 7 "D1" H 9450 1800 50  0001 C CNN "InternalName"
F 8 "" H 9450 1800 50  0001 C CNN "FarnellLink"
F 9 "" H 9450 1800 50  0001 C CNN "DigiKeyLink"
F 10 "593-VAOL-S6GT4" H 9450 1800 50  0001 C CNN "MouserLink"
F 11 "D1" H 9450 1800 50  0001 C CNN "InternalName"
	1    9450 1800
	0    -1   -1   0   
$EndComp
$Comp
L Main_Control_Board-rescue:R R9
U 1 1 575FE969
P 9450 2200
F 0 "R9" V 9530 2200 50  0000 C CNN
F 1 "470" V 9450 2200 50  0000 C CNN
F 2 "Resistor_SMD:R_0603_1608Metric_Pad1.05x0.95mm_HandSolder" V 9380 2200 50  0001 C CNN
F 3 "" H 9450 2200 50  0000 C CNN
F 4 "" H 9450 2200 50  0001 C CNN "FarnellLink"
F 5 "" H 9450 2200 50  0001 C CNN "DigiKeyLink"
F 6 "755-ESR03EZPF4700" H 9450 2200 50  0001 C CNN "MouserLink"
F 7 "R9" H 9450 2200 50  0001 C CNN "InternalName"
F 8 "" H 9450 2200 50  0001 C CNN "FarnellLink"
F 9 "" H 9450 2200 50  0001 C CNN "DigiKeyLink"
F 10 "755-ESR03EZPF4700" H 9450 2200 50  0001 C CNN "MouserLink"
F 11 "R9" H 9450 2200 50  0001 C CNN "InternalName"
	1    9450 2200
	1    0    0    -1  
$EndComp
$Comp
L Main_Control_Board-rescue:GND #PWR020
U 1 1 575FEFD0
P 9450 2450
F 0 "#PWR020" H 9450 2200 50  0001 C CNN
F 1 "GND" H 9450 2300 50  0000 C CNN
F 2 "" H 9450 2450 50  0000 C CNN
F 3 "" H 9450 2450 50  0000 C CNN
	1    9450 2450
	1    0    0    -1  
$EndComp
Connection ~ 5950 5550
Wire Wire Line
	5900 6100 6050 6100
Wire Wire Line
	5900 5800 5900 6100
Wire Wire Line
	5750 5800 5900 5800
Wire Wire Line
	6050 5800 5950 5800
Connection ~ 4850 5550
Connection ~ 3650 5550
Wire Wire Line
	4850 5800 4900 5800
Connection ~ 2500 5550
Wire Wire Line
	3650 5800 3700 5800
Connection ~ 1150 5550
Wire Wire Line
	2500 5800 2550 5800
Wire Wire Line
	950  5550 950  5450
Wire Wire Line
	950  5550 1150 5550
Wire Wire Line
	6350 3350 6650 3350
Wire Wire Line
	6350 3450 6650 3450
Wire Wire Line
	6650 3100 6350 3100
Wire Wire Line
	6650 3000 6350 3000
Wire Wire Line
	6350 3200 6650 3200
Wire Wire Line
	6350 2050 6650 2050
Wire Wire Line
	6350 2150 6650 2150
Wire Wire Line
	6350 2250 6650 2250
Wire Wire Line
	10100 4000 10100 3950
Wire Wire Line
	10100 4200 10100 4250
Wire Wire Line
	9050 4200 9400 4200
Wire Wire Line
	9400 4100 9200 4100
Wire Wire Line
	9400 4000 9200 4000
Wire Wire Line
	9900 4200 10100 4200
Wire Wire Line
	9900 4100 10100 4100
Wire Wire Line
	9900 4000 10100 4000
Connection ~ 4250 3950
Wire Wire Line
	4450 3850 4250 3850
Wire Wire Line
	4100 2000 4100 2100
Wire Wire Line
	4100 1600 4100 1700
Connection ~ 4300 1850
Wire Wire Line
	4300 2050 4450 2050
Connection ~ 4300 1750
Wire Wire Line
	4300 1850 4450 1850
Wire Wire Line
	4300 1750 4450 1750
Wire Wire Line
	4300 1600 4300 1750
Connection ~ 4250 4050
Wire Wire Line
	4450 4050 4250 4050
Wire Wire Line
	4250 3850 4250 3950
Wire Wire Line
	4450 3950 4250 3950
Wire Wire Line
	7250 5800 7150 5800
Connection ~ 7150 5550
Wire Wire Line
	8450 5800 8400 5800
Wire Wire Line
	8100 5800 8350 5800
Wire Wire Line
	8350 5800 8350 6100
Wire Wire Line
	8350 6100 8450 6100
Connection ~ 8400 5550
Wire Wire Line
	9500 5800 9450 5800
Wire Wire Line
	9300 5800 9400 5800
Wire Wire Line
	9400 5800 9400 6100
Wire Wire Line
	9400 6100 9500 6100
Wire Wire Line
	1100 6350 2150 6350
Wire Wire Line
	10400 6350 10400 6100
Wire Wire Line
	10400 6100 10350 6100
Wire Wire Line
	9300 6100 9350 6100
Wire Wire Line
	9350 6100 9350 6350
Connection ~ 9350 6350
Wire Wire Line
	8100 6100 8150 6100
Wire Wire Line
	8150 6100 8150 6350
Connection ~ 8150 6350
Wire Wire Line
	6900 6100 6950 6100
Wire Wire Line
	6950 6100 6950 6350
Connection ~ 6950 6350
Wire Wire Line
	5750 6100 5800 6100
Wire Wire Line
	5800 6100 5800 6350
Connection ~ 5800 6350
Wire Wire Line
	4550 6100 4600 6100
Wire Wire Line
	4600 6100 4600 6350
Connection ~ 4600 6350
Wire Wire Line
	3400 6100 3450 6100
Wire Wire Line
	3450 6100 3450 6350
Connection ~ 3450 6350
Wire Wire Line
	2100 6100 2150 6100
Wire Wire Line
	2150 6100 2150 6350
Connection ~ 2150 6350
Wire Wire Line
	2100 5800 2300 5800
Wire Wire Line
	2300 5800 2300 6100
Wire Wire Line
	2300 6100 2550 6100
Wire Wire Line
	3400 5800 3550 5800
Wire Wire Line
	3550 5800 3550 6100
Wire Wire Line
	3550 6100 3700 6100
Wire Wire Line
	4550 5800 4700 5800
Wire Wire Line
	4700 5800 4700 6100
Wire Wire Line
	4700 6100 4900 6100
Wire Wire Line
	6900 5800 7050 5800
Wire Wire Line
	7050 5800 7050 6100
Wire Wire Line
	7050 6100 7250 6100
Wire Wire Line
	1150 6100 1250 6100
Wire Wire Line
	1800 7100 1800 7050
Wire Wire Line
	1800 7050 2100 7050
Wire Wire Line
	2750 7050 2750 6900
Wire Wire Line
	3650 7050 3650 7100
Connection ~ 2750 7050
Wire Wire Line
	3400 7100 3400 7050
Connection ~ 3400 7050
Wire Wire Line
	3150 7100 3150 7050
Connection ~ 3150 7050
Wire Wire Line
	2900 7100 2900 7050
Connection ~ 2900 7050
Wire Wire Line
	2650 7100 2650 7050
Connection ~ 2650 7050
Wire Wire Line
	2350 7100 2350 7050
Connection ~ 2350 7050
Wire Wire Line
	2100 7100 2100 7050
Connection ~ 2100 7050
Wire Wire Line
	1800 7400 1800 7500
Wire Wire Line
	1800 7500 2100 7500
Wire Wire Line
	2750 7500 2750 7550
Wire Wire Line
	3650 7500 3650 7400
Connection ~ 2750 7500
Wire Wire Line
	3400 7400 3400 7500
Connection ~ 3400 7500
Wire Wire Line
	3150 7400 3150 7500
Connection ~ 3150 7500
Wire Wire Line
	2900 7400 2900 7500
Connection ~ 2900 7500
Wire Wire Line
	2650 7400 2650 7500
Connection ~ 2650 7500
Wire Wire Line
	2350 7400 2350 7500
Connection ~ 2350 7500
Wire Wire Line
	2100 7400 2100 7500
Connection ~ 2100 7500
Wire Wire Line
	6350 3950 6850 3950
Wire Wire Line
	6350 3650 6650 3650
Wire Wire Line
	9450 2000 9450 2050
Wire Wire Line
	9450 1600 9450 1400
Text Label 9450 1400 3    60   ~ 0
LED1
$Comp
L Main_Control_Board-rescue:WS5050 D6
U 1 1 5751F483
P 5300 6200
F 0 "D6" H 5250 6750 60  0000 C CNN
F 1 "WS5050" H 5300 6200 60  0000 C CNN
F 2 "Sphere_lib_footprint:WS2812B" H 5300 6200 60  0001 C CNN
F 3 "" H 5300 6200 60  0000 C CNN
F 4 "" H 5300 6200 60  0001 C CNN "FarnellLink"
F 5 "" H 5300 6200 60  0001 C CNN "DigiKeyLink"
F 6 "https://www.adafruit.com/product/1655" H 5300 6200 60  0001 C CNN "MouserLink"
F 7 "D4" H 5300 6200 60  0001 C CNN "InternalName"
F 8 "" H 5300 6200 60  0001 C CNN "FarnellLink"
F 9 "" H 5300 6200 60  0001 C CNN "DigiKeyLink"
F 10 "https://www.adafruit.com/product/1655" H 5300 6200 60  0001 C CNN "MouserLink"
F 11 "D4" H 5300 6200 60  0001 C CNN "InternalName"
	1    5300 6200
	1    0    0    -1  
$EndComp
$Comp
L Main_Control_Board-rescue:WS5050 D12
U 1 1 5751F809
P 9900 6200
F 0 "D12" H 9850 6750 60  0000 C CNN
F 1 "WS5050" H 9900 6200 60  0000 C CNN
F 2 "Sphere_lib_footprint:WS2812B" H 9900 6200 60  0001 C CNN
F 3 "" H 9900 6200 60  0000 C CNN
F 4 "" H 9900 6200 60  0001 C CNN "FarnellLink"
F 5 "" H 9900 6200 60  0001 C CNN "DigiKeyLink"
F 6 "https://www.adafruit.com/product/1655" H 9900 6200 60  0001 C CNN "MouserLink"
F 7 "D4" H 9900 6200 60  0001 C CNN "InternalName"
F 8 "" H 9900 6200 60  0001 C CNN "FarnellLink"
F 9 "" H 9900 6200 60  0001 C CNN "DigiKeyLink"
F 10 "https://www.adafruit.com/product/1655" H 9900 6200 60  0001 C CNN "MouserLink"
F 11 "D4" H 9900 6200 60  0001 C CNN "InternalName"
	1    9900 6200
	1    0    0    -1  
$EndComp
Wire Wire Line
	9450 5800 9450 5550
Wire Wire Line
	8400 5800 8400 5550
Wire Wire Line
	7150 5800 7150 5550
Wire Wire Line
	5950 5800 5950 5550
Wire Wire Line
	4850 5550 4850 5800
Wire Wire Line
	3650 5550 3650 5800
Wire Wire Line
	2500 5550 2500 5800
Wire Wire Line
	1250 5800 1150 5800
Wire Wire Line
	1150 5800 1150 5550
NoConn ~ 6350 2900
NoConn ~ 6350 2800
NoConn ~ 6350 2700
NoConn ~ 6350 2600
NoConn ~ 6350 1950
NoConn ~ 6350 1850
NoConn ~ 6350 1750
NoConn ~ 4450 3100
NoConn ~ 4450 3200
NoConn ~ 4450 2350
NoConn ~ 6350 3750
NoConn ~ 6350 3850
NoConn ~ 6350 4050
NoConn ~ 10350 5800
$Comp
L Main_Control_Board-rescue:GND #PWR021
U 1 1 58272195
P 4250 4200
F 0 "#PWR021" H 4250 3950 50  0001 C CNN
F 1 "GND" H 4250 4050 50  0000 C CNN
F 2 "" H 4250 4200 50  0000 C CNN
F 3 "" H 4250 4200 50  0000 C CNN
	1    4250 4200
	1    0    0    -1  
$EndComp
$Comp
L Main_Control_Board-rescue:GND #PWR022
U 1 1 582724AA
P 2750 7550
F 0 "#PWR022" H 2750 7300 50  0001 C CNN
F 1 "GND" H 2750 7400 50  0000 C CNN
F 2 "" H 2750 7550 50  0000 C CNN
F 3 "" H 2750 7550 50  0000 C CNN
	1    2750 7550
	1    0    0    -1  
$EndComp
$Comp
L Main_Control_Board-rescue:GND #PWR023
U 1 1 58273940
P 1100 6350
F 0 "#PWR023" H 1100 6100 50  0001 C CNN
F 1 "GND" H 1100 6200 50  0000 C CNN
F 2 "" H 1100 6350 50  0000 C CNN
F 3 "" H 1100 6350 50  0000 C CNN
	1    1100 6350
	1    0    0    -1  
$EndComp
$Comp
L Main_Control_Board-rescue:GND #PWR025
U 1 1 58274F0D
P 10100 4250
F 0 "#PWR025" H 10100 4000 50  0001 C CNN
F 1 "GND" H 10100 4100 50  0000 C CNN
F 2 "" H 10100 4250 50  0000 C CNN
F 3 "" H 10100 4250 50  0000 C CNN
	1    10100 4250
	1    0    0    -1  
$EndComp
$Comp
L Main_Control_Board-rescue:GND #PWR026
U 1 1 58541CC4
P 4100 2100
F 0 "#PWR026" H 4100 1850 50  0001 C CNN
F 1 "GND" H 4100 1950 50  0000 C CNN
F 2 "" H 4100 2100 50  0000 C CNN
F 3 "" H 4100 2100 50  0000 C CNN
	1    4100 2100
	1    0    0    -1  
$EndComp
Text Notes 800  1250 0    118  ~ 0
Level Shifters: 5V to 3.3V
Text Notes 4350 1250 0    118  ~ 0
uController
Wire Notes Line
	500  4800 11200 4800
Text Notes 650  5100 0    118  ~ 0
RGB Leds
Wire Notes Line
	8200 3050 11200 3050
Text Notes 8300 3300 0    118  ~ 0
ISP Programming Conn
Text Notes 8300 1200 0    118  ~ 0
Heartbeat LED
Wire Notes Line
	500  1000 11200 1000
Wire Notes Line
	3950 1000 3950 4800
Wire Notes Line
	8150 4800 8150 1000
Text Notes 750  800  0    197  ~ 0
User Interface Module
Wire Wire Line
	5950 5550 7150 5550
Wire Wire Line
	4850 5550 5950 5550
Wire Wire Line
	3650 5550 4850 5550
Wire Wire Line
	2500 5550 3650 5550
Wire Wire Line
	1150 5550 2500 5550
Wire Wire Line
	4250 3950 4250 4050
Wire Wire Line
	4300 1850 4300 2050
Wire Wire Line
	4300 1750 4300 1850
Wire Wire Line
	4250 4050 4250 4200
Wire Wire Line
	7150 5550 8400 5550
Wire Wire Line
	8400 5550 9450 5550
Wire Wire Line
	9350 6350 10400 6350
Wire Wire Line
	8150 6350 9350 6350
Wire Wire Line
	6950 6350 8150 6350
Wire Wire Line
	5800 6350 6950 6350
Wire Wire Line
	4600 6350 5800 6350
Wire Wire Line
	3450 6350 4600 6350
Wire Wire Line
	2150 6350 3450 6350
Wire Wire Line
	2750 7050 2900 7050
Wire Wire Line
	3400 7050 3650 7050
Wire Wire Line
	3150 7050 3400 7050
Wire Wire Line
	2900 7050 3150 7050
Wire Wire Line
	2650 7050 2750 7050
Wire Wire Line
	2350 7050 2650 7050
Wire Wire Line
	2100 7050 2350 7050
Wire Wire Line
	2750 7500 2900 7500
Wire Wire Line
	3400 7500 3650 7500
Wire Wire Line
	3150 7500 3400 7500
Wire Wire Line
	2900 7500 3150 7500
Wire Wire Line
	2650 7500 2750 7500
Wire Wire Line
	2350 7500 2650 7500
Wire Wire Line
	2100 7500 2350 7500
$Comp
L Logic_LevelTranslator:TXB0104PW U7
U 1 1 5BBDC2F0
P 1750 3850
F 0 "U7" H 1750 3064 50  0000 C CNN
F 1 "TXB0104PW" H 1750 2973 50  0000 C CNN
F 2 "Package_SO:TSSOP-14_4.4x5mm_P0.65mm" H 1750 3100 50  0001 C CNN
F 3 "http://www.ti.com/lit/ds/symlink/txb0104.pdf" H 1860 3945 50  0001 C CNN
	1    1750 3850
	1    0    0    -1  
$EndComp
Wire Wire Line
	2600 3550 2150 3550
Wire Wire Line
	2150 3750 2600 3750
Wire Wire Line
	2600 3950 2150 3950
Wire Wire Line
	1050 3950 1350 3950
Wire Wire Line
	1050 3750 1350 3750
Wire Wire Line
	1350 3550 1050 3550
$Comp
L Main_Control_Board-rescue:+5V #PWR054
U 1 1 5BC241F1
P 1850 3100
F 0 "#PWR054" H 1850 2950 50  0001 C CNN
F 1 "+5V" H 1850 3240 50  0000 C CNN
F 2 "" H 1850 3100 50  0000 C CNN
F 3 "" H 1850 3100 50  0000 C CNN
	1    1850 3100
	1    0    0    -1  
$EndComp
$Comp
L Main_Control_Board-rescue:+3.3V #PWR?
U 1 1 5BC24288
P 1650 3100
AR Path="/5BC24288" Ref="#PWR?"  Part="1" 
AR Path="/57504772/5BC24288" Ref="#PWR011"  Part="1" 
F 0 "#PWR011" H 1650 2950 50  0001 C CNN
F 1 "+3.3V" H 1650 3240 50  0000 C CNN
F 2 "" H 1650 3100 50  0000 C CNN
F 3 "" H 1650 3100 50  0000 C CNN
	1    1650 3100
	1    0    0    -1  
$EndComp
Wire Wire Line
	1650 3100 1650 3150
Wire Wire Line
	1850 3100 1850 3150
$Comp
L Main_Control_Board-rescue:GND #PWR055
U 1 1 5BC37261
P 2000 4550
F 0 "#PWR055" H 2000 4300 50  0001 C CNN
F 1 "GND" H 2000 4400 50  0000 C CNN
F 2 "" H 2000 4550 50  0000 C CNN
F 3 "" H 2000 4550 50  0000 C CNN
	1    2000 4550
	1    0    0    -1  
$EndComp
Wire Wire Line
	1750 4550 2000 4550
Wire Wire Line
	500  6100 850  6100
Wire Wire Line
	9450 2350 9450 2450
$Comp
L Sphere_lib:TCA9406 U10
U 1 1 5BDC7D67
P 1750 2050
F 0 "U10" H 1750 2397 60  0000 C CNN
F 1 "TCA9406" H 1750 2291 60  0000 C CNN
F 2 "Package_SO:TSSOP-8_3x3mm_P0.65mm" H 1750 2050 60  0001 C CNN
F 3 "" H 1750 2050 60  0001 C CNN
	1    1750 2050
	1    0    0    -1  
$EndComp
Wire Wire Line
	1050 2050 1250 2050
Wire Wire Line
	1050 2150 1250 2150
Wire Wire Line
	1100 1800 1100 1950
Wire Wire Line
	1100 1950 1250 1950
Wire Wire Line
	2250 2050 2700 2050
Wire Wire Line
	2250 2150 2700 2150
Wire Wire Line
	2250 1950 2450 1950
Wire Wire Line
	2450 1950 2450 1800
$Comp
L Main_Control_Board-rescue:GND #PWR059
U 1 1 5BDFECD6
P 1200 2350
F 0 "#PWR059" H 1200 2100 50  0001 C CNN
F 1 "GND" H 1200 2200 50  0000 C CNN
F 2 "" H 1200 2350 50  0000 C CNN
F 3 "" H 1200 2350 50  0000 C CNN
	1    1200 2350
	1    0    0    -1  
$EndComp
Wire Wire Line
	1250 2250 1200 2250
Wire Wire Line
	1200 2250 1200 2350
$Comp
L Main_Control_Board-rescue:R R1
U 1 1 5BE08C46
P 3350 4150
F 0 "R1" V 3430 4150 50  0000 C CNN
F 1 "3k" V 3350 4150 50  0000 C CNN
F 2 "Resistor_SMD:R_0603_1608Metric_Pad1.05x0.95mm_HandSolder" V 3280 4150 50  0001 C CNN
F 3 "" H 3350 4150 50  0000 C CNN
F 4 "" H 3350 4150 50  0001 C CNN "FarnellLink"
F 5 "" H 3350 4150 50  0001 C CNN "DigiKeyLink"
F 6 "755-ESR03EZPF4700" H 3350 4150 50  0001 C CNN "MouserLink"
F 7 "R9" H 3350 4150 50  0001 C CNN "InternalName"
F 8 "" H 3350 4150 50  0001 C CNN "FarnellLink"
F 9 "" H 3350 4150 50  0001 C CNN "DigiKeyLink"
F 10 "755-ESR03EZPF4700" H 3350 4150 50  0001 C CNN "MouserLink"
F 11 "R9" H 3350 4150 50  0001 C CNN "InternalName"
	1    3350 4150
	1    0    0    1   
$EndComp
$Comp
L Main_Control_Board-rescue:GND #PWR060
U 1 1 5BE08D4C
P 3350 4350
F 0 "#PWR060" H 3350 4100 50  0001 C CNN
F 1 "GND" H 3350 4200 50  0000 C CNN
F 2 "" H 3350 4350 50  0000 C CNN
F 3 "" H 3350 4350 50  0000 C CNN
	1    3350 4350
	1    0    0    -1  
$EndComp
Text Label 2950 2250 2    60   ~ 0
OE
Text Label 3650 3950 2    60   ~ 0
OE
Text Label 1150 3350 0    60   ~ 0
OE
Wire Wire Line
	1150 3350 1350 3350
Wire Wire Line
	3350 3950 3650 3950
$Comp
L Main_Control_Board-rescue:R R11
U 1 1 5BF748B6
P 3350 3750
F 0 "R11" V 3430 3750 50  0000 C CNN
F 1 "2k" V 3350 3750 50  0000 C CNN
F 2 "Resistor_SMD:R_0603_1608Metric_Pad1.05x0.95mm_HandSolder" V 3280 3750 50  0001 C CNN
F 3 "" H 3350 3750 50  0000 C CNN
F 4 "" H 3350 3750 50  0001 C CNN "FarnellLink"
F 5 "" H 3350 3750 50  0001 C CNN "DigiKeyLink"
F 6 "755-ESR03EZPF4700" H 3350 3750 50  0001 C CNN "MouserLink"
F 7 "R9" H 3350 3750 50  0001 C CNN "InternalName"
F 8 "" H 3350 3750 50  0001 C CNN "FarnellLink"
F 9 "" H 3350 3750 50  0001 C CNN "DigiKeyLink"
F 10 "755-ESR03EZPF4700" H 3350 3750 50  0001 C CNN "MouserLink"
F 11 "R9" H 3350 3750 50  0001 C CNN "InternalName"
	1    3350 3750
	1    0    0    1   
$EndComp
Wire Wire Line
	3350 3900 3350 3950
Connection ~ 3350 3950
Wire Wire Line
	3350 3950 3350 4000
Wire Wire Line
	3350 4300 3350 4350
Wire Wire Line
	2250 2250 2950 2250
$Comp
L Main_Control_Board-rescue:C C32
U 1 1 5BF98F62
P 2850 2850
F 0 "C32" H 2875 2950 50  0000 L CNN
F 1 "0.1uF" H 2875 2750 50  0000 L CNN
F 2 "Capacitor_SMD:C_0603_1608Metric_Pad1.05x0.95mm_HandSolder" H 2888 2700 50  0001 C CNN
F 3 "" H 2850 2850 50  0000 C CNN
F 4 "" H 2850 2850 50  0001 C CNN "FarnellLink"
F 5 "" H 2850 2850 50  0001 C CNN "DigiKeyLink"
F 6 "81-GRM39C220F50" H 2850 2850 50  0001 C CNN "MouserLink"
F 7 "C10" H 2850 2850 50  0001 C CNN "InternalName"
F 8 "" H 2850 2850 50  0001 C CNN "FarnellLink"
F 9 "" H 2850 2850 50  0001 C CNN "DigiKeyLink"
F 10 "81-GRM39C220F50" H 2850 2850 50  0001 C CNN "MouserLink"
F 11 "C10" H 2850 2850 50  0001 C CNN "InternalName"
	1    2850 2850
	-1   0    0    1   
$EndComp
$Comp
L Main_Control_Board-rescue:C C33
U 1 1 5BF992EE
P 3100 2850
F 0 "C33" H 3125 2950 50  0000 L CNN
F 1 "0.1uF" H 3125 2750 50  0000 L CNN
F 2 "Capacitor_SMD:C_0603_1608Metric_Pad1.05x0.95mm_HandSolder" H 3138 2700 50  0001 C CNN
F 3 "" H 3100 2850 50  0000 C CNN
F 4 "" H 3100 2850 50  0001 C CNN "FarnellLink"
F 5 "" H 3100 2850 50  0001 C CNN "DigiKeyLink"
F 6 "81-GRM39C220F50" H 3100 2850 50  0001 C CNN "MouserLink"
F 7 "C10" H 3100 2850 50  0001 C CNN "InternalName"
F 8 "" H 3100 2850 50  0001 C CNN "FarnellLink"
F 9 "" H 3100 2850 50  0001 C CNN "DigiKeyLink"
F 10 "81-GRM39C220F50" H 3100 2850 50  0001 C CNN "MouserLink"
F 11 "C10" H 3100 2850 50  0001 C CNN "InternalName"
	1    3100 2850
	-1   0    0    1   
$EndComp
$Comp
L Main_Control_Board-rescue:C C34
U 1 1 5BF99352
P 3350 2850
F 0 "C34" H 3375 2950 50  0000 L CNN
F 1 "0.1uF" H 3375 2750 50  0000 L CNN
F 2 "Capacitor_SMD:C_0603_1608Metric_Pad1.05x0.95mm_HandSolder" H 3388 2700 50  0001 C CNN
F 3 "" H 3350 2850 50  0000 C CNN
F 4 "" H 3350 2850 50  0001 C CNN "FarnellLink"
F 5 "" H 3350 2850 50  0001 C CNN "DigiKeyLink"
F 6 "81-GRM39C220F50" H 3350 2850 50  0001 C CNN "MouserLink"
F 7 "C10" H 3350 2850 50  0001 C CNN "InternalName"
F 8 "" H 3350 2850 50  0001 C CNN "FarnellLink"
F 9 "" H 3350 2850 50  0001 C CNN "DigiKeyLink"
F 10 "81-GRM39C220F50" H 3350 2850 50  0001 C CNN "MouserLink"
F 11 "C10" H 3350 2850 50  0001 C CNN "InternalName"
	1    3350 2850
	-1   0    0    1   
$EndComp
$Comp
L Main_Control_Board-rescue:C C35
U 1 1 5BF993B8
P 3650 2850
F 0 "C35" H 3675 2950 50  0000 L CNN
F 1 "0.1uF" H 3675 2750 50  0000 L CNN
F 2 "Capacitor_SMD:C_0603_1608Metric_Pad1.05x0.95mm_HandSolder" H 3688 2700 50  0001 C CNN
F 3 "" H 3650 2850 50  0000 C CNN
F 4 "" H 3650 2850 50  0001 C CNN "FarnellLink"
F 5 "" H 3650 2850 50  0001 C CNN "DigiKeyLink"
F 6 "81-GRM39C220F50" H 3650 2850 50  0001 C CNN "MouserLink"
F 7 "C10" H 3650 2850 50  0001 C CNN "InternalName"
F 8 "" H 3650 2850 50  0001 C CNN "FarnellLink"
F 9 "" H 3650 2850 50  0001 C CNN "DigiKeyLink"
F 10 "81-GRM39C220F50" H 3650 2850 50  0001 C CNN "MouserLink"
F 11 "C10" H 3650 2850 50  0001 C CNN "InternalName"
	1    3650 2850
	-1   0    0    1   
$EndComp
$Comp
L Main_Control_Board-rescue:+5V #PWR064
U 1 1 5BF9943B
P 3500 2500
F 0 "#PWR064" H 3500 2350 50  0001 C CNN
F 1 "+5V" H 3500 2640 50  0000 C CNN
F 2 "" H 3500 2500 50  0000 C CNN
F 3 "" H 3500 2500 50  0000 C CNN
	1    3500 2500
	1    0    0    -1  
$EndComp
$Comp
L Main_Control_Board-rescue:+3.3V #PWR?
U 1 1 5BF99488
P 2950 2550
AR Path="/5BF99488" Ref="#PWR?"  Part="1" 
AR Path="/57504772/5BF99488" Ref="#PWR062"  Part="1" 
F 0 "#PWR062" H 2950 2400 50  0001 C CNN
F 1 "+3.3V" H 2950 2690 50  0000 C CNN
F 2 "" H 2950 2550 50  0000 C CNN
F 3 "" H 2950 2550 50  0000 C CNN
	1    2950 2550
	1    0    0    -1  
$EndComp
Wire Wire Line
	2950 2550 2950 2650
Wire Wire Line
	2950 2650 2850 2650
Wire Wire Line
	2850 2650 2850 2700
Wire Wire Line
	2950 2650 3100 2650
Wire Wire Line
	3100 2650 3100 2700
Connection ~ 2950 2650
Wire Wire Line
	3350 2700 3350 2650
Wire Wire Line
	3350 2650 3500 2650
Wire Wire Line
	3500 2650 3500 2500
Wire Wire Line
	3500 2650 3650 2650
Wire Wire Line
	3650 2650 3650 2700
Connection ~ 3500 2650
$Comp
L Main_Control_Board-rescue:GND #PWR063
U 1 1 5BFC6A4F
P 3250 3100
F 0 "#PWR063" H 3250 2850 50  0001 C CNN
F 1 "GND" H 3250 2950 50  0000 C CNN
F 2 "" H 3250 3100 50  0000 C CNN
F 3 "" H 3250 3100 50  0000 C CNN
	1    3250 3100
	1    0    0    -1  
$EndComp
Wire Wire Line
	2850 3000 2850 3050
Wire Wire Line
	2850 3050 3100 3050
Wire Wire Line
	3250 3050 3250 3100
Wire Wire Line
	3250 3050 3350 3050
Wire Wire Line
	3350 3050 3350 3000
Connection ~ 3250 3050
Wire Wire Line
	3350 3050 3650 3050
Wire Wire Line
	3650 3050 3650 3000
Connection ~ 3350 3050
Wire Wire Line
	3100 3000 3100 3050
Connection ~ 3100 3050
Wire Wire Line
	3100 3050 3250 3050
NoConn ~ 6350 3550
$Comp
L Main_Control_Board-rescue:+5V #PWR0102
U 1 1 5BF3B6AF
P 3350 3600
F 0 "#PWR0102" H 3350 3450 50  0001 C CNN
F 1 "+5V" H 3350 3740 50  0000 C CNN
F 2 "" H 3350 3600 50  0000 C CNN
F 3 "" H 3350 3600 50  0000 C CNN
	1    3350 3600
	1    0    0    -1  
$EndComp
NoConn ~ 2150 4150
NoConn ~ 1350 4150
$Comp
L Main_Control_Board-rescue:R R16
U 1 1 5C015145
P 7450 2850
F 0 "R16" V 7530 2850 50  0000 C CNN
F 1 "100k" V 7450 2850 50  0000 C CNN
F 2 "Resistor_SMD:R_0603_1608Metric_Pad1.05x0.95mm_HandSolder" V 7380 2850 50  0001 C CNN
F 3 "" H 7450 2850 50  0000 C CNN
F 4 "" H 7450 2850 50  0001 C CNN "FarnellLink"
F 5 "" H 7450 2850 50  0001 C CNN "DigiKeyLink"
F 6 "755-ESR03EZPF4700" H 7450 2850 50  0001 C CNN "MouserLink"
F 7 "R9" H 7450 2850 50  0001 C CNN "InternalName"
F 8 "" H 7450 2850 50  0001 C CNN "FarnellLink"
F 9 "" H 7450 2850 50  0001 C CNN "DigiKeyLink"
F 10 "755-ESR03EZPF4700" H 7450 2850 50  0001 C CNN "MouserLink"
F 11 "R9" H 7450 2850 50  0001 C CNN "InternalName"
	1    7450 2850
	1    0    0    -1  
$EndComp
$Comp
L Main_Control_Board-rescue:+5V #PWR067
U 1 1 5C015315
P 7450 2600
F 0 "#PWR067" H 7450 2450 50  0001 C CNN
F 1 "+5V" H 7450 2740 50  0000 C CNN
F 2 "" H 7450 2600 50  0000 C CNN
F 3 "" H 7450 2600 50  0000 C CNN
	1    7450 2600
	1    0    0    -1  
$EndComp
Wire Wire Line
	7450 2600 7450 2700
Text Label 7450 3400 1    60   ~ 0
RESET_A
Wire Wire Line
	7450 3000 7450 3400
$EndSCHEMATC
