EESchema Schematic File Version 2
LIBS:Main_Control_Board-rescue
LIBS:power
LIBS:device
LIBS:transistors
LIBS:conn
LIBS:linear
LIBS:regul
LIBS:74xx
LIBS:cmos4000
LIBS:adc-dac
LIBS:memory
LIBS:xilinx
LIBS:microcontrollers
LIBS:dsp
LIBS:microchip
LIBS:analog_switches
LIBS:motorola
LIBS:texas
LIBS:intel
LIBS:audio
LIBS:interface
LIBS:digital-audio
LIBS:philips
LIBS:display
LIBS:cypress
LIBS:siliconi
LIBS:opto
LIBS:atmel
LIBS:contrib
LIBS:valves
LIBS:Sphere_lib
LIBS:Main_Control_Board-cache
EELAYER 25 0
EELAYER END
$Descr A4 11693 8268
encoding utf-8
Sheet 1 23
Title "Main Sensors Board "
Date "2017-10-09"
Rev "0.3"
Comp "DROP Lab, University of Michigan"
Comment1 "Designed by Eduardo Iscar "
Comment2 ""
Comment3 ""
Comment4 ""
$EndDescr
$Sheet
S 9900 4850 650  900 
U 57504772
F0 "UI Leds" 60
F1 "ui_leds.sch" 60
F2 "SDA" I L 9900 5050 60 
F3 "SCL" I L 9900 5150 60 
F4 "/ARESET" I L 9900 5650 60 
F5 "RXD" I L 9900 5350 60 
F6 "TXD" I L 9900 5450 60 
$EndSheet
$Comp
L GPS_EM506 U3
U 1 1 5754F6A4
P 10600 1800
F 0 "U3" H 10550 2500 60  0000 C CNN
F 1 "GPS_EM506" H 10650 1750 60  0000 C CNN
F 2 "Sphere_lib:EM506" H 10600 1800 60  0001 C CNN
F 3 "" H 10600 1800 60  0000 C CNN
F 4 "" H 10600 1800 60  0001 C CNN "FarnellLink"
F 5 "" H 10600 1800 60  0001 C CNN "DigiKeyLink"
F 6 "" H 10600 1800 60  0001 C CNN "MouserLink"
F 7 "" H 10600 1800 60  0001 C CNN "InternalName"
	1    10600 1800
	1    0    0    -1  
$EndComp
$Comp
L +3.3V #PWR01
U 1 1 5754FA4C
P 10000 1050
F 0 "#PWR01" H 10000 900 50  0001 C CNN
F 1 "+3.3V" H 10000 1190 50  0000 C CNN
F 2 "" H 10000 1050 50  0000 C CNN
F 3 "" H 10000 1050 50  0000 C CNN
	1    10000 1050
	1    0    0    -1  
$EndComp
$Comp
L GND #PWR02
U 1 1 5754FE36
P 10150 1800
F 0 "#PWR02" H 10150 1550 50  0001 C CNN
F 1 "GND" H 10150 1650 50  0000 C CNN
F 2 "" H 10150 1800 50  0000 C CNN
F 3 "" H 10150 1800 50  0000 C CNN
	1    10150 1800
	1    0    0    -1  
$EndComp
Text Label 9850 1550 0    60   ~ 0
TXD2
Text Label 9850 1450 0    60   ~ 0
RXD2
Text Label 9450 5050 0    60   ~ 0
SDA1
Text Label 9450 5150 0    60   ~ 0
SCL1
$Sheet
S 2000 1200 1350 1450
U 5755779A
F0 "odroid_conn" 60
F1 "odroid_conn.sch" 60
F2 "OD_U0_RX" I R 3350 1350 60 
F3 "OD_U0_TX" I R 3350 1450 60 
F4 "OD_U2_TX" I R 3350 1650 60 
F5 "OD_U2_RX" I R 3350 1750 60 
F6 "XE.INT14_3.3" I R 3350 1950 60 
F7 "XE.INT22_3.3" I R 3350 2050 60 
F8 "XE.INT21_3.3" I R 3350 2150 60 
F9 "XE.INT13_3.3" I L 2000 1550 60 
F10 "XE.INT10_3.3" I L 2000 1650 60 
F11 "XE.INT15_3.3" I L 2000 1750 60 
F12 "XE.INT25_3.3" I L 2000 1850 60 
F13 "Vbat" I L 2000 2350 60 
F14 "LPC_OD_PWRON" B L 2000 2500 60 
$EndSheet
$Comp
L MPA3115A U1
U 1 1 575991FA
P 7900 1850
F 0 "U1" H 7700 2450 60  0000 C CNN
F 1 "MPA3115A" H 7900 1850 60  0000 C CNN
F 2 "Sphere_lib:MPL3115" H 7900 1850 60  0001 C CNN
F 3 "" H 7900 1850 60  0000 C CNN
F 4 "" H 7900 1850 60  0001 C CNN "FarnellLink"
F 5 "" H 7900 1850 60  0001 C CNN "DigiKeyLink"
F 6 "841-MPL3115A2R1" H 7900 1850 60  0001 C CNN "MouserLink"
F 7 "U13" H 7900 1850 60  0001 C CNN "InternalName"
	1    7900 1850
	1    0    0    -1  
$EndComp
Text Label 8800 1500 2    60   ~ 0
SDA1
Text Label 8800 1400 2    60   ~ 0
SCL1
$Comp
L +3.3V #PWR03
U 1 1 575A0B4E
P 7350 1200
F 0 "#PWR03" H 7350 1050 50  0001 C CNN
F 1 "+3.3V" H 7350 1340 50  0000 C CNN
F 2 "" H 7350 1200 50  0000 C CNN
F 3 "" H 7350 1200 50  0000 C CNN
	1    7350 1200
	1    0    0    -1  
$EndComp
$Comp
L GND #PWR04
U 1 1 575A0C2B
P 7350 1800
F 0 "#PWR04" H 7350 1550 50  0001 C CNN
F 1 "GND" H 7350 1650 50  0000 C CNN
F 2 "" H 7350 1800 50  0000 C CNN
F 3 "" H 7350 1800 50  0000 C CNN
	1    7350 1800
	1    0    0    -1  
$EndComp
$Comp
L C C5
U 1 1 575A481A
P 7050 1800
F 0 "C5" H 7075 1900 50  0000 L CNN
F 1 "0.1uF" H 7075 1700 50  0000 L CNN
F 2 "Capacitors_SMD:C_0603_HandSoldering" H 7088 1650 50  0001 C CNN
F 3 "" H 7050 1800 50  0000 C CNN
F 4 "" H 7050 1800 50  0001 C CNN "FarnellLink"
F 5 "" H 7050 1800 50  0001 C CNN "DigiKeyLink"
F 6 "81-GRM39X104K50D" H 7050 1800 50  0001 C CNN "MouserLink"
F 7 "C12" H 7050 1800 50  0001 C CNN "InternalName"
	1    7050 1800
	1    0    0    -1  
$EndComp
$Comp
L GND #PWR05
U 1 1 575A5B1B
P 7050 2000
F 0 "#PWR05" H 7050 1750 50  0001 C CNN
F 1 "GND" H 7050 1850 50  0000 C CNN
F 2 "" H 7050 2000 50  0000 C CNN
F 3 "" H 7050 2000 50  0000 C CNN
	1    7050 2000
	1    0    0    -1  
$EndComp
$Comp
L HIH6131 U2
U 1 1 575AF8BB
P 8050 3500
F 0 "U2" H 7850 4100 60  0000 C CNN
F 1 "HIH6131" H 8050 3500 60  0000 C CNN
F 2 "Sphere_lib:SOIC-8(HIH6130)" H 8100 3500 60  0001 C CNN
F 3 "" H 8100 3500 60  0000 C CNN
F 4 "" H 8100 3500 60  0001 C CNN "FarnellLink"
F 5 "" H 8100 3500 60  0001 C CNN "DigiKeyLink"
F 6 "785-HIH-6131-021-001" H 8100 3500 60  0001 C CNN "MouserLink"
F 7 "U15" H 8100 3500 60  0001 C CNN "InternalName"
	1    8050 3500
	1    0    0    -1  
$EndComp
Text Label 8750 3150 2    60   ~ 0
SDA1
Text Label 8750 3050 2    60   ~ 0
SCL1
$Comp
L GND #PWR06
U 1 1 575B3943
P 7450 3550
F 0 "#PWR06" H 7450 3300 50  0001 C CNN
F 1 "GND" H 7450 3400 50  0000 C CNN
F 2 "" H 7450 3550 50  0000 C CNN
F 3 "" H 7450 3550 50  0000 C CNN
	1    7450 3550
	1    0    0    -1  
$EndComp
$Comp
L C C6
U 1 1 575B3ABB
P 7200 3300
F 0 "C6" H 7225 3400 50  0000 L CNN
F 1 "0.1uF" H 7225 3200 50  0000 L CNN
F 2 "Capacitors_SMD:C_0603_HandSoldering" H 7238 3150 50  0001 C CNN
F 3 "" H 7200 3300 50  0000 C CNN
F 4 "" H 7200 3300 50  0001 C CNN "FarnellLink"
F 5 "" H 7200 3300 50  0001 C CNN "DigiKeyLink"
F 6 "81-GRM39X104K50D" H 7200 3300 50  0001 C CNN "MouserLink"
F 7 "C12" H 7200 3300 50  0001 C CNN "InternalName"
	1    7200 3300
	1    0    0    -1  
$EndComp
$Comp
L +3.3V #PWR07
U 1 1 575B3E83
P 6950 2900
F 0 "#PWR07" H 6950 2750 50  0001 C CNN
F 1 "+3.3V" H 6950 3040 50  0000 C CNN
F 2 "" H 6950 2900 50  0000 C CNN
F 3 "" H 6950 2900 50  0000 C CNN
	1    6950 2900
	1    0    0    -1  
$EndComp
$Comp
L C C4
U 1 1 575B4006
P 6950 3300
F 0 "C4" H 6975 3400 50  0000 L CNN
F 1 "0.22uF" H 6975 3200 50  0000 L CNN
F 2 "Capacitors_SMD:C_0603_HandSoldering" H 6988 3150 50  0001 C CNN
F 3 "" H 6950 3300 50  0000 C CNN
F 4 "" H 6950 3300 50  0001 C CNN "FarnellLink"
F 5 "" H 6950 3300 50  0001 C CNN "DigiKeyLink"
F 6 "77-VJ0603Y224JXQPBC" H 6950 3300 50  0001 C CNN "MouserLink"
F 7 "C9" H 6950 3300 50  0001 C CNN "InternalName"
	1    6950 3300
	1    0    0    -1  
$EndComp
$Sheet
S 2050 3400 1300 1500
U 5756CFEA
F0 "uart_mux" 60
F1 "uart_mux.sch" 60
F2 "OD_U0_RX" I L 2050 3550 60 
F3 "OD_U0_TX" I L 2050 3650 60 
F4 "U2_RX" I R 3350 4500 60 
F5 "U3_RX" I R 3350 4150 60 
F6 "U2_TX" I R 3350 4400 60 
F7 "U3_TX" I R 3350 4250 60 
F8 "IO_SWITCH_1" I L 2050 4150 60 
F9 "IO_SWITCH_2" I L 2050 4250 60 
F10 "OD_U2_TX" I L 2050 3850 60 
F11 "OD_U2_RX" I L 2050 3950 60 
F12 "LPC_U1_TX" I R 3350 3900 60 
F13 "LPC_U1_RX" I R 3350 3800 60 
F14 "OUT_RX" I R 3350 4700 60 
F15 "OUT_TX" I R 3350 4800 60 
F16 "IO_SWITCH_3" I L 2050 4350 60 
F17 "LPC_U0_RX" I R 3350 3550 60 
F18 "LPC_U0_TX" I R 3350 3650 60 
$EndSheet
Text Label 3650 3650 2    60   ~ 0
TXD0
Text Label 3650 3550 2    60   ~ 0
RXD0
Text Label 3650 3900 2    60   ~ 0
TXD1
Text Label 3650 3800 2    60   ~ 0
RXD1
Text Label 9350 5350 0    60   ~ 0
UI_ARD_RXD
Text Label 9350 5450 0    60   ~ 0
UI_ARD_TXD
Text Label 3900 4150 2    60   ~ 0
UI_ARD_RXD
Text Label 3900 4250 2    60   ~ 0
UI_ARD_TXD
Text Label 3850 4700 2    60   ~ 0
OUT_RX
Text Label 3850 4800 2    60   ~ 0
OUT_TX
Text Label 1650 6050 0    60   ~ 0
LPC_BOOT
Text Label 1650 6150 0    60   ~ 0
LPC_NRESET
Text Label 1200 1550 0    60   ~ 0
LPC_BOOT
Text Label 1200 1650 0    60   ~ 0
LPC_NRESET
Text Label 1200 1750 0    60   ~ 0
UI_ARD_RESET
Wire Wire Line
	10000 1050 10000 1350
Wire Wire Line
	10000 1350 10300 1350
Wire Wire Line
	10150 1650 10300 1650
Wire Wire Line
	10300 1450 9850 1450
Wire Wire Line
	10300 1550 9850 1550
Wire Wire Line
	9450 5050 9900 5050
Wire Wire Line
	9450 5150 9900 5150
Wire Wire Line
	8800 1400 8350 1400
Wire Wire Line
	8800 1500 8350 1500
Wire Wire Line
	7450 1400 7350 1400
Wire Wire Line
	7350 1200 7350 1500
Wire Wire Line
	7350 1500 7450 1500
Connection ~ 7350 1400
Wire Wire Line
	7450 1700 7350 1700
Wire Wire Line
	7350 1700 7350 1800
Wire Wire Line
	7050 1950 7050 2000
Wire Wire Line
	7050 1650 7050 1600
Wire Wire Line
	7050 1600 7450 1600
Wire Wire Line
	7600 3250 7450 3250
Wire Wire Line
	7450 3250 7450 3550
Wire Wire Line
	7200 3150 7600 3150
Wire Wire Line
	7450 3450 7200 3450
Connection ~ 7450 3450
Wire Wire Line
	6950 2900 6950 3150
Wire Wire Line
	6950 3500 7450 3500
Connection ~ 7450 3500
Wire Wire Line
	6950 3450 6950 3500
Wire Wire Line
	3350 3550 3650 3550
Wire Wire Line
	3350 3650 3650 3650
Wire Wire Line
	3350 3800 3650 3800
Wire Wire Line
	3350 3900 3650 3900
Wire Wire Line
	3350 4150 3900 4150
Wire Wire Line
	3350 4250 3900 4250
Wire Wire Line
	3350 4400 4050 4400
Wire Wire Line
	3350 4500 4050 4500
Wire Wire Line
	9350 5350 9900 5350
Wire Wire Line
	9350 5450 9900 5450
Wire Wire Line
	3350 4700 3850 4700
Wire Wire Line
	3350 4800 3850 4800
Wire Wire Line
	1200 1550 2000 1550
Wire Wire Line
	1200 1650 2000 1650
Wire Wire Line
	1200 1750 2000 1750
Wire Wire Line
	1200 1850 2000 1850
Wire Wire Line
	9900 5650 9250 5650
Text Label 9250 5650 0    60   ~ 0
UI_ARD_RESET
Text Label 1200 1850 0    60   ~ 0
TRIG_ARD_RESET
Text Label 4000 4500 2    60   ~ 0
TRIG_ARD_RXD
Text Label 4000 4400 2    60   ~ 0
TRIG_ARD_TXD
$Comp
L +3.3V #PWR08
U 1 1 581616D7
P 7950 4900
F 0 "#PWR08" H 7950 4750 50  0001 C CNN
F 1 "+3.3V" H 7950 5040 50  0000 C CNN
F 2 "" H 7950 4900 50  0000 C CNN
F 3 "" H 7950 4900 50  0000 C CNN
	1    7950 4900
	1    0    0    -1  
$EndComp
$Comp
L +5V #PWR09
U 1 1 581617F3
P 8150 4900
F 0 "#PWR09" H 8150 4750 50  0001 C CNN
F 1 "+5V" H 8150 5040 50  0000 C CNN
F 2 "" H 8150 4900 50  0000 C CNN
F 3 "" H 8150 4900 50  0000 C CNN
	1    8150 4900
	1    0    0    -1  
$EndComp
$Comp
L CONN_01X02 P2
U 1 1 581B0268
P 4250 4450
F 0 "P2" H 4250 4600 50  0000 C CNN
F 1 "CONN_01X02" V 4350 4450 50  0000 C CNN
F 2 "Connect:PINHEAD1-2" H 4250 4450 50  0001 C CNN
F 3 "" H 4250 4450 50  0000 C CNN
F 4 "" H 4250 4450 50  0001 C CNN "FarnellLink"
F 5 "" H 4250 4450 50  0001 C CNN "DigiKeyLink"
F 6 "" H 4250 4450 50  0001 C CNN "MouserLink"
F 7 "" H 4250 4450 50  0001 C CNN "InternalName"
	1    4250 4450
	1    0    0    -1  
$EndComp
Text Notes 6900 2600 0    118  ~ 0
Humidity/Temperature Sensor
Wire Notes Line
	6650 500  6650 4150
Wire Notes Line
	5000 2300 11200 2300
Text Notes 6750 750  0    118  ~ 0
Pressure Sensor
Text Notes 9200 700  0    118  ~ 0
Position (GPS) Sensor
Wire Notes Line
	9150 2300 9150 500 
Text Notes 9050 4600 0    118  ~ 0
User Interface Leds\n\n
Wire Notes Line
	8900 4150 8900 6500
Wire Wire Line
	6250 5200 5650 5200
Wire Wire Line
	6250 5300 5650 5300
Wire Wire Line
	6250 5400 5650 5400
Wire Wire Line
	6250 5500 5650 5500
Wire Wire Line
	6250 5600 5650 5600
Wire Wire Line
	6250 5700 5650 5700
Wire Wire Line
	6250 5800 5650 5800
Wire Wire Line
	6250 5900 5650 5900
Text Label 6250 5200 2    79   ~ 0
TXD0
Text Label 6250 5400 2    79   ~ 0
TXD1
Text Label 6250 5600 2    79   ~ 0
TXD2
Text Label 6250 5800 2    79   ~ 0
TXD3
Text Label 6250 5300 2    79   ~ 0
RXD0
Text Label 6250 5500 2    79   ~ 0
RXD1
Text Label 6250 5700 2    79   ~ 0
RXD2
Text Label 6250 5900 2    79   ~ 0
RXD3
Wire Wire Line
	6150 4700 5650 4700
Wire Wire Line
	6150 4800 5650 4800
Wire Wire Line
	6150 4900 5650 4900
Wire Wire Line
	6150 5000 5650 5000
Text Label 6150 4700 2    79   ~ 0
PWM_UL
Text Label 6150 4800 2    79   ~ 0
PWM_UR
Text Label 6150 4900 2    79   ~ 0
PWM_FL
Text Label 6150 5000 2    79   ~ 0
PWM_FR
Wire Wire Line
	6150 6050 5650 6050
Wire Wire Line
	5650 6150 6150 6150
Text Label 6150 6050 2    79   ~ 0
SDA1
Text Label 6150 6150 2    79   ~ 0
SCL1
Text Notes 5150 4750 0    118  ~ 0
Testing Points\n\n\n
$Comp
L CONN_02X07 P1
U 1 1 5826262D
P 5850 1600
F 0 "P1" H 5850 2000 50  0000 C CNN
F 1 "CONN_02X07" V 5850 1600 50  0000 C CNN
F 2 "Sphere_lib:Harwin_14pin_0.05_smd" H 5850 400 50  0001 C CNN
F 3 "" H 5850 400 50  0000 C CNN
F 4 "" H 5850 400 50  0001 C CNN "FarnellLink"
F 5 "" H 5850 400 50  0001 C CNN "DigiKeyLink"
F 6 "855-M50-3600742" H 5850 400 50  0001 C CNN "MouserLink"
F 7 "J21" H 5850 400 50  0001 C CNN "InternalName"
	1    5850 1600
	1    0    0    -1  
$EndComp
Wire Wire Line
	6100 1300 6300 1300
Wire Wire Line
	6300 1300 6300 1200
Wire Wire Line
	5200 1400 5600 1400
Wire Wire Line
	6100 1400 6400 1400
Text Label 6400 1400 2    79   ~ 0
TXD3
Text Label 5200 1400 0    79   ~ 0
RXD3
$Comp
L +3.3V #PWR010
U 1 1 58267BA1
P 6300 1200
F 0 "#PWR010" H 6300 1050 50  0001 C CNN
F 1 "+3.3V" H 6300 1340 50  0000 C CNN
F 2 "" H 6300 1200 50  0000 C CNN
F 3 "" H 6300 1200 50  0000 C CNN
	1    6300 1200
	1    0    0    -1  
$EndComp
$Comp
L TEST_1P TP7
U 1 1 582A1C4F
P 5650 5200
F 0 "TP7" V 5650 5470 50  0000 C CNN
F 1 "TEST_1P" H 5650 5400 50  0001 C CNN
F 2 "Sphere_lib:TestPoint" H 5850 5200 50  0001 C CNN
F 3 "" H 5850 5200 50  0000 C CNN
F 4 "" H 5850 5200 50  0001 C CNN "FarnellLink"
F 5 "" H 5850 5200 50  0001 C CNN "DigiKeyLink"
F 6 "855-S1751-46" H 5850 5200 50  0001 C CNN "MouserLink"
F 7 "PCB-1" H 5850 5200 50  0001 C CNN "InternalName"
	1    5650 5200
	0    -1   -1   0   
$EndComp
$Comp
L TEST_1P TP8
U 1 1 582A1D9A
P 5650 5300
F 0 "TP8" V 5650 5570 50  0000 C CNN
F 1 "TEST_1P" H 5650 5500 50  0001 C CNN
F 2 "Sphere_lib:TestPoint" H 5850 5300 50  0001 C CNN
F 3 "" H 5850 5300 50  0000 C CNN
F 4 "" H 5850 5300 50  0001 C CNN "FarnellLink"
F 5 "" H 5850 5300 50  0001 C CNN "DigiKeyLink"
F 6 "855-S1751-46" H 5850 5300 50  0001 C CNN "MouserLink"
F 7 "PCB-1" H 5850 5300 50  0001 C CNN "InternalName"
	1    5650 5300
	0    -1   -1   0   
$EndComp
$Comp
L TEST_1P TP9
U 1 1 582A1ECA
P 5650 5400
F 0 "TP9" V 5650 5670 50  0000 C CNN
F 1 "TEST_1P" H 5650 5600 50  0001 C CNN
F 2 "Sphere_lib:TestPoint" H 5850 5400 50  0001 C CNN
F 3 "" H 5850 5400 50  0000 C CNN
F 4 "" H 5850 5400 50  0001 C CNN "FarnellLink"
F 5 "" H 5850 5400 50  0001 C CNN "DigiKeyLink"
F 6 "855-S1751-46" H 5850 5400 50  0001 C CNN "MouserLink"
F 7 "PCB-1" H 5850 5400 50  0001 C CNN "InternalName"
	1    5650 5400
	0    -1   -1   0   
$EndComp
$Comp
L TEST_1P TP10
U 1 1 582A1FFD
P 5650 5500
F 0 "TP10" V 5650 5770 50  0000 C CNN
F 1 "TEST_1P" H 5650 5700 50  0001 C CNN
F 2 "Sphere_lib:TestPoint" H 5850 5500 50  0001 C CNN
F 3 "" H 5850 5500 50  0000 C CNN
F 4 "" H 5850 5500 50  0001 C CNN "FarnellLink"
F 5 "" H 5850 5500 50  0001 C CNN "DigiKeyLink"
F 6 "855-S1751-46" H 5850 5500 50  0001 C CNN "MouserLink"
F 7 "PCB-1" H 5850 5500 50  0001 C CNN "InternalName"
	1    5650 5500
	0    -1   -1   0   
$EndComp
$Comp
L TEST_1P TP11
U 1 1 582A225E
P 5650 5600
F 0 "TP11" V 5650 5870 50  0000 C CNN
F 1 "TEST_1P" H 5650 5800 50  0001 C CNN
F 2 "Sphere_lib:TestPoint" H 5850 5600 50  0001 C CNN
F 3 "" H 5850 5600 50  0000 C CNN
F 4 "" H 5850 5600 50  0001 C CNN "FarnellLink"
F 5 "" H 5850 5600 50  0001 C CNN "DigiKeyLink"
F 6 "855-S1751-46" H 5850 5600 50  0001 C CNN "MouserLink"
F 7 "PCB-1" H 5850 5600 50  0001 C CNN "InternalName"
	1    5650 5600
	0    -1   -1   0   
$EndComp
$Comp
L TEST_1P TP12
U 1 1 582A239B
P 5650 5700
F 0 "TP12" V 5650 5970 50  0000 C CNN
F 1 "TEST_1P" H 5650 5900 50  0001 C CNN
F 2 "Sphere_lib:TestPoint" H 5850 5700 50  0001 C CNN
F 3 "" H 5850 5700 50  0000 C CNN
F 4 "" H 5850 5700 50  0001 C CNN "FarnellLink"
F 5 "" H 5850 5700 50  0001 C CNN "DigiKeyLink"
F 6 "855-S1751-46" H 5850 5700 50  0001 C CNN "MouserLink"
F 7 "PCB-1" H 5850 5700 50  0001 C CNN "InternalName"
	1    5650 5700
	0    -1   -1   0   
$EndComp
$Comp
L TEST_1P TP13
U 1 1 582A24D7
P 5650 5800
F 0 "TP13" V 5650 6070 50  0000 C CNN
F 1 "TEST_1P" H 5650 6000 50  0001 C CNN
F 2 "Sphere_lib:TestPoint" H 5850 5800 50  0001 C CNN
F 3 "" H 5850 5800 50  0000 C CNN
F 4 "" H 5850 5800 50  0001 C CNN "FarnellLink"
F 5 "" H 5850 5800 50  0001 C CNN "DigiKeyLink"
F 6 "855-S1751-46" H 5850 5800 50  0001 C CNN "MouserLink"
F 7 "PCB-1" H 5850 5800 50  0001 C CNN "InternalName"
	1    5650 5800
	0    -1   -1   0   
$EndComp
$Comp
L TEST_1P TP14
U 1 1 582A2616
P 5650 5900
F 0 "TP14" V 5650 6170 50  0000 C CNN
F 1 "TEST_1P" H 5650 6100 50  0001 C CNN
F 2 "Sphere_lib:TestPoint" H 5850 5900 50  0001 C CNN
F 3 "" H 5850 5900 50  0000 C CNN
F 4 "" H 5850 5900 50  0001 C CNN "FarnellLink"
F 5 "" H 5850 5900 50  0001 C CNN "DigiKeyLink"
F 6 "855-S1751-46" H 5850 5900 50  0001 C CNN "MouserLink"
F 7 "PCB-1" H 5850 5900 50  0001 C CNN "InternalName"
	1    5650 5900
	0    -1   -1   0   
$EndComp
$Comp
L TEST_1P TP6
U 1 1 582A2758
P 5650 6150
F 0 "TP6" V 5650 6420 50  0000 C CNN
F 1 "TEST_1P" H 5650 6350 50  0001 C CNN
F 2 "Sphere_lib:TestPoint" H 5850 6150 50  0001 C CNN
F 3 "" H 5850 6150 50  0000 C CNN
F 4 "" H 5850 6150 50  0001 C CNN "FarnellLink"
F 5 "" H 5850 6150 50  0001 C CNN "DigiKeyLink"
F 6 "855-S1751-46" H 5850 6150 50  0001 C CNN "MouserLink"
F 7 "PCB-1" H 5850 6150 50  0001 C CNN "InternalName"
	1    5650 6150
	0    -1   -1   0   
$EndComp
$Comp
L TEST_1P TP5
U 1 1 582A28D1
P 5650 6050
F 0 "TP5" V 5650 6320 50  0000 C CNN
F 1 "TEST_1P" H 5650 6250 50  0001 C CNN
F 2 "Sphere_lib:TestPoint" H 5850 6050 50  0001 C CNN
F 3 "" H 5850 6050 50  0000 C CNN
F 4 "" H 5850 6050 50  0001 C CNN "FarnellLink"
F 5 "" H 5850 6050 50  0001 C CNN "DigiKeyLink"
F 6 "855-S1751-46" H 5850 6050 50  0001 C CNN "MouserLink"
F 7 "PCB-1" H 5850 6050 50  0001 C CNN "InternalName"
	1    5650 6050
	0    -1   -1   0   
$EndComp
$Comp
L TEST_1P TP4
U 1 1 582A2A19
P 5650 5000
F 0 "TP4" V 5650 5270 50  0000 C CNN
F 1 "TEST_1P" H 5650 5200 50  0001 C CNN
F 2 "Sphere_lib:TestPoint" H 5850 5000 50  0001 C CNN
F 3 "" H 5850 5000 50  0000 C CNN
F 4 "" H 5850 5000 50  0001 C CNN "FarnellLink"
F 5 "" H 5850 5000 50  0001 C CNN "DigiKeyLink"
F 6 "855-S1751-46" H 5850 5000 50  0001 C CNN "MouserLink"
F 7 "PCB-1" H 5850 5000 50  0001 C CNN "InternalName"
	1    5650 5000
	0    -1   -1   0   
$EndComp
$Comp
L TEST_1P TP3
U 1 1 582A2B82
P 5650 4900
F 0 "TP3" V 5650 5170 50  0000 C CNN
F 1 "TEST_1P" H 5650 5100 50  0001 C CNN
F 2 "Sphere_lib:TestPoint" H 5850 4900 50  0001 C CNN
F 3 "" H 5850 4900 50  0000 C CNN
F 4 "" H 5850 4900 50  0001 C CNN "FarnellLink"
F 5 "" H 5850 4900 50  0001 C CNN "DigiKeyLink"
F 6 "855-S1751-46" H 5850 4900 50  0001 C CNN "MouserLink"
F 7 "PCB-1" H 5850 4900 50  0001 C CNN "InternalName"
	1    5650 4900
	0    -1   -1   0   
$EndComp
$Comp
L TEST_1P TP2
U 1 1 582A2CD0
P 5650 4800
F 0 "TP2" V 5650 5070 50  0000 C CNN
F 1 "TEST_1P" H 5650 5000 50  0001 C CNN
F 2 "Sphere_lib:TestPoint" H 5850 4800 50  0001 C CNN
F 3 "" H 5850 4800 50  0000 C CNN
F 4 "" H 5850 4800 50  0001 C CNN "FarnellLink"
F 5 "" H 5850 4800 50  0001 C CNN "DigiKeyLink"
F 6 "855-S1751-46" H 5850 4800 50  0001 C CNN "MouserLink"
F 7 "PCB-1" H 5850 4800 50  0001 C CNN "InternalName"
	1    5650 4800
	0    -1   -1   0   
$EndComp
$Comp
L TEST_1P TP1
U 1 1 582A2E21
P 5650 4700
F 0 "TP1" V 5650 4970 50  0000 C CNN
F 1 "TEST_1P" H 5650 4900 50  0001 C CNN
F 2 "Sphere_lib:TestPoint" H 5850 4700 50  0001 C CNN
F 3 "" H 5850 4700 50  0000 C CNN
F 4 "" H 5850 4700 50  0001 C CNN "FarnellLink"
F 5 "" H 5850 4700 50  0001 C CNN "DigiKeyLink"
F 6 "855-S1751-46" H 5850 4700 50  0001 C CNN "MouserLink"
F 7 "PCB-1" H 5850 4700 50  0001 C CNN "InternalName"
	1    5650 4700
	0    -1   -1   0   
$EndComp
Wire Wire Line
	10150 1650 10150 1800
Wire Wire Line
	10300 1750 10150 1750
Connection ~ 10150 1750
$Sheet
S 2250 5950 1000 1350
U 574F025F
F0 "LPC1768" 60
F1 "LPC1768.sch" 60
F2 "Boot" I L 2250 6050 60 
F3 "NReset" I L 2250 6150 60 
F4 "TXD3" I R 3250 6000 60 
F5 "RXD3" I R 3250 6100 60 
F6 "TXD0" I R 3250 6200 60 
F7 "RXD0" I R 3250 6300 60 
F8 "TXD2" I R 3250 6400 60 
F9 "RXD2" I R 3250 6500 60 
F10 "TXD1" I R 3250 6600 60 
F11 "RXD1" I R 3250 6700 60 
F12 "SDA" I R 3250 6800 60 
F13 "SCL" I R 3250 6900 60 
F14 "PWM_UL" I R 3250 7000 60 
F15 "PWM_UR" I R 3250 7100 60 
F16 "PWM_FL" I L 2250 7000 60 
F17 "PWM_FR" I L 2250 7100 60 
F18 "P1.0" I L 2250 6350 60 
F19 "P1.1" I L 2250 6450 60 
F20 "P1.4" I L 2250 6550 60 
F21 "P1.8" I L 2250 6650 60 
F22 "P1.9" I L 2250 6750 60 
F23 "VBat" I L 2250 7250 60 
F24 "OD_PWRON" I L 2250 6850 60 
$EndSheet
Wire Wire Line
	3250 6000 3650 6000
Wire Wire Line
	3250 6100 3650 6100
Wire Wire Line
	3250 6200 3650 6200
Wire Wire Line
	3250 6300 3650 6300
Wire Wire Line
	3250 6400 3650 6400
Wire Wire Line
	3250 6500 3650 6500
Wire Wire Line
	3250 6600 3650 6600
Wire Wire Line
	3250 6700 3650 6700
Wire Wire Line
	3250 6800 3650 6800
Wire Wire Line
	3250 6900 3650 6900
Wire Wire Line
	3250 7000 3650 7000
Wire Wire Line
	3250 7100 3650 7100
Wire Wire Line
	2250 7000 1850 7000
Wire Wire Line
	2250 7100 1850 7100
Text Label 3650 6000 2    60   ~ 0
TXD3
Text Label 3650 6100 2    60   ~ 0
RXD3
Text Label 3650 6200 2    60   ~ 0
TXD0
Text Label 3650 6300 2    60   ~ 0
RXD0
Text Label 3650 6400 2    60   ~ 0
TXD2
Text Label 3650 6500 2    60   ~ 0
RXD2
Text Label 3650 6600 2    60   ~ 0
TXD1
Text Label 3650 6700 2    60   ~ 0
RXD1
Text Label 3650 6800 2    60   ~ 0
SDA1
Text Label 3650 6900 2    60   ~ 0
SCL1
Text Label 3650 7000 2    60   ~ 0
PWM_UL
Text Label 3650 7100 2    60   ~ 0
PWM_UR
Text Label 1850 7000 0    60   ~ 0
PWM_FL
Text Label 1850 7100 0    60   ~ 0
PWM_FR
Text Notes 5150 1000 0    118  ~ 0
IMU Connector\n\n
Wire Wire Line
	8500 3150 8750 3150
Wire Wire Line
	8750 3050 8500 3050
Wire Wire Line
	8500 3250 8750 3250
Wire Wire Line
	8500 3350 8750 3350
Wire Wire Line
	7700 4950 7950 4950
Wire Wire Line
	7950 4950 7950 4900
Wire Wire Line
	8150 4900 8150 5050
Wire Wire Line
	8150 5050 7700 5050
Wire Wire Line
	7700 5150 8150 5150
Wire Wire Line
	7700 5250 8150 5250
Wire Wire Line
	7700 5350 8150 5350
Wire Wire Line
	7700 5450 8150 5450
Wire Wire Line
	7700 5550 8150 5550
Wire Wire Line
	7700 5650 8150 5650
Wire Wire Line
	7700 5750 8150 5750
Wire Wire Line
	7700 5850 8150 5850
Text Label 8150 5850 2    60   ~ 0
OUT_RX
Text Label 8150 5750 2    60   ~ 0
OUT_TX
Text Label 8150 5450 2    60   ~ 0
PWM_UL
Text Label 8150 5550 2    60   ~ 0
PWM_UR
Text Label 8150 5650 2    60   ~ 0
PWM_FL
Text Label 8150 5350 2    60   ~ 0
PWM_FR
Text Label 8150 5150 2    60   ~ 0
SDA1
Text Label 8150 5250 2    60   ~ 0
SCL1
Wire Wire Line
	8350 1600 8800 1600
Wire Wire Line
	8350 1700 8800 1700
Wire Wire Line
	1650 6050 2250 6050
Wire Wire Line
	1650 6150 2250 6150
Wire Wire Line
	7600 3050 6950 3050
Connection ~ 6950 3050
NoConn ~ 5600 1500
NoConn ~ 5600 1600
NoConn ~ 5600 1700
NoConn ~ 5600 1800
NoConn ~ 5600 1900
NoConn ~ 6100 1900
NoConn ~ 6100 1800
NoConn ~ 6100 1700
NoConn ~ 6100 1600
NoConn ~ 6100 1500
Wire Wire Line
	2250 6350 1850 6350
Wire Wire Line
	2250 6450 1850 6450
Wire Wire Line
	2250 6550 1850 6550
Wire Wire Line
	2250 6650 1850 6650
Wire Wire Line
	2250 6750 1850 6750
Text Label 8800 1600 2    60   ~ 0
INT1
Text Label 8800 1700 2    60   ~ 0
INT2
Wire Wire Line
	10300 1250 10050 1250
Text Label 10050 1250 0    60   ~ 0
Direc
Text Label 1850 6450 0    60   ~ 0
INT1
Text Label 1850 6350 0    60   ~ 0
INT2
Text Label 1850 6550 0    60   ~ 0
Direc
Text Label 8750 3250 2    60   ~ 0
AL_L
Text Label 8750 3350 2    60   ~ 0
AL_H
Text Label 1850 6750 0    60   ~ 0
AL_L
Text Label 1850 6650 0    60   ~ 0
AL_H
Wire Wire Line
	2250 7250 1850 7250
Text Label 1850 7250 0    60   ~ 0
RTC_BAT
Wire Wire Line
	1550 2350 2000 2350
Text Label 1550 2350 0    60   ~ 0
RTC_BAT
$Sheet
S 7050 4850 650  1250
U 58146FB7
F0 "B2C" 60
F1 "Boards-to-Control-Connector.sch" 60
F2 "+3.3V" I R 7700 4950 60 
F3 "+5V" I R 7700 5050 60 
F4 "SDA" I R 7700 5150 60 
F5 "SCL" I R 7700 5250 60 
F6 "PWM_FR" I R 7700 5350 60 
F7 "PWM_UL" I R 7700 5450 60 
F8 "PWM_UR" I R 7700 5550 60 
F9 "PWM_FL" I R 7700 5650 60 
F10 "D_out-" I R 7700 5750 60 
F11 "D_out+" I R 7700 5850 60 
$EndSheet
$Comp
L CONN_01X01 P9
U 1 1 598B6152
P 5150 7250
F 0 "P9" H 5300 7250 50  0000 C CNN
F 1 "CONN_01X01" H 5150 7150 50  0001 C CNN
F 2 "Mounting_Holes:MountingHole_3.2mm_M3_Pad" H 5150 7250 50  0001 C CNN
F 3 "" H 5150 7250 50  0000 C CNN
F 4 "" H 5150 7250 50  0001 C CNN "FarnellLink"
F 5 "" H 5150 7250 50  0001 C CNN "DigiKeyLink"
F 6 "" H 5150 7250 50  0001 C CNN "MouserLink"
F 7 "" H 5150 7250 50  0001 C CNN "InternalName"
	1    5150 7250
	0    1    1    0   
$EndComp
$Comp
L CONN_01X01 P10
U 1 1 598B77AA
P 5300 7250
F 0 "P10" H 5450 7250 50  0000 C CNN
F 1 "CONN_01X01" H 5300 7150 50  0001 C CNN
F 2 "Mounting_Holes:MountingHole_3.2mm_M3_Pad" H 5300 7250 50  0001 C CNN
F 3 "" H 5300 7250 50  0000 C CNN
F 4 "" H 5300 7250 50  0001 C CNN "FarnellLink"
F 5 "" H 5300 7250 50  0001 C CNN "DigiKeyLink"
F 6 "" H 5300 7250 50  0001 C CNN "MouserLink"
F 7 "" H 5300 7250 50  0001 C CNN "InternalName"
	1    5300 7250
	0    1    1    0   
$EndComp
$Comp
L CONN_01X01 P11
U 1 1 598B799C
P 5450 7250
F 0 "P11" H 5600 7250 50  0000 C CNN
F 1 "CONN_01X01" H 5450 7150 50  0001 C CNN
F 2 "Mounting_Holes:MountingHole_3.2mm_M3_Pad" H 5450 7250 50  0001 C CNN
F 3 "" H 5450 7250 50  0000 C CNN
F 4 "" H 5450 7250 50  0001 C CNN "FarnellLink"
F 5 "" H 5450 7250 50  0001 C CNN "DigiKeyLink"
F 6 "" H 5450 7250 50  0001 C CNN "MouserLink"
F 7 "" H 5450 7250 50  0001 C CNN "InternalName"
	1    5450 7250
	0    1    1    0   
$EndComp
$Comp
L CONN_01X01 P12
U 1 1 598B7B99
P 5600 7250
F 0 "P12" H 5750 7250 50  0000 C CNN
F 1 "CONN_01X01" H 5600 7150 50  0001 C CNN
F 2 "Mounting_Holes:MountingHole_3.2mm_M3_Pad" H 5600 7250 50  0001 C CNN
F 3 "" H 5600 7250 50  0000 C CNN
F 4 "" H 5600 7250 50  0001 C CNN "FarnellLink"
F 5 "" H 5600 7250 50  0001 C CNN "DigiKeyLink"
F 6 "" H 5600 7250 50  0001 C CNN "MouserLink"
F 7 "" H 5600 7250 50  0001 C CNN "InternalName"
	1    5600 7250
	0    1    1    0   
$EndComp
$Comp
L CONN_01X01 P13
U 1 1 598B7D91
P 5750 7250
F 0 "P13" H 5900 7250 50  0000 C CNN
F 1 "CONN_01X01" H 5750 7150 50  0001 C CNN
F 2 "Mounting_Holes:MountingHole_3.2mm_M3_Pad" H 5750 7250 50  0001 C CNN
F 3 "" H 5750 7250 50  0000 C CNN
F 4 "" H 5750 7250 50  0001 C CNN "FarnellLink"
F 5 "" H 5750 7250 50  0001 C CNN "DigiKeyLink"
F 6 "" H 5750 7250 50  0001 C CNN "MouserLink"
F 7 "" H 5750 7250 50  0001 C CNN "InternalName"
	1    5750 7250
	0    1    1    0   
$EndComp
$Comp
L CONN_01X01 P14
U 1 1 598B7F8C
P 5900 7250
F 0 "P14" H 6050 7250 50  0000 C CNN
F 1 "CONN_01X01" H 5900 7150 50  0001 C CNN
F 2 "Mounting_Holes:MountingHole_3.2mm_M3_Pad" H 5900 7250 50  0001 C CNN
F 3 "" H 5900 7250 50  0000 C CNN
F 4 "" H 5900 7250 50  0001 C CNN "FarnellLink"
F 5 "" H 5900 7250 50  0001 C CNN "DigiKeyLink"
F 6 "" H 5900 7250 50  0001 C CNN "MouserLink"
F 7 "" H 5900 7250 50  0001 C CNN "InternalName"
	1    5900 7250
	0    1    1    0   
$EndComp
$Comp
L CONN_01X01 P15
U 1 1 598B818A
P 6050 7250
F 0 "P15" H 6200 7250 50  0000 C CNN
F 1 "CONN_01X01" H 6050 7150 50  0001 C CNN
F 2 "Mounting_Holes:MountingHole_2.2mm_M2_DIN965_Pad" H 6050 7250 50  0001 C CNN
F 3 "" H 6050 7250 50  0000 C CNN
F 4 "" H 6050 7250 50  0001 C CNN "FarnellLink"
F 5 "" H 6050 7250 50  0001 C CNN "DigiKeyLink"
F 6 "" H 6050 7250 50  0001 C CNN "MouserLink"
F 7 "" H 6050 7250 50  0001 C CNN "InternalName"
	1    6050 7250
	0    1    1    0   
$EndComp
$Comp
L CONN_01X01 P16
U 1 1 598B838F
P 6200 7250
F 0 "P16" H 6350 7250 50  0000 C CNN
F 1 "CONN_01X01" H 6200 7150 50  0001 C CNN
F 2 "Mounting_Holes:MountingHole_2.2mm_M2_DIN965_Pad" H 6200 7250 50  0001 C CNN
F 3 "" H 6200 7250 50  0000 C CNN
F 4 "" H 6200 7250 50  0001 C CNN "FarnellLink"
F 5 "" H 6200 7250 50  0001 C CNN "DigiKeyLink"
F 6 "" H 6200 7250 50  0001 C CNN "MouserLink"
F 7 "" H 6200 7250 50  0001 C CNN "InternalName"
	1    6200 7250
	0    1    1    0   
$EndComp
$Comp
L CONN_01X01 P17
U 1 1 598B859F
P 6350 7250
F 0 "P17" H 6500 7250 50  0000 C CNN
F 1 "CONN_01X01" H 6350 7150 50  0001 C CNN
F 2 "Mounting_Holes:MountingHole_2.2mm_M2_DIN965_Pad" H 6350 7250 50  0001 C CNN
F 3 "" H 6350 7250 50  0000 C CNN
F 4 "" H 6350 7250 50  0001 C CNN "FarnellLink"
F 5 "" H 6350 7250 50  0001 C CNN "DigiKeyLink"
F 6 "" H 6350 7250 50  0001 C CNN "MouserLink"
F 7 "" H 6350 7250 50  0001 C CNN "InternalName"
	1    6350 7250
	0    1    1    0   
$EndComp
$Comp
L CONN_01X01 P18
U 1 1 598B87A6
P 6500 7250
F 0 "P18" H 6650 7250 50  0000 C CNN
F 1 "CONN_01X01" H 6500 7150 50  0001 C CNN
F 2 "Mounting_Holes:MountingHole_2.2mm_M2_DIN965_Pad" H 6500 7250 50  0001 C CNN
F 3 "" H 6500 7250 50  0000 C CNN
F 4 "" H 6500 7250 50  0001 C CNN "FarnellLink"
F 5 "" H 6500 7250 50  0001 C CNN "DigiKeyLink"
F 6 "" H 6500 7250 50  0001 C CNN "MouserLink"
F 7 "" H 6500 7250 50  0001 C CNN "InternalName"
	1    6500 7250
	0    1    1    0   
$EndComp
$Comp
L GND #PWR012
U 1 1 598BC100
P 6600 6900
F 0 "#PWR012" H 6600 6650 50  0001 C CNN
F 1 "GND" H 6600 6750 50  0000 C CNN
F 2 "" H 6600 6900 50  0000 C CNN
F 3 "" H 6600 6900 50  0000 C CNN
	1    6600 6900
	1    0    0    -1  
$EndComp
Wire Wire Line
	5150 7050 5150 6900
Wire Wire Line
	5150 6900 6600 6900
Wire Wire Line
	6500 7050 6500 6900
Connection ~ 6500 6900
Wire Wire Line
	6350 7050 6350 6900
Connection ~ 6350 6900
Wire Wire Line
	6200 7050 6200 6900
Connection ~ 6200 6900
Wire Wire Line
	6050 7050 6050 6900
Connection ~ 6050 6900
Wire Wire Line
	5900 7050 5900 6900
Connection ~ 5900 6900
Wire Wire Line
	5750 7050 5750 6900
Connection ~ 5750 6900
Wire Wire Line
	5600 7050 5600 6900
Connection ~ 5600 6900
Wire Wire Line
	5450 7050 5450 6900
Connection ~ 5450 6900
Wire Wire Line
	5300 7050 5300 6900
Connection ~ 5300 6900
Text Notes 850  850  0    118  ~ 0
Odroid Connector
Text Notes 7050 4600 0    118  ~ 0
Power Board Conn\n\n
Wire Notes Line
	6950 4150 6950 7800
Text Notes 5050 6750 0    118  ~ 0
Mounting Holes\n
Wire Notes Line
	6950 6450 5000 6450
Wire Notes Line
	5000 500  5000 7750
Wire Wire Line
	3350 1350 3650 1350
Wire Wire Line
	3350 1450 3650 1450
Wire Wire Line
	3350 1650 3650 1650
Wire Wire Line
	3350 1750 3650 1750
Wire Wire Line
	3350 1950 3650 1950
Wire Wire Line
	3350 2050 3650 2050
Wire Wire Line
	3350 2150 3650 2150
Wire Wire Line
	2050 3550 1750 3550
Wire Wire Line
	2050 3650 1750 3650
Wire Wire Line
	2050 3850 1750 3850
Wire Wire Line
	2050 3950 1750 3950
Wire Wire Line
	2050 4150 1750 4150
Wire Wire Line
	2050 4250 1750 4250
Wire Wire Line
	2050 4350 1750 4350
Text Label 3650 1350 2    59   ~ 0
U0_RX
Text Label 1750 3550 0    59   ~ 0
U0_RX
Text Label 3650 1450 2    59   ~ 0
U0_TX
Text Label 1750 3650 0    59   ~ 0
U0_TX
Text Label 3650 1750 2    59   ~ 0
U2_RX
Text Label 3650 1650 2    59   ~ 0
U2_TX
Text Label 1750 3850 0    59   ~ 0
U2_TX
Text Label 1750 3950 0    59   ~ 0
U2_RX
Text Label 3650 1950 2    59   ~ 0
IOS-1
Text Label 3650 2050 2    59   ~ 0
IOS-2
Text Label 3650 2150 2    59   ~ 0
IOS-3
Text Label 1750 4150 0    59   ~ 0
IOS-1
Text Label 1750 4250 0    59   ~ 0
IOS-2
Text Label 1750 4350 0    59   ~ 0
IOS-3
Wire Wire Line
	1550 2500 2000 2500
Wire Wire Line
	2250 6850 1850 6850
Text Label 1850 6850 0    60   ~ 0
OD_PWR
Text Label 1550 2500 0    60   ~ 0
OD_PWR
Text Notes 800  5700 0    118  ~ 0
uController
$Comp
L GND #PWR?
U 1 1 59E33F15
P 5350 1100
F 0 "#PWR?" H 5350 850 50  0001 C CNN
F 1 "GND" H 5350 950 50  0000 C CNN
F 2 "" H 5350 1100 50  0000 C CNN
F 3 "" H 5350 1100 50  0000 C CNN
	1    5350 1100
	1    0    0    -1  
$EndComp
Wire Wire Line
	5600 1300 5550 1300
Wire Wire Line
	5550 1300 5550 1050
Wire Wire Line
	5550 1050 5350 1050
Wire Wire Line
	5350 1050 5350 1100
Wire Notes Line
	5000 4150 11200 4150
Wire Notes Line
	5000 2900 500  2900
Text Notes 800  3200 0    118  ~ 0
UART Multiplexer
Wire Notes Line
	5000 5250 500  5250
$EndSCHEMATC
