EESchema Schematic File Version 2
LIBS:Main_Control_Board-rescue
LIBS:power
LIBS:device
LIBS:transistors
LIBS:conn
LIBS:linear
LIBS:regul
LIBS:74xx
LIBS:cmos4000
LIBS:adc-dac
LIBS:memory
LIBS:xilinx
LIBS:microcontrollers
LIBS:dsp
LIBS:microchip
LIBS:analog_switches
LIBS:motorola
LIBS:texas
LIBS:intel
LIBS:audio
LIBS:interface
LIBS:digital-audio
LIBS:philips
LIBS:display
LIBS:cypress
LIBS:siliconi
LIBS:opto
LIBS:atmel
LIBS:contrib
LIBS:valves
LIBS:Sphere_lib
LIBS:Main_Control_Board-cache
EELAYER 25 0
EELAYER END
$Descr A4 11693 8268
encoding utf-8
Sheet 8 23
Title "Main Sensors Board "
Date "2017-10-09"
Rev "0.3"
Comp "DROP Lab, University of Michigan"
Comment1 "Designed by Eduardo Iscar "
Comment2 ""
Comment3 ""
Comment4 ""
$EndDescr
$Comp
L CONN_02X15 P5
U 1 1 57557847
P 9150 2250
F 0 "P5" H 9150 3050 50  0000 C CNN
F 1 "CONN_02X15" V 9150 2250 50  0000 C CNN
F 2 "Sphere_lib:Milligrid30pin" H 9150 1100 50  0001 C CNN
F 3 "" H 9150 1100 50  0000 C CNN
F 4 "" H 9150 1100 50  0001 C CNN "FarnellLink"
F 5 "" H 9150 1100 50  0001 C CNN "DigiKeyLink"
F 6 "538-87832-3020" H 9150 1100 50  0001 C CNN "MouserLink"
F 7 "J20" H 9150 1100 50  0001 C CNN "InternalName"
F 8 "" H 9150 1100 50  0001 C CNN "FarnellLink"
F 9 "" H 9150 1100 50  0001 C CNN "DigiKeyLink"
F 10 "538-87832-3020" H 9150 1100 50  0001 C CNN "MouserLink"
F 11 "J20" H 9150 1100 50  0001 C CNN "InternalName"
	1    9150 2250
	1    0    0    -1  
$EndComp
Wire Wire Line
	7850 1550 8900 1550
Wire Wire Line
	8350 1650 8900 1650
Wire Wire Line
	8350 1750 8900 1750
Wire Wire Line
	8350 1850 8900 1850
Wire Wire Line
	8350 1950 8900 1950
Wire Wire Line
	8350 2050 8900 2050
Wire Wire Line
	8350 2150 8900 2150
Wire Wire Line
	8350 2250 8900 2250
Wire Wire Line
	8350 2350 8900 2350
Wire Wire Line
	8350 2450 8900 2450
Wire Wire Line
	8350 2550 8900 2550
Wire Wire Line
	8350 2650 8900 2650
Wire Wire Line
	8350 2750 8900 2750
Wire Wire Line
	8350 2850 8900 2850
Wire Wire Line
	8350 2950 8900 2950
Wire Wire Line
	9400 1550 10050 1550
Wire Wire Line
	9400 1650 10000 1650
Wire Wire Line
	9400 1750 10000 1750
Wire Wire Line
	9400 1850 10000 1850
Wire Wire Line
	9400 1950 10000 1950
Wire Wire Line
	9400 2050 10000 2050
Wire Wire Line
	9400 2150 10000 2150
Wire Wire Line
	9400 2250 10000 2250
Wire Wire Line
	9400 2350 10000 2350
Wire Wire Line
	9400 2450 10000 2450
Wire Wire Line
	9400 2550 10000 2550
Wire Wire Line
	9400 2650 10000 2650
Wire Wire Line
	9400 2750 10000 2750
Wire Wire Line
	9400 2850 10050 2850
Wire Wire Line
	9400 2950 10050 2950
Text Label 8350 1550 0    60   ~ 0
5V0
Text Label 8350 1650 0    60   ~ 0
ADC_0.AIN0
Text Label 8350 1750 0    60   ~ 0
UART_0.CTSN
Text Label 8350 1850 0    60   ~ 0
SPI_1.MOSI
Text Label 8350 1950 0    60   ~ 0
SPI_1.MISO
Text Label 8350 2050 0    60   ~ 0
SPI_1.CSN
Text Label 8350 2150 0    60   ~ 0
XE.INT13
Text Label 8350 2250 0    60   ~ 0
XE.INT10
Text Label 8350 2350 0    60   ~ 0
XE.INT14
Text Label 8350 2450 0    60   ~ 0
XE.INT22
Text Label 8350 2550 0    60   ~ 0
XE.INT21
Text Label 8350 2650 0    60   ~ 0
ADC_0.AIN3
Text Label 8350 2750 0    60   ~ 0
XE.INT15
Text Label 8350 2850 0    60   ~ 0
XE.INT25
Text Label 8350 2950 0    60   ~ 0
VDD_IO(1.8V)
Text Label 10000 1550 2    60   ~ 0
GND
Text Label 10000 1650 2    60   ~ 0
UART_0.RTSN
Text Label 10000 1750 2    60   ~ 0
UART_0.RXD
Text Label 10000 1850 2    60   ~ 0
UART_0.TXD
Text Label 10000 1950 2    60   ~ 0
SPI_1.CLK
Text Label 10000 2050 2    60   ~ 0
PWRON
Text Label 10000 2150 2    60   ~ 0
I2C_1.SCL
Text Label 10000 2250 2    60   ~ 0
I2C_1.SDA
Text Label 10000 2350 2    60   ~ 0
XE.INT11
Text Label 10000 2450 2    60   ~ 0
XE.INT20
Text Label 10000 2550 2    60   ~ 0
XE.INT23
Text Label 10000 2650 2    60   ~ 0
XE.INT17
Text Label 10000 2750 2    60   ~ 0
XE.INT16
Text Label 10000 2850 2    60   ~ 0
GND
Text Label 10000 2950 2    60   ~ 0
GND
$Comp
L +5V #PWR027
U 1 1 57558827
P 7850 1400
F 0 "#PWR027" H 7850 1250 50  0001 C CNN
F 1 "+5V" H 7850 1540 50  0000 C CNN
F 2 "" H 7850 1400 50  0000 C CNN
F 3 "" H 7850 1400 50  0000 C CNN
	1    7850 1400
	1    0    0    -1  
$EndComp
Wire Wire Line
	7850 1400 7850 1550
$Comp
L GND #PWR028
U 1 1 5755889B
P 10050 3050
F 0 "#PWR028" H 10050 2800 50  0001 C CNN
F 1 "GND" H 10050 2900 50  0000 C CNN
F 2 "" H 10050 3050 50  0000 C CNN
F 3 "" H 10050 3050 50  0000 C CNN
	1    10050 3050
	1    0    0    -1  
$EndComp
Wire Wire Line
	10050 2850 10050 3050
Connection ~ 10050 2950
$Comp
L GND #PWR029
U 1 1 575588F7
P 9750 1250
F 0 "#PWR029" H 9750 1000 50  0001 C CNN
F 1 "GND" H 9750 1100 50  0000 C CNN
F 2 "" H 9750 1250 50  0000 C CNN
F 3 "" H 9750 1250 50  0000 C CNN
	1    9750 1250
	1    0    0    -1  
$EndComp
Wire Wire Line
	9750 1250 10050 1250
Wire Wire Line
	10050 1250 10050 1550
$Sheet
S 1750 2300 650  400 
U 5755893B
F0 "Shifter_OD_1" 60
F1 "levelshifter.sch" 60
F2 "LV" I L 1750 2400 60 
F3 "HL" I R 2400 2400 60 
F4 "L_IO" I L 1750 2600 60 
F5 "H_IO" I R 2400 2600 60 
$EndSheet
$Sheet
S 1750 3000 650  400 
U 57558B8B
F0 "Shifter_OD_2" 60
F1 "levelshifter.sch" 60
F2 "LV" I L 1750 3100 60 
F3 "HL" I R 2400 3100 60 
F4 "L_IO" I L 1750 3300 60 
F5 "H_IO" I R 2400 3300 60 
$EndSheet
Wire Wire Line
	1750 2400 1150 2400
Wire Wire Line
	1150 3100 1750 3100
Connection ~ 1150 2400
$Sheet
S 1750 3650 650  400 
U 5755983D
F0 "Shifter_OD_3" 60
F1 "levelshifter.sch" 60
F2 "LV" I L 1750 3750 60 
F3 "HL" I R 2400 3750 60 
F4 "L_IO" I L 1750 3950 60 
F5 "H_IO" I R 2400 3950 60 
$EndSheet
Wire Wire Line
	1150 3750 1750 3750
$Sheet
S 1750 4300 650  400 
U 57559A4A
F0 "Shifter_OD_4" 60
F1 "levelshifter.sch" 60
F2 "LV" I L 1750 4400 60 
F3 "HL" I R 2400 4400 60 
F4 "L_IO" I L 1750 4600 60 
F5 "H_IO" I R 2400 4600 60 
$EndSheet
Wire Wire Line
	1150 4400 1750 4400
Connection ~ 1150 3100
Connection ~ 1150 3750
$Comp
L +3.3V #PWR030
U 1 1 5755A9E3
P 3250 2050
F 0 "#PWR030" H 3250 1900 50  0001 C CNN
F 1 "+3.3V" H 3250 2190 50  0000 C CNN
F 2 "" H 3250 2050 50  0000 C CNN
F 3 "" H 3250 2050 50  0000 C CNN
	1    3250 2050
	1    0    0    -1  
$EndComp
Text Label 1150 1950 0    60   ~ 0
VDD_IO(1.8V)
Wire Wire Line
	3250 2400 2400 2400
Wire Wire Line
	3250 3100 2400 3100
Connection ~ 3250 2400
Wire Wire Line
	3250 3750 2400 3750
Connection ~ 3250 3100
Wire Wire Line
	3250 4400 2400 4400
Connection ~ 3250 3750
Wire Wire Line
	2400 2600 2650 2600
Wire Wire Line
	2400 3300 2650 3300
Text HLabel 2650 2600 2    60   Input ~ 0
OD_U0_RX
Text HLabel 2650 3300 2    60   Input ~ 0
OD_U0_TX
Wire Wire Line
	1200 2600 1750 2600
Wire Wire Line
	1200 3300 1750 3300
Text Label 1200 2600 0    60   ~ 0
UART_0.RXD
Text Label 1200 3300 0    60   ~ 0
UART_0.TXD
$Sheet
S 1750 4950 650  400 
U 5755DDF3
F0 "Shifter_OD_5" 60
F1 "levelshifter.sch" 60
F2 "LV" I L 1750 5050 60 
F3 "HL" I R 2400 5050 60 
F4 "L_IO" I L 1750 5250 60 
F5 "H_IO" I R 2400 5250 60 
$EndSheet
Wire Wire Line
	1150 5050 1750 5050
Wire Wire Line
	3250 5050 2400 5050
$Sheet
S 4450 2300 650  400 
U 5755E4CE
F0 "Shifter_OD_6" 60
F1 "levelshifter.sch" 60
F2 "LV" I L 4450 2400 60 
F3 "HL" I R 5100 2400 60 
F4 "L_IO" I L 4450 2600 60 
F5 "H_IO" I R 5100 2600 60 
$EndSheet
Wire Wire Line
	3850 2400 4450 2400
Wire Wire Line
	5950 2400 5100 2400
$Sheet
S 4450 3000 650  400 
U 5755E847
F0 "Shifter_OD_7" 60
F1 "levelshifter.sch" 60
F2 "LV" I L 4450 3100 60 
F3 "HL" I R 5100 3100 60 
F4 "L_IO" I L 4450 3300 60 
F5 "H_IO" I R 5100 3300 60 
$EndSheet
Wire Wire Line
	3850 3100 4450 3100
Wire Wire Line
	5950 3100 5100 3100
Connection ~ 1150 4400
Connection ~ 1150 5050
Connection ~ 3850 2400
Connection ~ 3250 4400
Connection ~ 3250 5050
Connection ~ 5950 2400
$Comp
L CONN_01X04 P4
U 1 1 57577274
P 9200 5750
F 0 "P4" H 9200 6000 50  0000 C CNN
F 1 "CONN_01X04" V 9300 5750 50  0000 C CNN
F 2 "Sphere_lib:Molex-UART-Male" H 9200 5750 50  0001 C CNN
F 3 "" H 9200 5750 50  0000 C CNN
F 4 "" H 9200 5750 50  0001 C CNN "FarnellLink"
F 5 "" H 9200 5750 50  0001 C CNN "DigiKeyLink"
F 6 "538-22-03-5045" H 9200 5750 50  0001 C CNN "MouserLink"
F 7 "J-17" H 9200 5750 50  0001 C CNN "InternalName"
F 8 "" H 9200 5750 50  0001 C CNN "FarnellLink"
F 9 "" H 9200 5750 50  0001 C CNN "DigiKeyLink"
F 10 "538-22-03-5045" H 9200 5750 50  0001 C CNN "MouserLink"
F 11 "J-17" H 9200 5750 50  0001 C CNN "InternalName"
	1    9200 5750
	1    0    0    -1  
$EndComp
$Comp
L GND #PWR031
U 1 1 5757776B
P 8900 5950
F 0 "#PWR031" H 8900 5700 50  0001 C CNN
F 1 "GND" H 8900 5800 50  0000 C CNN
F 2 "" H 8900 5950 50  0000 C CNN
F 3 "" H 8900 5950 50  0000 C CNN
	1    8900 5950
	1    0    0    -1  
$EndComp
Text Label 8400 5550 0    60   ~ 0
VDD_IO(1.8V)
Wire Wire Line
	8400 5550 8400 5600
Wire Wire Line
	8400 5600 9000 5600
Wire Wire Line
	9000 5900 8900 5900
Wire Wire Line
	8900 5900 8900 5950
Wire Wire Line
	9000 5700 8400 5700
Wire Wire Line
	9000 5800 8400 5800
Text Label 8400 5800 0    60   ~ 0
UART_2.RXD
Text Label 8400 5700 0    60   ~ 0
UART_2.TXD
Text HLabel 2600 4600 2    60   Input ~ 0
OD_U2_TX
Text HLabel 2650 3950 2    60   Input ~ 0
OD_U2_RX
Wire Wire Line
	2650 3950 2400 3950
Wire Wire Line
	2600 4600 2400 4600
Wire Wire Line
	1200 3950 1750 3950
Wire Wire Line
	1200 4600 1750 4600
Text Label 1200 4600 0    60   ~ 0
UART_2.TXD
Text Label 1200 3950 0    60   ~ 0
UART_2.RXD
Text Label 1300 5250 0    60   ~ 0
XE.INT14
Text Label 4000 2600 0    60   ~ 0
XE.INT22
Text Label 4000 3300 0    60   ~ 0
XE.INT21
Wire Wire Line
	1750 5250 1300 5250
Wire Wire Line
	4450 2600 4000 2600
Wire Wire Line
	4000 3300 4450 3300
Text HLabel 2550 5250 2    60   Input ~ 0
XE.INT14_3.3
Text HLabel 5250 2600 2    60   Input ~ 0
XE.INT22_3.3
Text HLabel 5250 3300 2    60   Input ~ 0
XE.INT21_3.3
Wire Wire Line
	2550 5250 2400 5250
Wire Wire Line
	5100 2600 5250 2600
Wire Wire Line
	5100 3300 5250 3300
$Comp
L CONN_01X02 P6
U 1 1 575EAD7B
P 9600 4200
F 0 "P6" H 9600 4350 50  0000 C CNN
F 1 "CONN_01X02" V 9700 4200 50  0000 C CNN
F 2 "Sphere_lib:Molex-Battery-Backup" H 9600 4200 50  0001 C CNN
F 3 "" H 9600 4200 50  0000 C CNN
F 4 "" H 9600 4200 50  0001 C CNN "FarnellLink"
F 5 "" H 9600 4200 50  0001 C CNN "DigiKeyLink"
F 6 "538-53398-0271" H 9600 4200 50  0001 C CNN "MouserLink"
F 7 "J-15" H 9600 4200 50  0001 C CNN "InternalName"
F 8 "" H 9600 4200 50  0001 C CNN "FarnellLink"
F 9 "" H 9600 4200 50  0001 C CNN "DigiKeyLink"
F 10 "538-53398-0271" H 9600 4200 50  0001 C CNN "MouserLink"
F 11 "J-15" H 9600 4200 50  0001 C CNN "InternalName"
	1    9600 4200
	1    0    0    -1  
$EndComp
$Comp
L Battery-RESCUE-Main_Control_Board CR2032
U 1 1 575EAE70
P 8800 4200
AR Path="/575EAE70" Ref="CR2032"  Part="1" 
AR Path="/5755779A/575EAE70" Ref="CR2032"  Part="1" 
F 0 "CR2032" V 8650 3750 50  0000 L CNN
F 1 "Battery" H 8900 4150 50  0000 L CNN
F 2 "Sphere_lib:CR1225" V 8800 4240 50  0001 C CNN
F 3 "" V 8800 4240 50  0000 C CNN
F 4 "" V 8800 4240 50  0001 C CNN "FarnellLink"
F 5 "" V 8800 4240 50  0001 C CNN "DigiKeyLink"
F 6 "614-SMTM1225" V 8800 4240 50  0001 C CNN "MouserLink"
F 7 "B3" V 8800 4240 50  0001 C CNN "InternalName"
F 8 "" V 8800 4240 50  0001 C CNN "FarnellLink"
F 9 "" V 8800 4240 50  0001 C CNN "DigiKeyLink"
F 10 "614-SMTM1225" V 8800 4240 50  0001 C CNN "MouserLink"
F 11 "B3" V 8800 4240 50  0001 C CNN "InternalName"
	1    8800 4200
	1    0    0    -1  
$EndComp
Wire Wire Line
	8800 4050 8800 3950
Wire Wire Line
	8800 3950 9350 3950
Wire Wire Line
	9350 3950 9350 4150
Wire Wire Line
	9350 4150 9400 4150
Wire Wire Line
	9400 4250 9350 4250
Wire Wire Line
	9350 4250 9350 4450
Wire Wire Line
	9350 4450 8800 4450
Wire Wire Line
	8800 4450 8800 4350
$Sheet
S 4450 3650 650  400 
U 5760E5E0
F0 "Shifter_OD_8" 60
F1 "levelshifter.sch" 60
F2 "LV" I L 4450 3750 60 
F3 "HL" I R 5100 3750 60 
F4 "L_IO" I L 4450 3950 60 
F5 "H_IO" I R 5100 3950 60 
$EndSheet
Wire Wire Line
	3850 3750 4450 3750
Wire Wire Line
	5950 3750 5100 3750
Text Label 4000 3950 0    60   ~ 0
XE.INT13
Wire Wire Line
	4000 3950 4450 3950
Text HLabel 5250 3950 2    60   Input ~ 0
XE.INT13_3.3
Wire Wire Line
	5100 3950 5250 3950
$Sheet
S 4450 4300 650  400 
U 5760E8D0
F0 "Shifter_OD_9" 60
F1 "levelshifter.sch" 60
F2 "LV" I L 4450 4400 60 
F3 "HL" I R 5100 4400 60 
F4 "L_IO" I L 4450 4600 60 
F5 "H_IO" I R 5100 4600 60 
$EndSheet
Wire Wire Line
	3850 4400 4450 4400
Wire Wire Line
	5950 4400 5100 4400
Text Label 4000 4600 0    60   ~ 0
XE.INT10
Wire Wire Line
	4000 4600 4450 4600
Text HLabel 5250 4600 2    60   Input ~ 0
XE.INT10_3.3
Wire Wire Line
	5100 4600 5250 4600
$Sheet
S 4450 4950 650  400 
U 5760EBC0
F0 "Shifter_OD_10" 60
F1 "levelshifter.sch" 60
F2 "LV" I L 4450 5050 60 
F3 "HL" I R 5100 5050 60 
F4 "L_IO" I L 4450 5250 60 
F5 "H_IO" I R 5100 5250 60 
$EndSheet
Wire Wire Line
	3850 5050 4450 5050
Wire Wire Line
	5950 5050 5100 5050
Text Label 4000 5250 0    60   ~ 0
XE.INT15
Wire Wire Line
	4000 5250 4450 5250
Text HLabel 5250 5250 2    60   Input ~ 0
XE.INT15_3.3
Wire Wire Line
	5100 5250 5250 5250
$Sheet
S 4450 5750 650  400 
U 5760EF88
F0 "Shifter_OD_11" 60
F1 "levelshifter.sch" 60
F2 "LV" I L 4450 5850 60 
F3 "HL" I R 5100 5850 60 
F4 "L_IO" I L 4450 6050 60 
F5 "H_IO" I R 5100 6050 60 
$EndSheet
Wire Wire Line
	3850 5850 4450 5850
Wire Wire Line
	5950 5850 5100 5850
Text Label 4000 6050 0    60   ~ 0
XE.INT25
Wire Wire Line
	4000 6050 4450 6050
Text HLabel 5250 6050 2    60   Input ~ 0
XE.INT25_3.3
Wire Wire Line
	5100 6050 5250 6050
Connection ~ 5950 3100
Connection ~ 5950 3750
Connection ~ 5950 4400
Connection ~ 5950 5050
Connection ~ 3850 3100
Connection ~ 3850 3750
Connection ~ 3850 4400
Connection ~ 3850 5050
$Comp
L GND #PWR032
U 1 1 58262C3F
P 9250 4500
F 0 "#PWR032" H 9250 4250 50  0001 C CNN
F 1 "GND" H 9250 4350 50  0000 C CNN
F 2 "" H 9250 4500 50  0000 C CNN
F 3 "" H 9250 4500 50  0000 C CNN
	1    9250 4500
	1    0    0    -1  
$EndComp
Wire Wire Line
	9250 4500 9250 4450
Connection ~ 9250 4450
Wire Wire Line
	9250 3950 9250 3850
Connection ~ 9250 3950
Text HLabel 9250 3850 1    60   Input ~ 0
Vbat
NoConn ~ 8350 1650
NoConn ~ 8350 1750
NoConn ~ 8350 1850
NoConn ~ 8350 1950
NoConn ~ 8350 2050
NoConn ~ 8350 2650
NoConn ~ 10000 2750
NoConn ~ 10000 2650
NoConn ~ 10000 2550
NoConn ~ 10000 2450
NoConn ~ 10000 2350
NoConn ~ 10000 2250
NoConn ~ 10000 2150
NoConn ~ 10000 1950
NoConn ~ 10000 1650
$Sheet
S 1750 5700 650  450 
U 58ADECD0
F0 "Shifter OD_PWRON" 60
F1 "levelshifter.sch" 60
F2 "LV" I L 1750 5850 60 
F3 "HL" I R 2400 5850 60 
F4 "L_IO" I L 1750 6050 60 
F5 "H_IO" I R 2400 6050 60 
$EndSheet
Wire Wire Line
	3250 5850 2400 5850
Wire Wire Line
	1750 6050 1400 6050
Text Label 1400 6050 0    60   ~ 0
PWRON
Text HLabel 2700 6050 2    60   BiDi ~ 0
LPC_OD_PWRON
Wire Wire Line
	2700 6050 2400 6050
Text Notes 7800 900  0    118  ~ 0
Connector
Text Notes 7900 3550 0    118  ~ 0
Real Time Clock Connector
Text Notes 7950 5200 0    118  ~ 0
ODROID UART2 Connector
Wire Notes Line
	7500 500  7500 6500
Wire Notes Line
	7500 3300 11200 3300
Wire Notes Line
	7500 4850 11200 4850
Wire Wire Line
	1150 1950 1150 5850
Wire Wire Line
	1150 5850 1750 5850
Wire Wire Line
	3250 2050 3250 5850
$Comp
L +3.3V #PWR?
U 1 1 59E0688A
P 5950 2050
F 0 "#PWR?" H 5950 1900 50  0001 C CNN
F 1 "+3.3V" H 5950 2190 50  0000 C CNN
F 2 "" H 5950 2050 50  0000 C CNN
F 3 "" H 5950 2050 50  0000 C CNN
	1    5950 2050
	1    0    0    -1  
$EndComp
Wire Wire Line
	3850 2000 3850 5850
Text Label 3850 2000 0    60   ~ 0
VDD_IO(1.8V)
Wire Wire Line
	5950 2050 5950 5850
Text Notes 1200 950  0    118  ~ 0
Level Shifters: 1.8V to 3.3
$EndSCHEMATC
