EESchema Schematic File Version 2
LIBS:Main_Control_Board-rescue
LIBS:power
LIBS:device
LIBS:transistors
LIBS:conn
LIBS:linear
LIBS:regul
LIBS:74xx
LIBS:cmos4000
LIBS:adc-dac
LIBS:memory
LIBS:xilinx
LIBS:microcontrollers
LIBS:dsp
LIBS:microchip
LIBS:analog_switches
LIBS:motorola
LIBS:texas
LIBS:intel
LIBS:audio
LIBS:interface
LIBS:digital-audio
LIBS:philips
LIBS:display
LIBS:cypress
LIBS:siliconi
LIBS:opto
LIBS:atmel
LIBS:contrib
LIBS:valves
LIBS:Sphere_lib
LIBS:Main_Control_Board-cache
EELAYER 25 0
EELAYER END
$Descr A4 11693 8268
encoding utf-8
Sheet 2 23
Title "Main Sensors Board "
Date "2017-10-09"
Rev "0.3"
Comp "DROP Lab, University of Michigan"
Comment1 "Designed by Eduardo Iscar "
Comment2 ""
Comment3 ""
Comment4 ""
$EndDescr
$Comp
L Crystal_Small Y1
U 1 1 570FBF6F
P 7600 2450
F 0 "Y1" H 7700 2400 50  0000 C CNN
F 1 "16MHz" H 7600 2550 50  0000 C CNN
F 2 "Crystals:Crystal_HC50-U_Vertical" H 7600 2450 50  0001 C CNN
F 3 "" H 7600 2450 50  0000 C CNN
F 4 "" H 7600 2450 50  0001 C CNN "FarnellLink"
F 5 "" H 7600 2450 50  0001 C CNN "DigiKeyLink"
F 6 "815-ABL-16-B2" H 7600 2450 50  0001 C CNN "MouserLink"
F 7 "X3" H 7600 2450 50  0001 C CNN "InternalName"
F 8 "" H 7600 2450 50  0001 C CNN "FarnellLink"
F 9 "" H 7600 2450 50  0001 C CNN "DigiKeyLink"
F 10 "815-ABL-16-B2" H 7600 2450 50  0001 C CNN "MouserLink"
F 11 "X3" H 7600 2450 50  0001 C CNN "InternalName"
	1    7600 2450
	-1   0    0    1   
$EndComp
$Comp
L C C3
U 1 1 570FC161
P 7450 2700
F 0 "C3" H 7475 2800 50  0000 L CNN
F 1 "22pF" H 7475 2600 50  0000 L CNN
F 2 "Capacitors_SMD:C_0603_HandSoldering" H 7488 2550 50  0001 C CNN
F 3 "" H 7450 2700 50  0000 C CNN
F 4 "" H 7450 2700 50  0001 C CNN "FarnellLink"
F 5 "" H 7450 2700 50  0001 C CNN "DigiKeyLink"
F 6 "81-GRM39C220F50" H 7450 2700 50  0001 C CNN "MouserLink"
F 7 "C10" H 7450 2700 50  0001 C CNN "InternalName"
F 8 "" H 7450 2700 50  0001 C CNN "FarnellLink"
F 9 "" H 7450 2700 50  0001 C CNN "DigiKeyLink"
F 10 "81-GRM39C220F50" H 7450 2700 50  0001 C CNN "MouserLink"
F 11 "C10" H 7450 2700 50  0001 C CNN "InternalName"
	1    7450 2700
	-1   0    0    1   
$EndComp
$Comp
L +5V #PWR013
U 1 1 570FC200
P 4750 1600
F 0 "#PWR013" H 4750 1450 50  0001 C CNN
F 1 "+5V" H 4750 1740 50  0000 C CNN
F 2 "" H 4750 1600 50  0000 C CNN
F 3 "" H 4750 1600 50  0000 C CNN
	1    4750 1600
	1    0    0    -1  
$EndComp
$Comp
L ATMEGA328P-A IC1
U 1 1 570FC396
P 5800 2850
F 0 "IC1" H 5050 4100 50  0000 L BNN
F 1 "ATMEGA328P-A" H 6200 1450 50  0000 L BNN
F 2 "Sphere_lib:QFP_32" H 5800 2850 50  0000 C CIN
F 3 "" H 5800 2850 50  0000 C CNN
F 4 "" H 5800 2850 50  0001 C CNN "FarnellLink"
F 5 "" H 5800 2850 50  0001 C CNN "DigiKeyLink"
F 6 "556-ATMEGA328P-AU" H 5800 2850 50  0001 C CNN "MouserLink"
F 7 "U14" H 5800 2850 50  0001 C CNN "InternalName"
F 8 "" H 5800 2850 50  0001 C CNN "FarnellLink"
F 9 "" H 5800 2850 50  0001 C CNN "DigiKeyLink"
F 10 "556-ATMEGA328P-AU" H 5800 2850 50  0001 C CNN "MouserLink"
F 11 "U14" H 5800 2850 50  0001 C CNN "InternalName"
	1    5800 2850
	1    0    0    -1  
$EndComp
$Comp
L +5V #PWR014
U 1 1 570FC6BE
P 4550 1600
F 0 "#PWR014" H 4550 1450 50  0001 C CNN
F 1 "+5V" H 4550 1740 50  0000 C CNN
F 2 "" H 4550 1600 50  0000 C CNN
F 3 "" H 4550 1600 50  0000 C CNN
	1    4550 1600
	1    0    0    -1  
$EndComp
$Comp
L C C1
U 1 1 570FC6F8
P 4550 1850
F 0 "C1" H 4575 1950 50  0000 L CNN
F 1 "0.1uF" H 4575 1750 50  0000 L CNN
F 2 "Capacitors_SMD:C_0603_HandSoldering" H 4588 1700 50  0001 C CNN
F 3 "" H 4550 1850 50  0000 C CNN
F 4 "" H 4550 1850 50  0001 C CNN "FarnellLink"
F 5 "" H 4550 1850 50  0001 C CNN "DigiKeyLink"
F 6 "81-GRM39X104K50D" H 4550 1850 50  0001 C CNN "MouserLink"
F 7 "C12" H 4550 1850 50  0001 C CNN "InternalName"
F 8 "" H 4550 1850 50  0001 C CNN "FarnellLink"
F 9 "" H 4550 1850 50  0001 C CNN "DigiKeyLink"
F 10 "81-GRM39X104K50D" H 4550 1850 50  0001 C CNN "MouserLink"
F 11 "C12" H 4550 1850 50  0001 C CNN "InternalName"
	1    4550 1850
	1    0    0    -1  
$EndComp
Text Label 7100 3200 2    60   ~ 0
RESET_A
$Comp
L CONN_02X03 P3
U 1 1 570FCE85
P 9650 4100
F 0 "P3" H 9650 4300 50  0000 C CNN
F 1 "CONN_02X03" H 9650 3900 50  0000 C CNN
F 2 "Sphere_lib:AVR-ISP" H 9650 2900 50  0001 C CNN
F 3 "" H 9650 2900 50  0000 C CNN
F 4 "" H 9650 2900 50  0001 C CNN "FarnellLink"
F 5 "" H 9650 2900 50  0001 C CNN "DigiKeyLink"
F 6 "538-90131-0763" H 9650 2900 50  0001 C CNN "MouserLink"
F 7 "J22" H 9650 2900 50  0001 C CNN "InternalName"
F 8 "" H 9650 2900 50  0001 C CNN "FarnellLink"
F 9 "" H 9650 2900 50  0001 C CNN "DigiKeyLink"
F 10 "538-90131-0763" H 9650 2900 50  0001 C CNN "MouserLink"
F 11 "J22" H 9650 2900 50  0001 C CNN "InternalName"
	1    9650 4100
	1    0    0    -1  
$EndComp
Text Label 10100 4100 2    60   ~ 0
MOSI
Text Label 9200 4100 0    60   ~ 0
SCK
Text Label 9050 4200 0    60   ~ 0
RESET_A
Text Label 9200 4000 0    60   ~ 0
MISO
$Comp
L +5V #PWR015
U 1 1 570FD0BF
P 10100 3950
F 0 "#PWR015" H 10100 3800 50  0001 C CNN
F 1 "+5V" H 10100 4090 50  0000 C CNN
F 2 "" H 10100 3950 50  0000 C CNN
F 3 "" H 10100 3950 50  0000 C CNN
	1    10100 3950
	1    0    0    -1  
$EndComp
Text Label 7100 2150 2    60   ~ 0
MISO
Text Label 7100 2250 2    60   ~ 0
SCK
Text Label 7100 2050 2    60   ~ 0
MOSI
Text HLabel 1500 2050 0    60   Input ~ 0
SDA
Text HLabel 1500 2700 0    60   Input ~ 0
SCL
Text Label 2850 2050 2    60   ~ 0
SDA_A
Text Label 2850 2700 2    60   ~ 0
SCL_A
Text Label 7100 3000 2    60   ~ 0
SDA_A
Text Label 7100 3100 2    60   ~ 0
SCL_A
Text HLabel 1600 4550 0    60   Input ~ 0
/ARESET
Text HLabel 1550 3300 0    60   Input ~ 0
RXD
Text HLabel 1550 3900 0    60   Input ~ 0
TXD
$Comp
L C C2
U 1 1 570FC098
P 7800 2700
F 0 "C2" H 7825 2800 50  0000 L CNN
F 1 "22pF" H 7600 2600 50  0000 L CNN
F 2 "Capacitors_SMD:C_0603_HandSoldering" H 7838 2550 50  0001 C CNN
F 3 "" H 7800 2700 50  0000 C CNN
F 4 "" H 7800 2700 50  0001 C CNN "FarnellLink"
F 5 "" H 7800 2700 50  0001 C CNN "DigiKeyLink"
F 6 "81-GRM39C220F50" H 7800 2700 50  0001 C CNN "MouserLink"
F 7 "C10" H 7800 2700 50  0001 C CNN "InternalName"
F 8 "" H 7800 2700 50  0001 C CNN "FarnellLink"
F 9 "" H 7800 2700 50  0001 C CNN "DigiKeyLink"
F 10 "81-GRM39C220F50" H 7800 2700 50  0001 C CNN "MouserLink"
F 11 "C10" H 7800 2700 50  0001 C CNN "InternalName"
	1    7800 2700
	-1   0    0    1   
$EndComp
Text Label 7100 3350 2    60   ~ 0
RXD_A
Text Label 7100 3450 2    60   ~ 0
TXD_A
$Sheet
S 1900 1750 550  400 
U 57508F86
F0 "Lev-Shifter_1" 60
F1 "levelshifter.sch" 60
F2 "LV" I L 1900 1850 60 
F3 "HL" I R 2450 1850 60 
F4 "L_IO" I L 1900 2050 60 
F5 "H_IO" I R 2450 2050 60 
$EndSheet
$Comp
L +5V #PWR016
U 1 1 57509642
P 2900 1600
F 0 "#PWR016" H 2900 1450 50  0001 C CNN
F 1 "+5V" H 2900 1740 50  0000 C CNN
F 2 "" H 2900 1600 50  0000 C CNN
F 3 "" H 2900 1600 50  0000 C CNN
	1    2900 1600
	1    0    0    -1  
$EndComp
$Comp
L +3.3V #PWR017
U 1 1 575096C6
P 1650 1550
F 0 "#PWR017" H 1650 1400 50  0001 C CNN
F 1 "+3.3V" H 1650 1690 50  0000 C CNN
F 2 "" H 1650 1550 50  0000 C CNN
F 3 "" H 1650 1550 50  0000 C CNN
	1    1650 1550
	1    0    0    -1  
$EndComp
$Sheet
S 1900 2400 550  400 
U 57509934
F0 "Lev-Shifter_2" 60
F1 "levelshifter.sch" 60
F2 "LV" I L 1900 2500 60 
F3 "HL" I R 2450 2500 60 
F4 "L_IO" I L 1900 2700 60 
F5 "H_IO" I R 2450 2700 60 
$EndSheet
$Sheet
S 1900 3000 550  400 
U 57509DD3
F0 "Lev-Shifter_3" 60
F1 "levelshifter.sch" 60
F2 "LV" I L 1900 3100 60 
F3 "HL" I R 2450 3100 60 
F4 "L_IO" I L 1900 3300 60 
F5 "H_IO" I R 2450 3300 60 
$EndSheet
$Sheet
S 1900 3600 550  400 
U 5750A01B
F0 "Lev-Shifter_4" 60
F1 "levelshifter.sch" 60
F2 "LV" I L 1900 3700 60 
F3 "HL" I R 2450 3700 60 
F4 "L_IO" I L 1900 3900 60 
F5 "H_IO" I R 2450 3900 60 
$EndSheet
$Sheet
S 1900 4250 550  400 
U 5750AF70
F0 "Lev-Shifter_5" 60
F1 "levelshifter.sch" 60
F2 "LV" I L 1900 4350 60 
F3 "HL" I R 2450 4350 60 
F4 "L_IO" I L 1900 4550 60 
F5 "H_IO" I R 2450 4550 60 
$EndSheet
Text Label 2850 4550 2    60   ~ 0
RESET_A
Text Label 2850 3300 2    60   ~ 0
RXD_A
Text Label 2850 3900 2    60   ~ 0
TXD_A
$Comp
L WS5050 D3
U 1 1 5751E5F3
P 1650 6200
F 0 "D3" H 1600 6750 60  0000 C CNN
F 1 "WS5050" H 1650 6200 60  0000 C CNN
F 2 "Sphere_lib:WS2812B" H 1650 6200 60  0001 C CNN
F 3 "" H 1650 6200 60  0000 C CNN
F 4 "" H 1650 6200 60  0001 C CNN "FarnellLink"
F 5 "" H 1650 6200 60  0001 C CNN "DigiKeyLink"
F 6 "https://www.adafruit.com/product/1655" H 1650 6200 60  0001 C CNN "MouserLink"
F 7 "D4" H 1650 6200 60  0001 C CNN "InternalName"
F 8 "" H 1650 6200 60  0001 C CNN "FarnellLink"
F 9 "" H 1650 6200 60  0001 C CNN "DigiKeyLink"
F 10 "https://www.adafruit.com/product/1655" H 1650 6200 60  0001 C CNN "MouserLink"
F 11 "D4" H 1650 6200 60  0001 C CNN "InternalName"
	1    1650 6200
	1    0    0    -1  
$EndComp
$Comp
L WS5050 D4
U 1 1 5751F2DC
P 2950 6200
F 0 "D4" H 2900 6750 60  0000 C CNN
F 1 "WS5050" H 2950 6200 60  0000 C CNN
F 2 "Sphere_lib:WS2812B" H 2950 6200 60  0001 C CNN
F 3 "" H 2950 6200 60  0000 C CNN
F 4 "" H 2950 6200 60  0001 C CNN "FarnellLink"
F 5 "" H 2950 6200 60  0001 C CNN "DigiKeyLink"
F 6 "https://www.adafruit.com/product/1655" H 2950 6200 60  0001 C CNN "MouserLink"
F 7 "D4" H 2950 6200 60  0001 C CNN "InternalName"
F 8 "" H 2950 6200 60  0001 C CNN "FarnellLink"
F 9 "" H 2950 6200 60  0001 C CNN "DigiKeyLink"
F 10 "https://www.adafruit.com/product/1655" H 2950 6200 60  0001 C CNN "MouserLink"
F 11 "D4" H 2950 6200 60  0001 C CNN "InternalName"
	1    2950 6200
	1    0    0    -1  
$EndComp
$Comp
L WS5050 D5
U 1 1 5751F3B3
P 4100 6200
F 0 "D5" H 4050 6750 60  0000 C CNN
F 1 "WS5050" H 4100 6200 60  0000 C CNN
F 2 "Sphere_lib:WS2812B" H 4100 6200 60  0001 C CNN
F 3 "" H 4100 6200 60  0000 C CNN
F 4 "" H 4100 6200 60  0001 C CNN "FarnellLink"
F 5 "" H 4100 6200 60  0001 C CNN "DigiKeyLink"
F 6 "https://www.adafruit.com/product/1655" H 4100 6200 60  0001 C CNN "MouserLink"
F 7 "D4" H 4100 6200 60  0001 C CNN "InternalName"
F 8 "" H 4100 6200 60  0001 C CNN "FarnellLink"
F 9 "" H 4100 6200 60  0001 C CNN "DigiKeyLink"
F 10 "https://www.adafruit.com/product/1655" H 4100 6200 60  0001 C CNN "MouserLink"
F 11 "D4" H 4100 6200 60  0001 C CNN "InternalName"
	1    4100 6200
	1    0    0    -1  
$EndComp
$Comp
L WS5050 D7
U 1 1 5751F55E
P 6450 6200
F 0 "D7" H 6400 6750 60  0000 C CNN
F 1 "WS5050" H 6450 6200 60  0000 C CNN
F 2 "Sphere_lib:WS2812B" H 6450 6200 60  0001 C CNN
F 3 "" H 6450 6200 60  0000 C CNN
F 4 "" H 6450 6200 60  0001 C CNN "FarnellLink"
F 5 "" H 6450 6200 60  0001 C CNN "DigiKeyLink"
F 6 "https://www.adafruit.com/product/1655" H 6450 6200 60  0001 C CNN "MouserLink"
F 7 "D4" H 6450 6200 60  0001 C CNN "InternalName"
F 8 "" H 6450 6200 60  0001 C CNN "FarnellLink"
F 9 "" H 6450 6200 60  0001 C CNN "DigiKeyLink"
F 10 "https://www.adafruit.com/product/1655" H 6450 6200 60  0001 C CNN "MouserLink"
F 11 "D4" H 6450 6200 60  0001 C CNN "InternalName"
	1    6450 6200
	1    0    0    -1  
$EndComp
$Comp
L WS5050 D8
U 1 1 5751F64E
P 7650 6200
F 0 "D8" H 7600 6750 60  0000 C CNN
F 1 "WS5050" H 7650 6200 60  0000 C CNN
F 2 "Sphere_lib:WS2812B" H 7650 6200 60  0001 C CNN
F 3 "" H 7650 6200 60  0000 C CNN
F 4 "" H 7650 6200 60  0001 C CNN "FarnellLink"
F 5 "" H 7650 6200 60  0001 C CNN "DigiKeyLink"
F 6 "https://www.adafruit.com/product/1655" H 7650 6200 60  0001 C CNN "MouserLink"
F 7 "D4" H 7650 6200 60  0001 C CNN "InternalName"
F 8 "" H 7650 6200 60  0001 C CNN "FarnellLink"
F 9 "" H 7650 6200 60  0001 C CNN "DigiKeyLink"
F 10 "https://www.adafruit.com/product/1655" H 7650 6200 60  0001 C CNN "MouserLink"
F 11 "D4" H 7650 6200 60  0001 C CNN "InternalName"
	1    7650 6200
	1    0    0    -1  
$EndComp
$Comp
L WS5050 D11
U 1 1 5751F72F
P 8850 6200
F 0 "D11" H 8800 6750 60  0000 C CNN
F 1 "WS5050" H 8850 6200 60  0000 C CNN
F 2 "Sphere_lib:WS2812B" H 8850 6200 60  0001 C CNN
F 3 "" H 8850 6200 60  0000 C CNN
F 4 "" H 8850 6200 60  0001 C CNN "FarnellLink"
F 5 "" H 8850 6200 60  0001 C CNN "DigiKeyLink"
F 6 "https://www.adafruit.com/product/1655" H 8850 6200 60  0001 C CNN "MouserLink"
F 7 "D4" H 8850 6200 60  0001 C CNN "InternalName"
F 8 "" H 8850 6200 60  0001 C CNN "FarnellLink"
F 9 "" H 8850 6200 60  0001 C CNN "DigiKeyLink"
F 10 "https://www.adafruit.com/product/1655" H 8850 6200 60  0001 C CNN "MouserLink"
F 11 "D4" H 8850 6200 60  0001 C CNN "InternalName"
	1    8850 6200
	1    0    0    -1  
$EndComp
$Comp
L +5V #PWR018
U 1 1 575212FC
P 950 5450
F 0 "#PWR018" H 950 5300 50  0001 C CNN
F 1 "+5V" H 950 5590 50  0000 C CNN
F 2 "" H 950 5450 50  0000 C CNN
F 3 "" H 950 5450 50  0000 C CNN
	1    950  5450
	1    0    0    -1  
$EndComp
$Comp
L R R8
U 1 1 575371C0
P 1000 6100
F 0 "R8" V 1080 6100 50  0000 C CNN
F 1 "500" V 1000 6100 50  0000 C CNN
F 2 "Resistors_SMD:R_0603_HandSoldering" V 930 6100 50  0001 C CNN
F 3 "" H 1000 6100 50  0000 C CNN
F 4 "" H 1000 6100 50  0001 C CNN "FarnellLink"
F 5 "" H 1000 6100 50  0001 C CNN "DigiKeyLink"
F 6 "71-CRCW0603-499-E3" H 1000 6100 50  0001 C CNN "MouserLink"
F 7 "R11" H 1000 6100 50  0001 C CNN "InternalName"
F 8 "" H 1000 6100 50  0001 C CNN "FarnellLink"
F 9 "" H 1000 6100 50  0001 C CNN "DigiKeyLink"
F 10 "71-CRCW0603-499-E3" H 1000 6100 50  0001 C CNN "MouserLink"
F 11 "R11" H 1000 6100 50  0001 C CNN "InternalName"
	1    1000 6100
	0    1    1    0   
$EndComp
Text Label 600  6050 0    60   ~ 0
LED_DATA
$Comp
L +5V #PWR019
U 1 1 57539224
P 2750 6900
F 0 "#PWR019" H 2750 6750 50  0001 C CNN
F 1 "+5V" H 2750 7040 50  0000 C CNN
F 2 "" H 2750 6900 50  0000 C CNN
F 3 "" H 2750 6900 50  0000 C CNN
	1    2750 6900
	1    0    0    -1  
$EndComp
$Comp
L C C18
U 1 1 57539C26
P 1800 7250
F 0 "C18" H 1825 7350 50  0000 L CNN
F 1 "0.1uF" H 1825 7150 50  0000 L CNN
F 2 "Capacitors_SMD:C_0603_HandSoldering" H 1838 7100 50  0001 C CNN
F 3 "" H 1800 7250 50  0000 C CNN
F 4 "" H 1800 7250 50  0001 C CNN "FarnellLink"
F 5 "" H 1800 7250 50  0001 C CNN "DigiKeyLink"
F 6 "81-GRM39X104K50D" H 1800 7250 50  0001 C CNN "MouserLink"
F 7 "C12" H 1800 7250 50  0001 C CNN "InternalName"
F 8 "" H 1800 7250 50  0001 C CNN "FarnellLink"
F 9 "" H 1800 7250 50  0001 C CNN "DigiKeyLink"
F 10 "81-GRM39X104K50D" H 1800 7250 50  0001 C CNN "MouserLink"
F 11 "C12" H 1800 7250 50  0001 C CNN "InternalName"
	1    1800 7250
	1    0    0    -1  
$EndComp
$Comp
L C C19
U 1 1 5753A311
P 2100 7250
F 0 "C19" H 2125 7350 50  0000 L CNN
F 1 "0.1uF" H 2125 7150 50  0000 L CNN
F 2 "Capacitors_SMD:C_0603_HandSoldering" H 2138 7100 50  0001 C CNN
F 3 "" H 2100 7250 50  0000 C CNN
F 4 "" H 2100 7250 50  0001 C CNN "FarnellLink"
F 5 "" H 2100 7250 50  0001 C CNN "DigiKeyLink"
F 6 "81-GRM39X104K50D" H 2100 7250 50  0001 C CNN "MouserLink"
F 7 "C12" H 2100 7250 50  0001 C CNN "InternalName"
F 8 "" H 2100 7250 50  0001 C CNN "FarnellLink"
F 9 "" H 2100 7250 50  0001 C CNN "DigiKeyLink"
F 10 "81-GRM39X104K50D" H 2100 7250 50  0001 C CNN "MouserLink"
F 11 "C12" H 2100 7250 50  0001 C CNN "InternalName"
	1    2100 7250
	1    0    0    -1  
$EndComp
$Comp
L C C20
U 1 1 5753A3D9
P 2350 7250
F 0 "C20" H 2375 7350 50  0000 L CNN
F 1 "0.1uF" H 2375 7150 50  0000 L CNN
F 2 "Capacitors_SMD:C_0603_HandSoldering" H 2388 7100 50  0001 C CNN
F 3 "" H 2350 7250 50  0000 C CNN
F 4 "" H 2350 7250 50  0001 C CNN "FarnellLink"
F 5 "" H 2350 7250 50  0001 C CNN "DigiKeyLink"
F 6 "81-GRM39X104K50D" H 2350 7250 50  0001 C CNN "MouserLink"
F 7 "C12" H 2350 7250 50  0001 C CNN "InternalName"
F 8 "" H 2350 7250 50  0001 C CNN "FarnellLink"
F 9 "" H 2350 7250 50  0001 C CNN "DigiKeyLink"
F 10 "81-GRM39X104K50D" H 2350 7250 50  0001 C CNN "MouserLink"
F 11 "C12" H 2350 7250 50  0001 C CNN "InternalName"
	1    2350 7250
	1    0    0    -1  
$EndComp
$Comp
L C C21
U 1 1 5753A4B0
P 2650 7250
F 0 "C21" H 2675 7350 50  0000 L CNN
F 1 "0.1uF" H 2675 7150 50  0000 L CNN
F 2 "Capacitors_SMD:C_0603_HandSoldering" H 2688 7100 50  0001 C CNN
F 3 "" H 2650 7250 50  0000 C CNN
F 4 "" H 2650 7250 50  0001 C CNN "FarnellLink"
F 5 "" H 2650 7250 50  0001 C CNN "DigiKeyLink"
F 6 "81-GRM39X104K50D" H 2650 7250 50  0001 C CNN "MouserLink"
F 7 "C12" H 2650 7250 50  0001 C CNN "InternalName"
F 8 "" H 2650 7250 50  0001 C CNN "FarnellLink"
F 9 "" H 2650 7250 50  0001 C CNN "DigiKeyLink"
F 10 "81-GRM39X104K50D" H 2650 7250 50  0001 C CNN "MouserLink"
F 11 "C12" H 2650 7250 50  0001 C CNN "InternalName"
	1    2650 7250
	1    0    0    -1  
$EndComp
$Comp
L C C22
U 1 1 5753A57C
P 2900 7250
F 0 "C22" H 2925 7350 50  0000 L CNN
F 1 "0.1uF" H 2925 7150 50  0000 L CNN
F 2 "Capacitors_SMD:C_0603_HandSoldering" H 2938 7100 50  0001 C CNN
F 3 "" H 2900 7250 50  0000 C CNN
F 4 "" H 2900 7250 50  0001 C CNN "FarnellLink"
F 5 "" H 2900 7250 50  0001 C CNN "DigiKeyLink"
F 6 "81-GRM39X104K50D" H 2900 7250 50  0001 C CNN "MouserLink"
F 7 "C12" H 2900 7250 50  0001 C CNN "InternalName"
F 8 "" H 2900 7250 50  0001 C CNN "FarnellLink"
F 9 "" H 2900 7250 50  0001 C CNN "DigiKeyLink"
F 10 "81-GRM39X104K50D" H 2900 7250 50  0001 C CNN "MouserLink"
F 11 "C12" H 2900 7250 50  0001 C CNN "InternalName"
	1    2900 7250
	1    0    0    -1  
$EndComp
$Comp
L C C23
U 1 1 5753A64B
P 3150 7250
F 0 "C23" H 3175 7350 50  0000 L CNN
F 1 "0.1uF" H 3175 7150 50  0000 L CNN
F 2 "Capacitors_SMD:C_0603_HandSoldering" H 3188 7100 50  0001 C CNN
F 3 "" H 3150 7250 50  0000 C CNN
F 4 "" H 3150 7250 50  0001 C CNN "FarnellLink"
F 5 "" H 3150 7250 50  0001 C CNN "DigiKeyLink"
F 6 "81-GRM39X104K50D" H 3150 7250 50  0001 C CNN "MouserLink"
F 7 "C12" H 3150 7250 50  0001 C CNN "InternalName"
F 8 "" H 3150 7250 50  0001 C CNN "FarnellLink"
F 9 "" H 3150 7250 50  0001 C CNN "DigiKeyLink"
F 10 "81-GRM39X104K50D" H 3150 7250 50  0001 C CNN "MouserLink"
F 11 "C12" H 3150 7250 50  0001 C CNN "InternalName"
	1    3150 7250
	1    0    0    -1  
$EndComp
$Comp
L C C24
U 1 1 5753B347
P 3400 7250
F 0 "C24" H 3425 7350 50  0000 L CNN
F 1 "0.1uF" H 3425 7150 50  0000 L CNN
F 2 "Capacitors_SMD:C_0603_HandSoldering" H 3438 7100 50  0001 C CNN
F 3 "" H 3400 7250 50  0000 C CNN
F 4 "" H 3400 7250 50  0001 C CNN "FarnellLink"
F 5 "" H 3400 7250 50  0001 C CNN "DigiKeyLink"
F 6 "81-GRM39X104K50D" H 3400 7250 50  0001 C CNN "MouserLink"
F 7 "C12" H 3400 7250 50  0001 C CNN "InternalName"
F 8 "" H 3400 7250 50  0001 C CNN "FarnellLink"
F 9 "" H 3400 7250 50  0001 C CNN "DigiKeyLink"
F 10 "81-GRM39X104K50D" H 3400 7250 50  0001 C CNN "MouserLink"
F 11 "C12" H 3400 7250 50  0001 C CNN "InternalName"
	1    3400 7250
	1    0    0    -1  
$EndComp
$Comp
L C C25
U 1 1 5753B422
P 3650 7250
F 0 "C25" H 3675 7350 50  0000 L CNN
F 1 "0.1uF" H 3675 7150 50  0000 L CNN
F 2 "Capacitors_SMD:C_0603_HandSoldering" H 3688 7100 50  0001 C CNN
F 3 "" H 3650 7250 50  0000 C CNN
F 4 "" H 3650 7250 50  0001 C CNN "FarnellLink"
F 5 "" H 3650 7250 50  0001 C CNN "DigiKeyLink"
F 6 "81-GRM39X104K50D" H 3650 7250 50  0001 C CNN "MouserLink"
F 7 "C12" H 3650 7250 50  0001 C CNN "InternalName"
F 8 "" H 3650 7250 50  0001 C CNN "FarnellLink"
F 9 "" H 3650 7250 50  0001 C CNN "DigiKeyLink"
F 10 "81-GRM39X104K50D" H 3650 7250 50  0001 C CNN "MouserLink"
F 11 "C12" H 3650 7250 50  0001 C CNN "InternalName"
	1    3650 7250
	1    0    0    -1  
$EndComp
Text Notes 4500 7650 2    60   ~ 0
Place one cap close to each LED 
Text Label 7300 3950 2    60   ~ 0
LED_DATA
Text Label 7100 3650 2    60   ~ 0
LED1
Text Label 7100 3750 2    60   ~ 0
LED2
$Comp
L LED-RESCUE-Main_Control_Board D9
U 1 1 575FE795
P 9450 1800
AR Path="/575FE795" Ref="D9"  Part="1" 
AR Path="/57504772/575FE795" Ref="D9"  Part="1" 
F 0 "D9" H 9450 1900 50  0000 C CNN
F 1 "LED" H 9450 1700 50  0000 C CNN
F 2 "Diodes_SMD:D_0603" H 9450 1800 50  0001 C CNN
F 3 "" H 9450 1800 50  0000 C CNN
F 4 "" H 9450 1800 50  0001 C CNN "FarnellLink"
F 5 "" H 9450 1800 50  0001 C CNN "DigiKeyLink"
F 6 "593-VAOL-S6GT4" H 9450 1800 50  0001 C CNN "MouserLink"
F 7 "D1" H 9450 1800 50  0001 C CNN "InternalName"
F 8 "" H 9450 1800 50  0001 C CNN "FarnellLink"
F 9 "" H 9450 1800 50  0001 C CNN "DigiKeyLink"
F 10 "593-VAOL-S6GT4" H 9450 1800 50  0001 C CNN "MouserLink"
F 11 "D1" H 9450 1800 50  0001 C CNN "InternalName"
	1    9450 1800
	0    -1   -1   0   
$EndComp
$Comp
L LED-RESCUE-Main_Control_Board D10
U 1 1 575FE89F
P 9850 1800
AR Path="/575FE89F" Ref="D10"  Part="1" 
AR Path="/57504772/575FE89F" Ref="D10"  Part="1" 
F 0 "D10" H 9850 1900 50  0000 C CNN
F 1 "LED" H 9850 1700 50  0000 C CNN
F 2 "Diodes_SMD:D_0603" H 9850 1800 50  0001 C CNN
F 3 "" H 9850 1800 50  0000 C CNN
F 4 "" H 9850 1800 50  0001 C CNN "FarnellLink"
F 5 "" H 9850 1800 50  0001 C CNN "DigiKeyLink"
F 6 "696-SMLFM0603SICTR" H 9850 1800 50  0001 C CNN "MouserLink"
F 7 "D2" H 9850 1800 50  0001 C CNN "InternalName"
F 8 "" H 9850 1800 50  0001 C CNN "FarnellLink"
F 9 "" H 9850 1800 50  0001 C CNN "DigiKeyLink"
F 10 "696-SMLFM0603SICTR" H 9850 1800 50  0001 C CNN "MouserLink"
F 11 "D2" H 9850 1800 50  0001 C CNN "InternalName"
	1    9850 1800
	0    -1   -1   0   
$EndComp
$Comp
L R R9
U 1 1 575FE969
P 9450 2200
F 0 "R9" V 9530 2200 50  0000 C CNN
F 1 "470" V 9450 2200 50  0000 C CNN
F 2 "Resistors_SMD:R_0603_HandSoldering" V 9380 2200 50  0001 C CNN
F 3 "" H 9450 2200 50  0000 C CNN
F 4 "" H 9450 2200 50  0001 C CNN "FarnellLink"
F 5 "" H 9450 2200 50  0001 C CNN "DigiKeyLink"
F 6 "755-ESR03EZPF4700" H 9450 2200 50  0001 C CNN "MouserLink"
F 7 "R9" H 9450 2200 50  0001 C CNN "InternalName"
F 8 "" H 9450 2200 50  0001 C CNN "FarnellLink"
F 9 "" H 9450 2200 50  0001 C CNN "DigiKeyLink"
F 10 "755-ESR03EZPF4700" H 9450 2200 50  0001 C CNN "MouserLink"
F 11 "R9" H 9450 2200 50  0001 C CNN "InternalName"
	1    9450 2200
	1    0    0    -1  
$EndComp
$Comp
L R R10
U 1 1 575FEAC7
P 9850 2200
F 0 "R10" V 9930 2200 50  0000 C CNN
F 1 "470" V 9850 2200 50  0000 C CNN
F 2 "Resistors_SMD:R_0603_HandSoldering" V 9780 2200 50  0001 C CNN
F 3 "" H 9850 2200 50  0000 C CNN
F 4 "" H 9850 2200 50  0001 C CNN "FarnellLink"
F 5 "" H 9850 2200 50  0001 C CNN "DigiKeyLink"
F 6 "755-ESR03EZPF4700" H 9850 2200 50  0001 C CNN "MouserLink"
F 7 "R9" H 9850 2200 50  0001 C CNN "InternalName"
F 8 "" H 9850 2200 50  0001 C CNN "FarnellLink"
F 9 "" H 9850 2200 50  0001 C CNN "DigiKeyLink"
F 10 "755-ESR03EZPF4700" H 9850 2200 50  0001 C CNN "MouserLink"
F 11 "R9" H 9850 2200 50  0001 C CNN "InternalName"
	1    9850 2200
	1    0    0    -1  
$EndComp
$Comp
L GND #PWR020
U 1 1 575FEFD0
P 9450 2450
F 0 "#PWR020" H 9450 2200 50  0001 C CNN
F 1 "GND" H 9450 2300 50  0000 C CNN
F 2 "" H 9450 2450 50  0000 C CNN
F 3 "" H 9450 2450 50  0000 C CNN
	1    9450 2450
	1    0    0    -1  
$EndComp
Connection ~ 5950 5550
Wire Wire Line
	5900 6100 6050 6100
Wire Wire Line
	5900 5800 5900 6100
Wire Wire Line
	5750 5800 5900 5800
Wire Wire Line
	6050 5800 5950 5800
Connection ~ 4850 5550
Connection ~ 3650 5550
Wire Wire Line
	4850 5800 4900 5800
Connection ~ 2500 5550
Wire Wire Line
	3650 5800 3700 5800
Connection ~ 1150 5550
Wire Wire Line
	2500 5800 2550 5800
Wire Wire Line
	950  5550 950  5450
Wire Wire Line
	950  5550 9450 5550
Wire Wire Line
	2850 4550 2450 4550
Wire Wire Line
	2850 3900 2450 3900
Wire Wire Line
	2850 3300 2450 3300
Wire Wire Line
	2850 2700 2450 2700
Connection ~ 2900 3700
Wire Wire Line
	2900 4350 2450 4350
Connection ~ 2900 3100
Wire Wire Line
	2900 3700 2450 3700
Connection ~ 2900 2500
Wire Wire Line
	2900 3100 2450 3100
Connection ~ 2900 1850
Wire Wire Line
	2900 2500 2450 2500
Wire Wire Line
	2850 2050 2450 2050
Wire Wire Line
	2900 1600 2900 4350
Wire Wire Line
	2450 1850 2900 1850
Wire Wire Line
	1600 4550 1900 4550
Wire Wire Line
	1550 3900 1900 3900
Wire Wire Line
	1550 3300 1900 3300
Wire Wire Line
	1500 2700 1900 2700
Wire Wire Line
	1500 2050 1900 2050
Connection ~ 1650 3700
Wire Wire Line
	1650 4350 1900 4350
Connection ~ 1650 3100
Wire Wire Line
	1650 3700 1900 3700
Connection ~ 1650 2500
Wire Wire Line
	1650 3100 1900 3100
Connection ~ 1650 1850
Wire Wire Line
	1650 2500 1900 2500
Wire Wire Line
	1650 1850 1900 1850
Wire Wire Line
	1650 1550 1650 4350
Wire Wire Line
	6800 3350 7100 3350
Wire Wire Line
	6800 3450 7100 3450
Connection ~ 7800 2450
Wire Wire Line
	7700 2450 7800 2450
Wire Wire Line
	7800 2350 7800 2550
Connection ~ 7450 2450
Wire Wire Line
	7450 2550 7450 2450
Connection ~ 7800 2900
Wire Wire Line
	7800 2850 7800 2950
Wire Wire Line
	7450 2900 7450 2850
Wire Wire Line
	7800 2900 7450 2900
Wire Wire Line
	7100 3100 6800 3100
Wire Wire Line
	7100 3000 6800 3000
Wire Wire Line
	6800 3200 7100 3200
Wire Wire Line
	6800 2050 7100 2050
Wire Wire Line
	6800 2150 7100 2150
Wire Wire Line
	6800 2250 7100 2250
Wire Wire Line
	10100 4000 10100 3950
Wire Wire Line
	10100 4200 10100 4250
Wire Wire Line
	9050 4200 9400 4200
Wire Wire Line
	9400 4100 9200 4100
Wire Wire Line
	9400 4000 9200 4000
Wire Wire Line
	9900 4200 10100 4200
Wire Wire Line
	9900 4100 10100 4100
Wire Wire Line
	9900 4000 10100 4000
Connection ~ 4700 3950
Wire Wire Line
	4900 3850 4700 3850
Wire Wire Line
	4550 2000 4550 2100
Wire Wire Line
	4550 1600 4550 1700
Wire Wire Line
	6800 2450 7500 2450
Wire Wire Line
	6800 2350 7800 2350
Connection ~ 4750 1850
Wire Wire Line
	4750 2050 4900 2050
Connection ~ 4750 1750
Wire Wire Line
	4750 1850 4900 1850
Wire Wire Line
	4750 1750 4900 1750
Wire Wire Line
	4750 1600 4750 2050
Connection ~ 4700 4050
Wire Wire Line
	4900 4050 4700 4050
Wire Wire Line
	4700 3850 4700 4200
Wire Wire Line
	4900 3950 4700 3950
Wire Wire Line
	7250 5800 7150 5800
Connection ~ 7150 5550
Wire Wire Line
	8450 5800 8400 5800
Wire Wire Line
	8100 5800 8350 5800
Wire Wire Line
	8350 5800 8350 6100
Wire Wire Line
	8350 6100 8450 6100
Connection ~ 8400 5550
Wire Wire Line
	9500 5800 9450 5800
Wire Wire Line
	9300 5800 9400 5800
Wire Wire Line
	9400 5800 9400 6100
Wire Wire Line
	9400 6100 9500 6100
Wire Wire Line
	1100 6350 10400 6350
Wire Wire Line
	10400 6350 10400 6100
Wire Wire Line
	10400 6100 10350 6100
Wire Wire Line
	9300 6100 9350 6100
Wire Wire Line
	9350 6100 9350 6350
Connection ~ 9350 6350
Wire Wire Line
	8100 6100 8150 6100
Wire Wire Line
	8150 6100 8150 6350
Connection ~ 8150 6350
Wire Wire Line
	6900 6100 6950 6100
Wire Wire Line
	6950 6100 6950 6350
Connection ~ 6950 6350
Wire Wire Line
	5750 6100 5800 6100
Wire Wire Line
	5800 6100 5800 6350
Connection ~ 5800 6350
Wire Wire Line
	4550 6100 4600 6100
Wire Wire Line
	4600 6100 4600 6350
Connection ~ 4600 6350
Wire Wire Line
	3400 6100 3450 6100
Wire Wire Line
	3450 6100 3450 6350
Connection ~ 3450 6350
Wire Wire Line
	2100 6100 2150 6100
Wire Wire Line
	2150 6100 2150 6350
Connection ~ 2150 6350
Wire Wire Line
	2100 5800 2300 5800
Wire Wire Line
	2300 5800 2300 6100
Wire Wire Line
	2300 6100 2550 6100
Wire Wire Line
	3400 5800 3550 5800
Wire Wire Line
	3550 5800 3550 6100
Wire Wire Line
	3550 6100 3700 6100
Wire Wire Line
	4550 5800 4700 5800
Wire Wire Line
	4700 5800 4700 6100
Wire Wire Line
	4700 6100 4900 6100
Wire Wire Line
	6900 5800 7050 5800
Wire Wire Line
	7050 5800 7050 6100
Wire Wire Line
	7050 6100 7250 6100
Wire Wire Line
	1150 6100 1250 6100
Wire Wire Line
	850  6100 600  6100
Wire Wire Line
	500  5900 500  5850
Wire Wire Line
	1800 7100 1800 7050
Wire Wire Line
	1800 7050 3650 7050
Wire Wire Line
	2750 7050 2750 6900
Wire Wire Line
	3650 7050 3650 7100
Connection ~ 2750 7050
Wire Wire Line
	3400 7100 3400 7050
Connection ~ 3400 7050
Wire Wire Line
	3150 7100 3150 7050
Connection ~ 3150 7050
Wire Wire Line
	2900 7100 2900 7050
Connection ~ 2900 7050
Wire Wire Line
	2650 7100 2650 7050
Connection ~ 2650 7050
Wire Wire Line
	2350 7100 2350 7050
Connection ~ 2350 7050
Wire Wire Line
	2100 7100 2100 7050
Connection ~ 2100 7050
Wire Wire Line
	1800 7400 1800 7500
Wire Wire Line
	1800 7500 3650 7500
Wire Wire Line
	2750 7500 2750 7550
Wire Wire Line
	3650 7500 3650 7400
Connection ~ 2750 7500
Wire Wire Line
	3400 7400 3400 7500
Connection ~ 3400 7500
Wire Wire Line
	3150 7400 3150 7500
Connection ~ 3150 7500
Wire Wire Line
	2900 7400 2900 7500
Connection ~ 2900 7500
Wire Wire Line
	2650 7400 2650 7500
Connection ~ 2650 7500
Wire Wire Line
	2350 7400 2350 7500
Connection ~ 2350 7500
Wire Wire Line
	2100 7400 2100 7500
Connection ~ 2100 7500
Wire Wire Line
	6800 3950 7300 3950
Wire Wire Line
	6800 3650 7100 3650
Wire Wire Line
	6800 3750 7100 3750
Wire Wire Line
	9850 2000 9850 2050
Wire Wire Line
	9450 2000 9450 2050
Wire Wire Line
	9450 2400 9850 2400
Wire Wire Line
	9850 2400 9850 2350
Wire Wire Line
	9450 2350 9450 2450
Connection ~ 9450 2400
Wire Wire Line
	9450 1600 9450 1400
Wire Wire Line
	9850 1600 9850 1400
Text Label 9450 1400 3    60   ~ 0
LED1
Text Label 9850 1400 3    60   ~ 0
LED2
$Comp
L WS5050 D6
U 1 1 5751F483
P 5300 6200
F 0 "D6" H 5250 6750 60  0000 C CNN
F 1 "WS5050" H 5300 6200 60  0000 C CNN
F 2 "Sphere_lib:WS2812B" H 5300 6200 60  0001 C CNN
F 3 "" H 5300 6200 60  0000 C CNN
F 4 "" H 5300 6200 60  0001 C CNN "FarnellLink"
F 5 "" H 5300 6200 60  0001 C CNN "DigiKeyLink"
F 6 "https://www.adafruit.com/product/1655" H 5300 6200 60  0001 C CNN "MouserLink"
F 7 "D4" H 5300 6200 60  0001 C CNN "InternalName"
F 8 "" H 5300 6200 60  0001 C CNN "FarnellLink"
F 9 "" H 5300 6200 60  0001 C CNN "DigiKeyLink"
F 10 "https://www.adafruit.com/product/1655" H 5300 6200 60  0001 C CNN "MouserLink"
F 11 "D4" H 5300 6200 60  0001 C CNN "InternalName"
	1    5300 6200
	1    0    0    -1  
$EndComp
$Comp
L WS5050 D12
U 1 1 5751F809
P 9900 6200
F 0 "D12" H 9850 6750 60  0000 C CNN
F 1 "WS5050" H 9900 6200 60  0000 C CNN
F 2 "Sphere_lib:WS2812B" H 9900 6200 60  0001 C CNN
F 3 "" H 9900 6200 60  0000 C CNN
F 4 "" H 9900 6200 60  0001 C CNN "FarnellLink"
F 5 "" H 9900 6200 60  0001 C CNN "DigiKeyLink"
F 6 "https://www.adafruit.com/product/1655" H 9900 6200 60  0001 C CNN "MouserLink"
F 7 "D4" H 9900 6200 60  0001 C CNN "InternalName"
F 8 "" H 9900 6200 60  0001 C CNN "FarnellLink"
F 9 "" H 9900 6200 60  0001 C CNN "DigiKeyLink"
F 10 "https://www.adafruit.com/product/1655" H 9900 6200 60  0001 C CNN "MouserLink"
F 11 "D4" H 9900 6200 60  0001 C CNN "InternalName"
	1    9900 6200
	1    0    0    -1  
$EndComp
Wire Wire Line
	9450 5800 9450 5550
Wire Wire Line
	8400 5800 8400 5550
Wire Wire Line
	7150 5800 7150 5550
Wire Wire Line
	5950 5800 5950 5550
Wire Wire Line
	4850 5550 4850 5800
Wire Wire Line
	3650 5550 3650 5800
Wire Wire Line
	2500 5550 2500 5800
Wire Wire Line
	1250 5800 1150 5800
Wire Wire Line
	1150 5800 1150 5550
NoConn ~ 6800 2900
NoConn ~ 6800 2800
NoConn ~ 6800 2700
NoConn ~ 6800 2600
NoConn ~ 6800 1950
NoConn ~ 6800 1850
NoConn ~ 6800 1750
NoConn ~ 4900 3100
NoConn ~ 4900 3200
NoConn ~ 4900 2350
NoConn ~ 6800 3550
NoConn ~ 6800 3850
NoConn ~ 6800 4050
NoConn ~ 10350 5800
$Comp
L GND #PWR021
U 1 1 58272195
P 4700 4200
F 0 "#PWR021" H 4700 3950 50  0001 C CNN
F 1 "GND" H 4700 4050 50  0000 C CNN
F 2 "" H 4700 4200 50  0000 C CNN
F 3 "" H 4700 4200 50  0000 C CNN
	1    4700 4200
	1    0    0    -1  
$EndComp
$Comp
L GND #PWR022
U 1 1 582724AA
P 2750 7550
F 0 "#PWR022" H 2750 7300 50  0001 C CNN
F 1 "GND" H 2750 7400 50  0000 C CNN
F 2 "" H 2750 7550 50  0000 C CNN
F 3 "" H 2750 7550 50  0000 C CNN
	1    2750 7550
	1    0    0    -1  
$EndComp
$Comp
L GND #PWR023
U 1 1 58273940
P 1100 6350
F 0 "#PWR023" H 1100 6100 50  0001 C CNN
F 1 "GND" H 1100 6200 50  0000 C CNN
F 2 "" H 1100 6350 50  0000 C CNN
F 3 "" H 1100 6350 50  0000 C CNN
	1    1100 6350
	1    0    0    -1  
$EndComp
$Comp
L GND #PWR024
U 1 1 58273CDE
P 7800 2950
F 0 "#PWR024" H 7800 2700 50  0001 C CNN
F 1 "GND" H 7800 2800 50  0000 C CNN
F 2 "" H 7800 2950 50  0000 C CNN
F 3 "" H 7800 2950 50  0000 C CNN
	1    7800 2950
	1    0    0    -1  
$EndComp
$Comp
L GND #PWR025
U 1 1 58274F0D
P 10100 4250
F 0 "#PWR025" H 10100 4000 50  0001 C CNN
F 1 "GND" H 10100 4100 50  0000 C CNN
F 2 "" H 10100 4250 50  0000 C CNN
F 3 "" H 10100 4250 50  0000 C CNN
	1    10100 4250
	1    0    0    -1  
$EndComp
$Comp
L GND #PWR026
U 1 1 58541CC4
P 4550 2100
F 0 "#PWR026" H 4550 1850 50  0001 C CNN
F 1 "GND" H 4550 1950 50  0000 C CNN
F 2 "" H 4550 2100 50  0000 C CNN
F 3 "" H 4550 2100 50  0000 C CNN
	1    4550 2100
	1    0    0    -1  
$EndComp
Text Notes 800  1250 0    118  ~ 0
Level Shifters: 5V to 3.3V
Text Notes 4350 1250 0    118  ~ 0
uController
Wire Notes Line
	500  4800 11200 4800
Text Notes 650  5100 0    118  ~ 0
RGB Leds
Wire Notes Line
	8200 3050 11200 3050
Text Notes 8300 3300 0    118  ~ 0
ISP Programming Conn
Text Notes 8300 1200 0    118  ~ 0
Heartbeat LED
Wire Notes Line
	500  1000 11200 1000
Wire Notes Line
	3950 1000 3950 4800
Wire Notes Line
	8150 4800 8150 1000
Text Notes 750  800  0    197  ~ 0
User Interface Module
$EndSCHEMATC
